aes_tb.vcd
$date
	Tue Sep 16 20:45:19 2025
$end
$version
	Icarus Verilog
$end
$timescale
	1ps
$end
$scope module aes_tb $end
$var wire 32 ! dword_out [31:0] $end
$var wire 1 " done $end
$var reg 1 # clk $end
$var reg 32 $ dword_in [31:0] $end
$var reg 128 % key [127:0] $end
$var reg 128 & plaintext [127:0] $end
$var reg 1 ' reset_n $end
$var reg 1 ( start_n $end
$var reg 1 ) start_read_n $end
$scope module uut $end
$var wire 1 # clk $end
$var wire 32 * dword_in [31:0] $end
$var wire 32 + dword_out [31:0] $end
$var wire 1 ' reset_n $end
$var wire 1 ( start_n $end
$var wire 1 ) start_read_n $end
$var wire 1 , write_enable $end
$var wire 32 - state_word [31:0] $end
$var wire 32 . shifted_row [31:0] $end
$var wire 32 / sbox_out [31:0] $end
$var wire 1 0 row_col_sel $end
$var wire 2 1 row_col_index [1:0] $end
$var wire 32 2 round_key [31:0] $end
$var wire 4 3 round_index [3:0] $end
$var wire 1 4 output_mat_row_col $end
$var wire 2 5 output_mat_idx [1:0] $end
$var wire 32 6 mixed_col [31:0] $end
$var wire 4 7 matrix_in_sel [3:0] $end
$var wire 1 8 key_start $end
$var wire 1 9 key_done $end
$var wire 1 " done $end
$var wire 128 : dbg_flattened_matrix [127:0] $end
$var wire 6 ; current_state [5:0] $end
$var wire 2 < count_4 [1:0] $end
$var wire 32 = ark_out [31:0] $end
$var reg 32 > dmatrix_in [31:0] $end
$scope module ark $end
$var wire 32 ? state_out [31:0] $end
$var wire 32 @ state_in [31:0] $end
$var wire 32 A round_key [31:0] $end
$upscope $end
$scope module datamatrix $end
$var wire 1 # clk $end
$var wire 32 B col_in [31:0] $end
$var wire 1 ' reset_n $end
$var wire 1 , write_enable $end
$var wire 1 4 output_row_col $end
$var wire 2 C output_idx [1:0] $end
$var wire 1 0 input_row_col $end
$var wire 2 D input_idx [1:0] $end
$var wire 128 E debug_state [127:0] $end
$var reg 32 F out [31:0] $end
$scope begin $unm_blk_6 $end
$var integer 32 G i [31:0] $end
$var integer 32 H j [31:0] $end
$upscope $end
$upscope $end
$scope module ke $end
$var wire 32 I cipher_key [31:0] $end
$var wire 1 # clk $end
$var wire 1 J reset $end
$var wire 1 8 start $end
$var wire 4 K round_key_num [3:0] $end
$var wire 2 L r_index [1:0] $end
$var reg 128 M current_key [127:0] $end
$var reg 1 9 done $end
$var reg 1 N expanded $end
$var reg 128 O key_reg [127:0] $end
$var reg 2 P load_count [1:0] $end
$var reg 1 Q loading $end
$var reg 4 R round_ctr [3:0] $end
$var reg 32 S round_key [31:0] $end
$var reg 2 T state [1:0] $end
$scope function get_word $end
$upscope $end
$scope function next_key $end
$upscope $end
$scope function rcon $end
$var reg 8 U rc [7:0] $end
$var integer 32 V i [31:0] $end
$upscope $end
$scope function rot_word $end
$var reg 32 W w [31:0] $end
$upscope $end
$scope function sbox_lookup $end
$var reg 8 X byte_in [7:0] $end
$upscope $end
$scope function sub_word $end
$var reg 32 Y w [31:0] $end
$upscope $end
$upscope $end
$scope module mc $end
$var wire 32 Z col_in [31:0] $end
$var wire 8 [ s3 [7:0] $end
$var wire 8 \ s2 [7:0] $end
$var wire 8 ] s1 [7:0] $end
$var wire 8 ^ s0 [7:0] $end
$var wire 32 _ col_out [31:0] $end
$scope function mul_by_3 $end
$var reg 8 ` byte_in [7:0] $end
$upscope $end
$scope function xtime $end
$var reg 8 a byte_in [7:0] $end
$upscope $end
$upscope $end
$scope module sb $end
$var wire 32 b row_in [31:0] $end
$var wire 32 c row_out [31:0] $end
$scope function sbox_lookup $end
$upscope $end
$upscope $end
$scope module sm $end
$var wire 1 # clock $end
$var wire 2 d count_4_out [1:0] $end
$var wire 1 9 key_expand_done $end
$var wire 1 ' reset_n $end
$var wire 1 ) start_read_n $end
$var wire 1 ( start_write_n $end
$var parameter 6 e ADDROUNDKEY $end
$var parameter 6 f COMPUTE_ROUNDKEYS $end
$var parameter 6 g CTEXT_READ $end
$var parameter 6 h ENCRYPTION_DONE $end
$var parameter 6 i IDLE $end
$var parameter 6 j INIT_ADDROUNDKEY $end
$var parameter 6 k KEY_WRITE $end
$var parameter 6 l MIXCOLUMNS $end
$var parameter 6 m PTEXT_WRITE $end
$var parameter 6 n SHIFTROWS $end
$var parameter 6 o SUBBYTES $end
$var reg 2 p count_4 [1:0] $end
$var reg 6 q current_state [5:0] $end
$var reg 4 r dbg_round [3:0] $end
$var reg 6 s dbg_state [5:0] $end
$var reg 1 " done $end
$var reg 2 t input_mat_idx [1:0] $end
$var reg 1 0 input_mat_row_col $end
$var reg 1 8 key_start $end
$var reg 4 u matrix_in_sel [3:0] $end
$var reg 1 , matrix_write_enable $end
$var reg 2 v next_count_4 [1:0] $end
$var reg 4 w next_round_counter [3:0] $end
$var reg 6 x next_state [5:0] $end
$var reg 2 y output_mat_idx [1:0] $end
$var reg 1 4 output_mat_row_col $end
$var reg 4 z round_counter [3:0] $end
$upscope $end
$scope module sr $end
$var wire 2 { idx_row [1:0] $end
$var wire 32 | row_in [31:0] $end
$var wire 32 } row_out [31:0] $end
$var reg 32 ~ row_out_reg [31:0] $end
$upscope $end
$upscope $end
$upscope $end
$enddefinitions $end
$comment Show the parameter values. $end
$dumpall
b100 o
b101 n
b1 m
b110 l
b10 k
b1010 j
b0 i
b1000 h
b1001 g
b11 f
b111 e
$end
#0
$dumpvars
b0 ~
b0 }
b0 |
b0 {
b0 z
b0 y
b0 x
b0 w
b0 v
b0 u
b0 t
b0 s
b0 r
b0 q
b0 p
b0 d
b1100011011000110110001101100011 c
b0 b
b0 a
b0 `
b0 _
b0 ^
b0 ]
b0 \
b0 [
b0 Z
bx Y
bx X
bx W
bx V
bx U
b0 T
bx S
b0 R
0Q
b0 P
b0 O
0N
bx M
b0 L
b0 K
1J
b0 I
b100 H
b100 G
b0 F
b0 E
b0 D
b0 C
b0 B
bx A
b0 @
bx ?
b0 >
bx =
b0 <
b0 ;
b0 :
09
08
b0 7
b0 6
b0 5
04
b0 3
bx 2
b0 1
00
b1100011011000110110001101100011 /
b0 .
b0 -
0,
b0 +
b0 *
1)
1(
0'
b11110011010001001000000111101100001111001100011000100111101110101100110101011101110000111111101100001000111100100111001111100110 &
b0 %
b0 $
0#
0"
b0 !
$end
#5000
b100 H
b100 G
1#
#10000
0#
#15000
b100 H
b100 G
1#
#20000
b11110011010001001000000111101100 >
b11110011010001001000000111101100 B
b1 x
0#
b11110011010001001000000111101100 $
b11110011010001001000000111101100 *
b11110011010001001000000111101100 I
0(
0J
1'
#25000
b0 =
b0 ?
b1 ;
b1 s
1,
b1 v
b0 2
b0 A
b0 S
b1 q
b10 T
b0 M
1#
#30000
b1 v
0#
1(
#35000
b11110011 `
b11110011 a
b1011100000011111000000100001000 6
b1011100000011111000000100001000 _
b1101000110110000110011001110 /
b1101000110110000110011001110 c
b11110011 ^
b1000100 ]
b10000001 \
b11101100 [
b11110011010001001000000111101100 =
b11110011010001001000000111101100 ?
b1000100100000011110110011110011 .
b1000100100000011110110011110011 }
b1000100100000011110110011110011 ~
b11110011010001001000000111101100 !
b11110011010001001000000111101100 +
b11110011010001001000000111101100 -
b11110011010001001000000111101100 @
b11110011010001001000000111101100 F
b11110011010001001000000111101100 Z
b11110011010001001000000111101100 b
b11110011010001001000000111101100 |
b1 1
b1 D
b1 t
b1 {
b10 v
b11110011010001001000000111101100000000000000000000000000000000000000000000000000000000000000000000000000000000000000000000000000 :
b11110011010001001000000111101100000000000000000000000000000000000000000000000000000000000000000000000000000000000000000000000000 E
b1 <
b1 L
b1 d
b1 p
b1 R
b1100010011000110110001101100011011000100110001101100011011000110110001001100011011000110110001101100010011000110110001101100011 M
b1 U
b1 V
b0 X
b0 Y
b0 W
1#
#40000
b111100110001100010011110111010 >
b111100110001100010011110111010 B
0#
b111100110001100010011110111010 $
b111100110001100010011110111010 *
b111100110001100010011110111010 I
#45000
b10000001111011001111001101000100 .
b10000001111011001111001101000100 }
b10000001111011001111001101000100 ~
b10 1
b10 D
b10 t
b10 {
b11 v
b10 <
b10 L
b10 d
b10 p
b11110011010001001000000111101100001111001100011000100111101110100000000000000000000000000000000000000000000000000000000000000000 :
b11110011010001001000000111101100001111001100011000100111101110100000000000000000000000000000000000000000000000000000000000000000 E
b10 R
b10100100101001111010011100010110110001101100010011000100011101011010010010100111101001110001011011000110110001001100010001110101 M
b10 U
b10 V
b1100010 X
b1100011011000110110001101100010 Y
b1100010011000110110001101100011 W
1#
#50000
b11001101010111011100001111111011 >
b11001101010111011100001111111011 B
0#
b11001101010111011100001111111011 $
b11001101010111011100001111111011 *
b11001101010111011100001111111011 I
#55000
b11101100111100110100010010000001 .
b11101100111100110100010010000001 }
b11101100111100110100010010000001 ~
b11 1
b11 D
b11 t
b11 {
b0 v
b10 x
b11110011010001001000000111101100001111001100011000100111101110101100110101011101110000111111101100000000000000000000000000000000 :
b11110011010001001000000111101100001111001100011000100111101110101100110101011101110000111111101100000000000000000000000000000000 E
b11 <
b11 L
b11 d
b11 p
b11 R
b11000111110000001000110001111010000000010000010001001000000011111010010110100011111011110001100101100011011001110010101101101100 M
b100 U
b11 V
b11000110 X
b11000100110001000111010111000110 Y
b11000110110001001100010001110101 W
1#
#60000
b0 >
b0 B
0#
b0 $
b0 *
b0 I
#65000
bx >
bx B
b11110011010001001000000111101100 .
b11110011010001001000000111101100 }
b11110011010001001000000111101100 ~
18
b10 ;
b10 s
0,
bx 7
bx u
b0 1
b0 D
b0 t
b0 {
b1 v
b0 <
b0 L
b0 d
b0 p
b10 q
b100 R
b1011011101101010111100010111110010110101011000100110000101100011111111100010010110111111010100010011100011101011111010011000100 M
b1000 U
b100 V
b1100011 X
b1100111001010110110110001100011 Y
b1100011011001110010101101101100 W
1#
#70000
0#
#75000
b1000100100000011110110011110011 .
b1000100100000011110110011110011 }
b1000100100000011110110011110011 ~
08
b1 1
b1 D
b1 t
b1 {
b10 v
b1 <
b1 L
b1 d
b1 p
1Q
b101 R
b1100000101101010001111101001010001110100000010000101111111110111100010100010110111100000101001101011001011000110000010010010111 M
b10000 U
b101 V
b10011100 X
b1110101111101001100010010011100 Y
b10011100011101011111010011000100 W
1#
#80000
0#
#85000
b10000001111011001111001101000100 .
b10000001111011001111001101000100 }
b10000001111011001111001101000100 ~
b10 1
b10 D
b10 t
b10 {
b11 v
b10 <
b10 L
b10 d
b10 p
b0 T
b0 R
b10000100010001111000101101011001101111100100001110100100101000100111101101010101010101001111000100100010001101100101000001100110 M
b1 P
b100000 U
b110 V
b1011001 X
b1100011000001001001011101011001 Y
b1011001011000110000010010010111 W
1#
#90000
0#
#95000
b11101100111100110100010010000001 .
b11101100111100110100010010000001 }
b11101100111100110100010010000001 ~
b11 1
b11 D
b11 t
b11 {
b0 v
b1010 x
b11 <
b11 L
b11 d
b11 p
b10 P
1#
#100000
0#
#105000
b0 >
b0 B
b11110011010001001000000111101100 .
b11110011010001001000000111101100 }
b11110011010001001000000111101100 ~
b1010 ;
b1010 s
1,
b100 7
b100 u
b0 1
b0 D
b0 t
b0 {
b11 x
b0 <
b0 L
b0 d
b0 p
b1010 q
b11 P
1#
#110000
0#
#115000
b0 `
b0 a
b0 6
b0 _
b1100011011000110110001101100011 /
b1100011011000110110001101100011 c
b0 ^
b0 ]
b0 \
b0 [
b0 =
b0 ?
b0 .
b0 }
b0 ~
bx >
bx B
b0 !
b0 +
b0 -
b0 @
b0 F
b0 Z
b0 b
b0 |
b11 ;
b11 s
0,
bx 7
bx u
b1111001100011000100111101110101100110101011101110000111111101100000000000000000000000000000000 :
b1111001100011000100111101110101100110101011101110000111111101100000000000000000000000000000000 E
b11 q
b0 P
0Q
1#
#120000
0#
#125000
b10 T
b0 M
1#
#130000
0#
#135000
b1 R
b1100010011000110110001101100011011000100110001101100011011000110110001001100011011000110110001101100010011000110110001101100011 M
b1 U
b1 V
b0 X
b0 Y
b0 W
1#
#140000
0#
#145000
b10 R
b10100100101001111010011100010110110001101100010011000100011101011010010010100111101001110001011011000110110001001100010001110101 M
b10 U
b10 V
b1100010 X
b1100011011000110110001101100010 Y
b1100010011000110110001101100011 W
1#
#150000
0#
#155000
b11 R
b11000111110000001000110001111010000000010000010001001000000011111010010110100011111011110001100101100011011001110010101101101100 M
b100 U
b11 V
b11000110 X
b11000100110001000111010111000110 Y
b11000110110001001100010001110101 W
1#
#160000
0#
#165000
b100 R
b1011011101101010111100010111110010110101011000100110000101100011111111100010010110111111010100010011100011101011111010011000100 M
b1000 U
b100 V
b1100011 X
b1100111001010110110110001100011 Y
b1100011011001110010101101101100 W
1#
#170000
0#
#175000
b101 R
b1100000101101010001111101001010001110100000010000101111111110111100010100010110111100000101001101011001011000110000010010010111 M
b10000 U
b101 V
b10011100 X
b1110101111101001100010010011100 Y
b10011100011101011111010011000100 W
1#
#180000
0#
#185000
b110 R
b10000100010001111000101101011001101111100100001110100100101000100111101101010101010101001111000100100010001101100101000001100110 M
b100000 U
b110 V
b1011001 X
b1100011000001001001011101011001 Y
b1011001011000110000010010010111 W
1#
#190000
0#
#195000
b111 R
b10000000101111011110011111001010001111101111111001000011011010000100010110101011000101111001100101100111100111010100011111111111 M
b1000000 U
b111 V
b100010 X
b110110010100000110011000100010 Y
b100010001101100101000001100110 W
1#
#200000
0#
#205000
b1000 R
b1011101000011110011101011110001101010101111110100100001101100111000011110100101100111010111100010111011010011111010001010000 M
b10000000 U
b1000 V
b1100111 X
b10011101010001111111111101100111 Y
b1100111100111010100011111111111 W
1#
#210000
0#
#215000
b1001 R
b1000101101000010001110110101110011100001111111010111001100110000000000000001010000010100011011100010111011000111111111001100111 M
b11011 U
b1001 V
b10111 X
b1101001111101000101000000010111 Y
b10111011010011111010001010000 W
1#
#220000
0#
#225000
b1010 R
b10110111101000011000100101011110110001110101111100110000110001101100011101010101001110101111000111010000001101101100010010010110 M
b110110 U
b1010 V
b10111 X
b1100011111111100110011100010111 Y
b10111011000111111111001100111 W
1#
#230000
0#
#235000
b11 T
1#
#240000
0#
#245000
b100 x
b0 T
19
1#
#250000
0#
#255000
b1100011011000110110001101100011 >
b1100011011000110110001101100011 B
b100 ;
b100 s
1,
b1 7
b1 u
b1 v
b100 q
b10 T
b0 R
b0 M
1#
#260000
0#
#265000
b11101011101101001100110011110100 >
b11101011101101001100110011110100 B
b111100 `
b111100 a
b10110100011110000110000111001010 6
b10110100011110000110000111001010 _
b11101011101101001100110011110100 /
b11101011101101001100110011110100 c
b111100 ^
b11000110 ]
b100111 \
b10111010 [
b111100110001100010011110111010 =
b111100110001100010011110111010 ?
b11000110001001111011101000111100 .
b11000110001001111011101000111100 }
b11000110001001111011101000111100 ~
b1 5
b1 C
b1 y
b1 1
b1 D
b1 t
b1 {
b10 v
b111100110001100010011110111010 !
b111100110001100010011110111010 +
b111100110001100010011110111010 -
b111100110001100010011110111010 @
b111100110001100010011110111010 F
b111100110001100010011110111010 Z
b111100110001100010011110111010 b
b111100110001100010011110111010 |
b1 <
b1 L
b1 d
b1 p
b1100011011000110110001101100011001111001100011000100111101110101100110101011101110000111111101100000000000000000000000000000000 :
b1100011011000110110001101100011001111001100011000100111101110101100110101011101110000111111101100000000000000000000000000000000 E
b1 R
b1100010011000110110001101100011011000100110001101100011011000110110001001100011011000110110001101100010011000110110001101100011 M
b1 U
b1 V
b0 X
b0 Y
b0 W
1#
#270000
0#
#275000
b10111101010011000010111000001111 >
b10111101010011000010111000001111 B
b11001101 `
b11001101 a
b1011110110100100001101100111111 6
b1011110110100100001101100111111 _
b10111101010011000010111000001111 /
b10111101010011000010111000001111 c
b11001101 ^
b1011101 ]
b11000011 \
b11111011 [
b11001101010111011100001111111011 =
b11001101010111011100001111111011 ?
b11000011111110111100110101011101 .
b11000011111110111100110101011101 }
b11000011111110111100110101011101 ~
b11001101010111011100001111111011 !
b11001101010111011100001111111011 +
b11001101010111011100001111111011 -
b11001101010111011100001111111011 @
b11001101010111011100001111111011 F
b11001101010111011100001111111011 Z
b11001101010111011100001111111011 b
b11001101010111011100001111111011 |
b10 5
b10 C
b10 y
b10 1
b10 D
b10 t
b10 {
b11 v
b1100011011000110110001101100011111010111011010011001100111101001100110101011101110000111111101100000000000000000000000000000000 :
b1100011011000110110001101100011111010111011010011001100111101001100110101011101110000111111101100000000000000000000000000000000 E
b10 <
b10 L
b10 d
b10 p
b10 R
b10100100101001111010011100010110110001101100010011000100011101011010010010100111101001110001011011000110110001001100010001110101 M
b10 U
b10 V
b1100010 X
b1100011011000110110001101100010 Y
b1100010011000110110001101100011 W
1#
#280000
0#
#285000
b1100011011000110110001101100011 >
b1100011011000110110001101100011 B
b0 `
b0 a
b0 6
b0 _
b1100011011000110110001101100011 /
b1100011011000110110001101100011 c
b0 ^
b0 ]
b0 \
b0 [
b0 =
b0 ?
b0 .
b0 }
b0 ~
b11 5
b11 C
b11 y
b11 1
b11 D
b11 t
b11 {
b0 v
b101 x
b0 !
b0 +
b0 -
b0 @
b0 F
b0 Z
b0 b
b0 |
b11 <
b11 L
b11 d
b11 p
b1100011011000110110001101100011111010111011010011001100111101001011110101001100001011100000111100000000000000000000000000000000 :
b1100011011000110110001101100011111010111011010011001100111101001011110101001100001011100000111100000000000000000000000000000000 E
b11 R
b11000111110000001000110001111010000000010000010001001000000011111010010110100011111011110001100101100011011001110010101101101100 M
b100 U
b11 V
b11000110 X
b11000100110001000111010111000110 Y
b11000110110001001100010001110101 W
1#
#290000
0#
#295000
b1100011 `
b1100011 a
b1100011011000110110001101100011 6
b1100011011000110110001101100011 _
b11111011111110111111101111111011 /
b11111011111110111111101111111011 c
b1100011 ^
b1100011 ]
b1100011 \
b1100011 [
b1100011011000110110001101100011 =
b1100011011000110110001101100011 ?
b1100011011000110110001101100011 .
b1100011011000110110001101100011 }
b1100011011000110110001101100011 ~
b1100011011000110110001101100011 !
b1100011011000110110001101100011 +
b1100011011000110110001101100011 -
b1100011011000110110001101100011 @
b1100011011000110110001101100011 F
b1100011011000110110001101100011 Z
b1100011011000110110001101100011 b
b1100011011000110110001101100011 |
b101 ;
b101 s
b10 7
b10 u
b0 5
b0 C
b0 y
b0 1
b0 D
b0 t
b0 {
b1 v
b1100011011000110110001101100011111010111011010011001100111101001011110101001100001011100000111101100011011000110110001101100011 :
b1100011011000110110001101100011111010111011010011001100111101001011110101001100001011100000111101100011011000110110001101100011 E
b0 <
b0 L
b0 d
b0 p
b101 q
b100 R
b1011011101101010111100010111110010110101011000100110000101100011111111100010010110111111010100010011100011101011111010011000100 M
b1000 U
b100 V
b1100011 X
b1100111001010110110110001100011 Y
b1100011011001110010101101101100 W
1#
#300000
0#
#305000
b11101011 `
b11101011 a
b110010001000111101101110101101 6
b110010001000111101101110101101 _
b11101001100011010100101110111111 /
b11101001100011010100101110111111 c
b10110100110011001111010011101011 >
b10110100110011001111010011101011 B
b11101011 ^
b10110100 ]
b11001100 \
b11110100 [
b11101011101101001100110011110100 =
b11101011101101001100110011110100 ?
b10110100110011001111010011101011 .
b10110100110011001111010011101011 }
b10110100110011001111010011101011 ~
b11101011101101001100110011110100 !
b11101011101101001100110011110100 +
b11101011101101001100110011110100 -
b11101011101101001100110011110100 @
b11101011101101001100110011110100 F
b11101011101101001100110011110100 Z
b11101011101101001100110011110100 b
b11101011101101001100110011110100 |
b1 5
b1 C
b1 y
b1 1
b1 D
b1 t
b1 {
b10 v
b1 <
b1 L
b1 d
b1 p
b101 R
b1100000101101010001111101001010001110100000010000101111111110111100010100010110111100000101001101011001011000110000010010010111 M
b10000 U
b101 V
b10011100 X
b1110101111101001100010010011100 Y
b10011100011101011111010011000100 W
1#
#310000
0#
#315000
b10111101 `
b10111101 a
b10010100010110001011110010100000 6
b10010100010110001011110010100000 _
b1111010001010010011000101110110 /
b1111010001010010011000101110110 c
b101110000011111011110101001100 >
b101110000011111011110101001100 B
b10111101 ^
b1001100 ]
b101110 \
b1111 [
b10111101010011000010111000001111 =
b10111101010011000010111000001111 ?
b101110000011111011110101001100 .
b101110000011111011110101001100 }
b101110000011111011110101001100 ~
b10111101010011000010111000001111 !
b10111101010011000010111000001111 +
b10111101010011000010111000001111 -
b10111101010011000010111000001111 @
b10111101010011000010111000001111 F
b10111101010011000010111000001111 Z
b10111101010011000010111000001111 b
b10111101010011000010111000001111 |
b10 5
b10 C
b10 y
b10 1
b10 D
b10 t
b10 {
b11 v
b1100011011000110110001101100011101101001100110011110100111010111011110101001100001011100000111101100011011000110110001101100011 :
b1100011011000110110001101100011101101001100110011110100111010111011110101001100001011100000111101100011011000110110001101100011 E
b10 <
b10 L
b10 d
b10 p
b110 R
b10000100010001111000101101011001101111100100001110100100101000100111101101010101010101001111000100100010001101100101000001100110 M
b100000 U
b110 V
b1011001 X
b1100011000001001001011101011001 Y
b1011001011000110000010010010111 W
1#
#320000
0#
#325000
b1100011 `
b1100011 a
b1100011011000110110001101100011 6
b1100011011000110110001101100011 _
b11111011111110111111101111111011 /
b11111011111110111111101111111011 c
b1100011011000110110001101100011 >
b1100011011000110110001101100011 B
b1100011 ^
b1100011 ]
b1100011 \
b1100011 [
b1100011011000110110001101100011 =
b1100011011000110110001101100011 ?
b1100011011000110110001101100011 .
b1100011011000110110001101100011 }
b1100011011000110110001101100011 ~
b11 5
b11 C
b11 y
b11 1
b11 D
b11 t
b11 {
b0 v
b110 x
b1100011011000110110001101100011 !
b1100011011000110110001101100011 +
b1100011011000110110001101100011 -
b1100011011000110110001101100011 @
b1100011011000110110001101100011 F
b1100011011000110110001101100011 Z
b1100011011000110110001101100011 b
b1100011011000110110001101100011 |
b11 <
b11 L
b11 d
b11 p
b1100011011000110110001101100011101101001100110011110100111010110010111000001111101111010100110001100011011000110110001101100011 :
b1100011011000110110001101100011101101001100110011110100111010110010111000001111101111010100110001100011011000110110001101100011 E
b111 R
b10000000101111011110011111001010001111101111111001000011011010000100010110101011000101111001100101100111100111010100011111111111 M
b1000000 U
b111 V
b100010 X
b110110010100000110011000100010 Y
b100010001101100101000001100110 W
1#
#330000
0#
#335000
b1001100000000010010111011111001 >
b1001100000000010010111011111001 B
b1001100000000010010111011111001 6
b1001100000000010010111011111001 _
b10110100 `
b10110100 a
b11111011100011010011000111111011 /
b11111011100011010011000111111011 c
b10110100 ]
b101110 \
b1100011101101000010111001100011 =
b1100011101101000010111001100011 ?
b1100011101101000010111001100011 .
b1100011101101000010111001100011 }
b1100011101101000010111001100011 ~
b1100011101101000010111001100011 !
b1100011101101000010111001100011 +
b1100011101101000010111001100011 -
b1100011101101000010111001100011 @
b1100011101101000010111001100011 F
b1100011101101000010111001100011 Z
b1100011101101000010111001100011 b
b1100011101101000010111001100011 |
b110 ;
b110 s
14
10
b11 7
b11 u
b0 5
b0 C
b0 y
b0 1
b0 D
b0 t
b0 {
b1 v
b0 <
b0 L
b0 d
b0 p
b110 q
b1000 R
b1011101000011110011101011110001101010101111110100100001101100111000011110100101100111010111100010111011010011111010001010000 M
b10000000 U
b1000 V
b1100111 X
b10011101010001111111111101100111 Y
b1100111100111010100011111111111 W
1#
#340000
0#
#345000
b11100101100100100001010010100000 >
b11100101100100100001010010100000 B
b1111 \
b1100011 `
b1100011 a
b11100101100100100001010010100000 6
b11100101100100100001010010100000 _
b11111011010010110111011011111011 /
b11111011010010110111011011111011 c
b1100011 ^
b11001100 ]
b1100011 [
b1100011110011000000111101100011 =
b1100011110011000000111101100011 ?
b11001100000011110110001101100011 .
b11001100000011110110001101100011 }
b11001100000011110110001101100011 ~
b1 5
b1 C
b1 y
b1 1
b1 D
b1 t
b1 {
14
10
b10 v
b1100011110011000000111101100011 !
b1100011110011000000111101100011 +
b1100011110011000000111101100011 -
b1100011110011000000111101100011 @
b1100011110011000000111101100011 F
b1100011110011000000111101100011 Z
b1100011110011000000111101100011 b
b1100011110011000000111101100011 |
b1 <
b1 L
b1 d
b1 p
b1001100011000110110001101100011000000011100110011110100111010110010111000001111101111010100110011111001011000110110001101100011 :
b1001100011000110110001101100011000000011100110011110100111010110010111000001111101111010100110011111001011000110110001101100011 E
b1001 R
b1000101101000010001110110101110011100001111111010111001100110000000000000001010000010100011011100010111011000111111111001100111 M
b11011 U
b1001 V
b10111 X
b1101001111101000101000000010111 Y
b10111011010011111010001010000 W
1#
#350000
0#
#355000
b11111001011110101001100101010 >
b11111001011110101001100101010 B
b11111001011110101001100101010 6
b11111001011110101001100101010 _
b11110100 `
b11110100 a
b11111011101111110111101011111011 /
b11111011101111110111101011111011 c
b11110100 ]
b10111101 \
b1100011111101001011110101100011 =
b1100011111101001011110101100011 ?
b10111101011000110110001111110100 .
b10111101011000110110001111110100 }
b10111101011000110110001111110100 ~
b1100011111101001011110101100011 !
b1100011111101001011110101100011 +
b1100011111101001011110101100011 -
b1100011111101001011110101100011 @
b1100011111101001011110101100011 F
b1100011111101001011110101100011 Z
b1100011111101001011110101100011 b
b1100011111101001011110101100011 |
b10 5
b10 C
b10 y
14
b10 1
b10 D
b10 t
b10 {
10
b11 v
b1001100111001010110001101100011000000011001001011110100111010110010111000010100101111010100110011111001101000000110001101100011 :
b1001100111001010110001101100011000000011001001011110100111010110010111000010100101111010100110011111001101000000110001101100011 E
b10 <
b10 L
b10 d
b10 p
b1010 R
b10110111101000011000100101011110110001110101111100110000110001101100011101010101001110101111000111010000001101101100010010010110 M
b110110 U
b1010 V
b10111 X
b1100011111111100110011100010111 Y
b10111011000111111111001100111 W
1#
#360000
0#
#365000
b11001111000110011011010111000100 >
b11001111000110011011010111000100 B
b1100011 `
b1100011 a
b11001111000110011011010111000100 6
b11001111000110011011010111000100 _
b11111011111010010010100111111011 /
b11111011111010010010100111111011 c
b1100011 ^
b11101011 ]
b1001100 \
b1100011 [
b1100011111010110100110001100011 =
b1100011111010110100110001100011 ?
b1100011011000111110101101001100 .
b1100011011000111110101101001100 }
b1100011011000111110101101001100 ~
b11 5
b11 C
b11 y
14
b11 1
b11 D
b11 t
b11 {
10
b0 v
b111 x
b1100011111010110100110001100011 !
b1100011111010110100110001100011 +
b1100011111010110100110001100011 -
b1100011111010110100110001100011 @
b1100011111010110100110001100011 F
b1100011111010110100110001100011 Z
b1100011111010110100110001100011 b
b1100011111010110100110001100011 |
b11 <
b11 L
b11 d
b11 p
b1001100111001010001111101100011000000011001001000101111111010110010111000010100010100110100110011111001101000000010101001100011 :
b1001100111001010001111101100011000000011001001000101111111010110010111000010100010100110100110011111001101000000010101001100011 E
b11 T
1#
#370000
0#
#375000
b1001100 `
b1001100 a
b1001100110001010000000100010010 6
b1001100110001010000000100010010 _
b101001011111000011000110011001 /
b101001011111000011000110011001 c
b1001100 ^
b1 ]
b101110 \
b11111001 [
b1001100000000010010111011111001 =
b1001100000000010010111011111001 ?
b0 >
b0 B
b1001100000000010010111011111001 .
b1001100000000010010111011111001 }
b1001100000000010010111011111001 ~
b1001100000000010010111011111001 !
b1001100000000010010111011111001 +
b1001100000000010010111011111001 -
b1001100000000010010111011111001 @
b1001100000000010010111011111001 F
b1001100000000010010111011111001 Z
b1001100000000010010111011111001 b
b1001100000000010010111011111001 |
b111 ;
b111 s
b100 7
b100 u
b0 5
b0 C
b0 y
14
b0 1
b0 D
b0 t
b0 {
10
b1 v
b1001100111001010001111111001111000000011001001000101111000110010010111000010100010100111011010111111001101000000010101011000100 :
b1001100111001010001111111001111000000011001001000101111000110010010111000010100010100111011010111111001101000000010101011000100 E
b0 <
b0 L
b0 d
b0 p
b111 q
b0 T
1#
#380000
0#
#385000
b11100101 `
b11100101 a
b11001000010001101010010011101001 6
b11001000010001101010010011101001 _
b11011001010011111111101011100000 /
b11011001010011111111101011100000 c
b11100101 ^
b10010010 ]
b10100 \
b10100000 [
b11100101100100100001010010100000 =
b11100101100100100001010010100000 ?
b10010010000101001010000011100101 .
b10010010000101001010000011100101 }
b10010010000101001010000011100101 ~
b1 5
b1 C
b1 y
b1 1
b1 D
b1 t
b1 {
14
10
b10 v
b11100101100100100001010010100000 !
b11100101100100100001010010100000 +
b11100101100100100001010010100000 -
b11100101100100100001010010100000 @
b11100101100100100001010010100000 F
b11100101100100100001010010100000 Z
b11100101100100100001010010100000 b
b11100101100100100001010010100000 |
b1 <
b1 L
b1 d
b1 p
b111001010001111111001111000000001001001000101111000110010000000000010100010100111011010100000000101000000010101011000100 :
b111001010001111111001111000000001001001000101111000110010000000000010100010100111011010100000000101000000010101011000100 E
b10 T
b0 R
b0 M
1#
#390000
0#
#395000
b11111 `
b11111 a
b110110100111101110100000001001 6
b110110100111101110100000001001 _
b11000000000101011110110111100101 /
b11000000000101011110110111100101 c
b11111 ^
b101111 ]
b1010011 \
b101010 [
b11111001011110101001100101010 =
b11111001011110101001100101010 ?
b1010011001010100001111100101111 .
b1010011001010100001111100101111 }
b1010011001010100001111100101111 ~
b11111001011110101001100101010 !
b11111001011110101001100101010 +
b11111001011110101001100101010 -
b11111001011110101001100101010 @
b11111001011110101001100101010 F
b11111001011110101001100101010 Z
b11111001011110101001100101010 b
b11111001011110101001100101010 |
b10 5
b10 C
b10 y
14
b10 1
b10 D
b10 t
b10 {
10
b11 v
b1111111001111000000000000000000101111000110010000000000000000010100111011010100000000000000000010101011000100 :
b1111111001111000000000000000000101111000110010000000000000000010100111011010100000000000000000010101011000100 E
b10 <
b10 L
b10 d
b10 p
b1 R
b1100010011000110110001101100011011000100110001101100011011000110110001001100011011000110110001101100010011000110110001101100011 M
b1 U
b1 V
b0 X
b0 Y
b0 W
1#
#400000
0#
