aes_tb.vcd
$date
	Mon Sep 15 21:35:15 2025
$end
$version
	Icarus Verilog
$end
$timescale
	1ps
$end
$scope module aes_tb $end
$var wire 32 ! dword_out [31:0] $end
$var wire 1 " done $end
$var reg 1 # clk $end
$var reg 32 $ dword_in [31:0] $end
$var reg 1 % reset_n $end
$var reg 1 & start_n $end
$var reg 1 ' start_read_n $end
$scope module uut $end
$var wire 1 # clk $end
$var wire 32 ( dword_in [31:0] $end
$var wire 32 ) dword_out [31:0] $end
$var wire 1 % reset_n $end
$var wire 1 & start_n $end
$var wire 1 ' start_read_n $end
$var wire 1 * write_enable $end
$var wire 32 + state_word [31:0] $end
$var wire 32 , shifted_row [31:0] $end
$var wire 32 - sbox_out [31:0] $end
$var wire 1 . row_col_sel $end
$var wire 2 / row_col_index [1:0] $end
$var wire 32 0 round_key [31:0] $end
$var wire 4 1 round_counter [3:0] $end
$var wire 1 2 output_mat_row_col $end
$var wire 2 3 output_mat_idx [1:0] $end
$var wire 32 4 mixed_col [31:0] $end
$var wire 4 5 matrix_in_sel [3:0] $end
$var wire 1 6 key_start $end
$var wire 1 7 key_done $end
$var wire 1 " done $end
$var wire 6 8 current_state [5:0] $end
$var wire 32 9 ark_out [31:0] $end
$var reg 32 : dmatrix_in [31:0] $end
$var reg 2 ; round_index [1:0] $end
$var reg 4 < round_key_output_sel [3:0] $end
$scope module ark $end
$var wire 32 = state_out [31:0] $end
$var wire 32 > state_in [31:0] $end
$var wire 32 ? round_key [31:0] $end
$upscope $end
$scope module datamatrix $end
$var wire 1 # clk $end
$var wire 32 @ col_in [31:0] $end
$var wire 1 % reset_n $end
$var wire 1 * write_enable $end
$var wire 1 2 output_row_col $end
$var wire 2 A output_idx [1:0] $end
$var wire 1 . input_row_col $end
$var wire 2 B input_idx [1:0] $end
$var wire 1 C debug_state $end
$var reg 32 D out [31:0] $end
$upscope $end
$scope module ke $end
$var wire 32 E cipher_key [31:0] $end
$var wire 1 # clk $end
$var wire 1 7 done $end
$var wire 2 F r_index [1:0] $end
$var wire 1 G reset $end
$var wire 4 H round_key_num [3:0] $end
$var wire 1 6 start $end
$var wire 32 I round_key [31:0] $end
$var reg 1 J done_reg $end
$var reg 1 K expanded $end
$var reg 128 L key_reg [127:0] $end
$var reg 2 M load_count [1:0] $end
$var reg 1 N loading $end
$var reg 32 O round_key_reg [31:0] $end
$var integer 32 P i [31:0] $end
$scope function rcon $end
$var reg 8 Q rc [7:0] $end
$var integer 32 R i [31:0] $end
$upscope $end
$scope function rot_word $end
$var reg 32 S w [31:0] $end
$upscope $end
$scope function sbox_lookup $end
$var reg 8 T byte_in [7:0] $end
$upscope $end
$scope function sub_word $end
$var reg 32 U w [31:0] $end
$upscope $end
$scope begin $unm_blk_26 $end
$var reg 32 V temp [31:0] $end
$var reg 32 W w0 [31:0] $end
$var reg 32 X w1 [31:0] $end
$var reg 32 Y w2 [31:0] $end
$var reg 32 Z w3 [31:0] $end
$upscope $end
$upscope $end
$scope module mc $end
$var wire 32 [ col_in [31:0] $end
$var wire 8 \ s3 [7:0] $end
$var wire 8 ] s2 [7:0] $end
$var wire 8 ^ s1 [7:0] $end
$var wire 8 _ s0 [7:0] $end
$var wire 32 ` col_out [31:0] $end
$scope function mul_by_3 $end
$var reg 8 a byte_in [7:0] $end
$upscope $end
$scope function xtime $end
$var reg 8 b byte_in [7:0] $end
$upscope $end
$upscope $end
$scope module sb $end
$var wire 32 c row_in [31:0] $end
$var wire 32 d row_out [31:0] $end
$scope function sbox_lookup $end
$upscope $end
$upscope $end
$scope module sm $end
$var wire 1 # clock $end
$var wire 1 7 key_expand_done $end
$var wire 1 % reset_n $end
$var wire 1 ' start_read_n $end
$var wire 1 & start_write_n $end
$var parameter 6 e ADDROUNDKEY $end
$var parameter 6 f COMPUTE_ROUNDKEYS $end
$var parameter 6 g CTEXT_READ $end
$var parameter 6 h ENCRYPTION_DONE $end
$var parameter 6 i IDLE $end
$var parameter 6 j KEY_WRITE $end
$var parameter 6 k MIXCOLUMNS $end
$var parameter 6 l PTEXT_WRITE $end
$var parameter 6 m SHIFTROWS $end
$var parameter 6 n SUBBYTES $end
$var reg 2 o count_4 [1:0] $end
$var reg 6 p current_state [5:0] $end
$var reg 4 q dbg_round [3:0] $end
$var reg 6 r dbg_state [5:0] $end
$var reg 1 " done $end
$var reg 2 s input_mat_idx [1:0] $end
$var reg 1 . input_mat_row_col $end
$var reg 1 6 key_start $end
$var reg 4 t matrix_in_sel [3:0] $end
$var reg 1 * matrix_write_enable $end
$var reg 2 u next_count_4 [1:0] $end
$var reg 4 v next_round_counter [3:0] $end
$var reg 6 w next_state [5:0] $end
$var reg 2 x output_mat_idx [1:0] $end
$var reg 1 2 output_mat_row_col $end
$var reg 4 y round_counter [3:0] $end
$upscope $end
$scope module sr $end
$var wire 2 z idx_row [1:0] $end
$var wire 32 { row_in [31:0] $end
$var wire 32 | row_out [31:0] $end
$var reg 32 } row_out_reg [31:0] $end
$upscope $end
$upscope $end
$upscope $end
$enddefinitions $end
$comment Show the parameter values. $end
$dumpall
b100 n
b101 m
b1 l
b110 k
b10 j
b0 i
b1000 h
b1001 g
b11 f
b111 e
$end
#0
$dumpvars
b0 }
b0 |
b0 {
b0 z
b0 y
b0 x
b0 w
b0 v
b0 u
b0 t
b0 s
b0 r
b0 q
b0 p
b0 o
b1100011011000110110001101100011 d
b0 c
b0 b
b0 a
b0 `
b0 _
b0 ^
b0 ]
b0 \
b0 [
bx Z
bx Y
bx X
bx W
bx V
bx U
bx T
bx S
bx R
bx Q
b1011 P
b0 O
0N
b0 M
b0 L
0K
0J
b0 I
bx H
1G
bx F
b0 E
b0 D
0C
b0 B
b0 A
b0 @
b0 ?
b0 >
b0 =
bx <
bx ;
b0 :
b0 9
b0 8
07
06
b0 5
b0 4
b0 3
02
b0 1
b0 0
b0 /
0.
b1100011011000110110001101100011 -
b0 ,
b0 +
0*
b0 )
b0 (
1'
1&
0%
b0 $
0#
0"
b0 !
$end
#5000
b1011 P
1#
#10000
0#
#15000
b1011 P
1#
#20000
b11111111111111111111111111111111 :
b11111111111111111111111111111111 @
b1 w
0#
b11111111111111111111111111111111 $
b11111111111111111111111111111111 (
b11111111111111111111111111111111 E
0&
0G
1%
#25000
b1 8
b1 r
1.
1*
b1 u
b1 p
17
1J
1K
b110110 Q
b1010 R
b0 T
b0 U
b1010101011000110110001101100011 V
b0 S
b1010101011000110110001101100011 Z
b1010101011000110110001101100011 Y
b1010101011000110110001101100011 X
b1010101011000110110001101100011 W
b1011 P
1#
#30000
b1 u
0#
1&
#35000
b11111111 a
b11111111 b
b11111111111111111111111111111111 4
b11111111111111111111111111111111 `
b10110000101100001011000010110 -
b10110000101100001011000010110 d
b11111111 _
b11111111 ^
b11111111 ]
b11111111 \
b11111111111111111111111111111111 9
b11111111111111111111111111111111 =
b11111111111111111111111111111111 ,
b11111111111111111111111111111111 |
b11111111111111111111111111111111 }
b1 /
b1 B
b1 s
b1 z
1.
b10 u
1C
b11111111111111111111111111111111 !
b11111111111111111111111111111111 )
b11111111111111111111111111111111 +
b11111111111111111111111111111111 >
b11111111111111111111111111111111 D
b11111111111111111111111111111111 [
b11111111111111111111111111111111 c
b11111111111111111111111111111111 {
b1 o
1#
#40000
0#
#45000
b10 /
b10 B
b10 s
b10 z
1.
b11 u
b10 o
1#
#50000
0#
#55000
b11 /
b11 B
b11 s
b11 z
1.
b0 u
b10 w
b11 o
1#
#60000
0#
#65000
bx :
bx @
16
b10 8
b10 r
0*
bx 5
bx t
b0 /
b0 B
b0 s
b0 z
1.
b1 u
b0 o
b10 p
1#
#70000
0#
#75000
06
b1 /
b1 B
b1 s
b1 z
1.
b10 u
b1 o
0K
1N
1#
#80000
0#
#85000
b10 /
b10 B
b10 s
b10 z
1.
b11 u
b10 o
07
0J
b1 M
b11111111111111111111111111111111000000000000000000000000000000000000000000000000000000000000000000000000000000000000000000000000 L
1#
#90000
0#
#95000
b11 /
b11 B
b11 s
b11 z
1.
b0 u
b11 w
b11 o
b10 M
b11111111111111111111111111111111111111111111111111111111111111110000000000000000000000000000000000000000000000000000000000000000 L
1#
#100000
0#
#105000
b11 8
b11 r
b0 /
b0 B
b0 s
b0 z
0.
b0 o
b11 p
b11 M
b11111111111111111111111111111111111111111111111111111111111111111111111111111111111111111111111100000000000000000000000000000000 L
1#
#110000
0#
#115000
b0 M
0N
b11111111111111111111111111111111111111111111111111111111111111111111111111111111111111111111111111111111111111111111111111111111 L
1#
#120000
0#
#125000
b100 w
17
1J
1K
b1111000 T
b1100011011000110110001101111000 U
b1111000011000110110001101100011 S
b110110 Q
b1010 R
b11110010110001001100010000001010 V
b11110010110001001100010000001010 Z
b10001010101001111010011101101001 Y
b11110010110001001100010000001010 X
b10001010101001111010011101101001 W
b1011 P
1#
#130000
0#
#135000
b10110000101100001011000010110 :
b10110000101100001011000010110 @
b100 8
b100 r
b1 5
b1 t
b1 u
b100 p
1#
#140000
0#
#145000
b1 3
b1 A
b1 x
b1 /
b1 B
b1 s
b1 z
b10 u
b1 o
1#
#150000
0#
#155000
b10 3
b10 A
b10 x
b10 /
b10 B
b10 s
b10 z
b11 u
b10 o
1#
#160000
0#
#165000
b11 3
b11 A
b11 x
b11 /
b11 B
b11 s
b11 z
b0 u
b101 w
b11 o
1#
#170000
0#
#175000
b11111111111111111111111111111111 :
b11111111111111111111111111111111 @
b101 8
b101 r
b10 5
b10 t
b0 3
b0 A
b0 x
b0 /
b0 B
b0 s
b0 z
b1 u
b0 o
b101 p
1#
#180000
0#
#185000
b1 3
b1 A
b1 x
b1 /
b1 B
b1 s
b1 z
b10 u
b1 o
1#
#190000
0#
#195000
b10 3
b10 A
b10 x
b10 /
b10 B
b10 s
b10 z
b11 u
b10 o
1#
#200000
0#
#205000
b11 3
b11 A
b11 x
b11 /
b11 B
b11 s
b11 z
b0 u
b110 w
b11 o
1#
#210000
0#
#215000
b110 8
b110 r
12
1.
b11 5
b11 t
b0 3
b0 A
b0 x
b0 /
b0 B
b0 s
b0 z
b1 u
b0 o
b110 p
1#
#220000
0#
#225000
b1 3
b1 A
b1 x
b1 /
b1 B
b1 s
b1 z
12
1.
b10 u
b1 o
1#
#230000
0#
#235000
b10 3
b10 A
b10 x
12
b10 /
b10 B
b10 s
b10 z
1.
b11 u
b10 o
1#
#240000
0#
#245000
b11 3
b11 A
b11 x
12
b11 /
b11 B
b11 s
b11 z
1.
b0 u
b111 w
b11 o
1#
#250000
0#
#255000
b0 :
b0 @
b111 8
b111 r
b100 5
b100 t
b0 3
b0 A
b0 x
12
b0 /
b0 B
b0 s
b0 z
1.
b1 v
b100 w
b0 o
b111 p
1#
#260000
0#
#265000
b10110000101100001011000010110 :
b10110000101100001011000010110 @
b1 1
b1 q
b100 8
b100 r
b1 5
b1 t
02
0.
b1 u
b1 y
b100 p
1#
#270000
0#
#275000
b1 3
b1 A
b1 x
b1 /
b1 B
b1 s
b1 z
b10 u
b1 o
1#
#280000
0#
#285000
b10 3
b10 A
b10 x
b10 /
b10 B
b10 s
b10 z
b11 u
b10 o
1#
#290000
0#
#295000
b11 3
b11 A
b11 x
b11 /
b11 B
b11 s
b11 z
b0 u
b101 w
b11 o
1#
#300000
0#
#305000
b11111111111111111111111111111111 :
b11111111111111111111111111111111 @
b101 8
b101 r
b10 5
b10 t
b0 3
b0 A
b0 x
b0 /
b0 B
b0 s
b0 z
b1 u
b0 o
b101 p
1#
#310000
0#
#315000
b1 3
b1 A
b1 x
b1 /
b1 B
b1 s
b1 z
b10 u
b1 o
1#
#320000
0#
#325000
b10 3
b10 A
b10 x
b10 /
b10 B
b10 s
b10 z
b11 u
b10 o
1#
#330000
0#
#335000
b11 3
b11 A
b11 x
b11 /
b11 B
b11 s
b11 z
b0 u
b110 w
b11 o
1#
#340000
0#
#345000
b110 8
b110 r
12
1.
b11 5
b11 t
b0 3
b0 A
b0 x
b0 /
b0 B
b0 s
b0 z
b1 u
b0 o
b110 p
1#
#350000
0#
#355000
b1 3
b1 A
b1 x
b1 /
b1 B
b1 s
b1 z
12
1.
b10 u
b1 o
1#
#360000
0#
#365000
b10 3
b10 A
b10 x
12
b10 /
b10 B
b10 s
b10 z
1.
b11 u
b10 o
1#
#370000
0#
#375000
b11 3
b11 A
b11 x
12
b11 /
b11 B
b11 s
b11 z
1.
b0 u
b111 w
b11 o
1#
#380000
0#
#385000
b0 :
b0 @
b111 8
b111 r
b100 5
b100 t
b0 3
b0 A
b0 x
12
b0 /
b0 B
b0 s
b0 z
1.
b10 v
b100 w
b0 o
b111 p
1#
#390000
0#
#395000
b10110000101100001011000010110 :
b10110000101100001011000010110 @
b10 1
b10 q
b100 8
b100 r
b1 5
b1 t
02
0.
b1 u
b10 y
b100 p
1#
#400000
0#
#405000
b1 3
b1 A
b1 x
b1 /
b1 B
b1 s
b1 z
b10 u
b1 o
1#
#410000
0#
#415000
b10 3
b10 A
b10 x
b10 /
b10 B
b10 s
b10 z
b11 u
b10 o
1#
#420000
0#
#425000
b11 3
b11 A
b11 x
b11 /
b11 B
b11 s
b11 z
b0 u
b101 w
b11 o
1#
#430000
0#
#435000
b11111111111111111111111111111111 :
b11111111111111111111111111111111 @
b101 8
b101 r
b10 5
b10 t
b0 3
b0 A
b0 x
b0 /
b0 B
b0 s
b0 z
b1 u
b0 o
b101 p
1#
#440000
0#
#445000
b1 3
b1 A
b1 x
b1 /
b1 B
b1 s
b1 z
b10 u
b1 o
1#
#450000
0#
#455000
b10 3
b10 A
b10 x
b10 /
b10 B
b10 s
b10 z
b11 u
b10 o
1#
#460000
0#
#465000
b11 3
b11 A
b11 x
b11 /
b11 B
b11 s
b11 z
b0 u
b110 w
b11 o
1#
#470000
0#
#475000
b110 8
b110 r
12
1.
b11 5
b11 t
b0 3
b0 A
b0 x
b0 /
b0 B
b0 s
b0 z
b1 u
b0 o
b110 p
1#
#480000
0#
#485000
b1 3
b1 A
b1 x
b1 /
b1 B
b1 s
b1 z
12
1.
b10 u
b1 o
1#
#490000
0#
#495000
b10 3
b10 A
b10 x
12
b10 /
b10 B
b10 s
b10 z
1.
b11 u
b10 o
1#
#500000
0#
#505000
b11 3
b11 A
b11 x
12
b11 /
b11 B
b11 s
b11 z
1.
b0 u
b111 w
b11 o
1#
#510000
0#
#515000
b0 :
b0 @
b111 8
b111 r
b100 5
b100 t
b0 3
b0 A
b0 x
12
b0 /
b0 B
b0 s
b0 z
1.
b11 v
b100 w
b0 o
b111 p
1#
#520000
0#
#525000
b10110000101100001011000010110 :
b10110000101100001011000010110 @
b11 1
b11 q
b100 8
b100 r
b1 5
b1 t
02
0.
b1 u
b11 y
b100 p
1#
#530000
0#
#535000
b1 3
b1 A
b1 x
b1 /
b1 B
b1 s
b1 z
b10 u
b1 o
1#
#540000
0#
#545000
b10 3
b10 A
b10 x
b10 /
b10 B
b10 s
b10 z
b11 u
b10 o
1#
#550000
0#
#555000
b11 3
b11 A
b11 x
b11 /
b11 B
b11 s
b11 z
b0 u
b101 w
b11 o
1#
#560000
0#
#565000
b11111111111111111111111111111111 :
b11111111111111111111111111111111 @
b101 8
b101 r
b10 5
b10 t
b0 3
b0 A
b0 x
b0 /
b0 B
b0 s
b0 z
b1 u
b0 o
b101 p
1#
#570000
0#
#575000
b1 3
b1 A
b1 x
b1 /
b1 B
b1 s
b1 z
b10 u
b1 o
1#
#580000
0#
#585000
b10 3
b10 A
b10 x
b10 /
b10 B
b10 s
b10 z
b11 u
b10 o
1#
#590000
0#
#595000
b11 3
b11 A
b11 x
b11 /
b11 B
b11 s
b11 z
b0 u
b110 w
b11 o
1#
#600000
0#
#605000
b110 8
b110 r
12
1.
b11 5
b11 t
b0 3
b0 A
b0 x
b0 /
b0 B
b0 s
b0 z
b1 u
b0 o
b110 p
1#
#610000
0#
#615000
b1 3
b1 A
b1 x
b1 /
b1 B
b1 s
b1 z
12
1.
b10 u
b1 o
1#
#620000
0#
#625000
b10 3
b10 A
b10 x
12
b10 /
b10 B
b10 s
b10 z
1.
b11 u
b10 o
1#
#630000
0#
#635000
b11 3
b11 A
b11 x
12
b11 /
b11 B
b11 s
b11 z
1.
b0 u
b111 w
b11 o
1#
#640000
0#
#645000
b0 :
b0 @
b111 8
b111 r
b100 5
b100 t
b0 3
b0 A
b0 x
12
b0 /
b0 B
b0 s
b0 z
1.
b100 v
b100 w
b0 o
b111 p
1#
#650000
0#
#655000
b10110000101100001011000010110 :
b10110000101100001011000010110 @
b100 1
b100 q
b100 8
b100 r
b1 5
b1 t
02
0.
b1 u
b100 y
b100 p
1#
#660000
0#
#665000
b1 3
b1 A
b1 x
b1 /
b1 B
b1 s
b1 z
b10 u
b1 o
1#
#670000
0#
#675000
b10 3
b10 A
b10 x
b10 /
b10 B
b10 s
b10 z
b11 u
b10 o
1#
#680000
0#
#685000
b11 3
b11 A
b11 x
b11 /
b11 B
b11 s
b11 z
b0 u
b101 w
b11 o
1#
#690000
0#
#695000
b11111111111111111111111111111111 :
b11111111111111111111111111111111 @
b101 8
b101 r
b10 5
b10 t
b0 3
b0 A
b0 x
b0 /
b0 B
b0 s
b0 z
b1 u
b0 o
b101 p
1#
#700000
0#
#705000
b1 3
b1 A
b1 x
b1 /
b1 B
b1 s
b1 z
b10 u
b1 o
1#
#710000
0#
#715000
b10 3
b10 A
b10 x
b10 /
b10 B
b10 s
b10 z
b11 u
b10 o
1#
#720000
0#
#725000
b11 3
b11 A
b11 x
b11 /
b11 B
b11 s
b11 z
b0 u
b110 w
b11 o
1#
#730000
0#
#735000
b110 8
b110 r
12
1.
b11 5
b11 t
b0 3
b0 A
b0 x
b0 /
b0 B
b0 s
b0 z
b1 u
b0 o
b110 p
1#
#740000
0#
#745000
b1 3
b1 A
b1 x
b1 /
b1 B
b1 s
b1 z
12
1.
b10 u
b1 o
1#
#750000
0#
#755000
b10 3
b10 A
b10 x
12
b10 /
b10 B
b10 s
b10 z
1.
b11 u
b10 o
1#
#760000
0#
#765000
b11 3
b11 A
b11 x
12
b11 /
b11 B
b11 s
b11 z
1.
b0 u
b111 w
b11 o
1#
#770000
0#
#775000
b0 :
b0 @
b111 8
b111 r
b100 5
b100 t
b0 3
b0 A
b0 x
12
b0 /
b0 B
b0 s
b0 z
1.
b101 v
b100 w
b0 o
b111 p
1#
#780000
0#
#785000
b10110000101100001011000010110 :
b10110000101100001011000010110 @
b101 1
b101 q
b100 8
b100 r
b1 5
b1 t
02
0.
b1 u
b101 y
b100 p
1#
#790000
0#
#795000
b1 3
b1 A
b1 x
b1 /
b1 B
b1 s
b1 z
b10 u
b1 o
1#
#800000
0#
#805000
b10 3
b10 A
b10 x
b10 /
b10 B
b10 s
b10 z
b11 u
b10 o
1#
#810000
0#
#815000
b11 3
b11 A
b11 x
b11 /
b11 B
b11 s
b11 z
b0 u
b101 w
b11 o
1#
#820000
0#
#825000
b11111111111111111111111111111111 :
b11111111111111111111111111111111 @
b101 8
b101 r
b10 5
b10 t
b0 3
b0 A
b0 x
b0 /
b0 B
b0 s
b0 z
b1 u
b0 o
b101 p
1#
#830000
0#
#835000
b1 3
b1 A
b1 x
b1 /
b1 B
b1 s
b1 z
b10 u
b1 o
1#
#840000
0#
#845000
b10 3
b10 A
b10 x
b10 /
b10 B
b10 s
b10 z
b11 u
b10 o
1#
#850000
0#
#855000
b11 3
b11 A
b11 x
b11 /
b11 B
b11 s
b11 z
b0 u
b110 w
b11 o
1#
#860000
0#
#865000
b110 8
b110 r
12
1.
b11 5
b11 t
b0 3
b0 A
b0 x
b0 /
b0 B
b0 s
b0 z
b1 u
b0 o
b110 p
1#
#870000
0#
#875000
b1 3
b1 A
b1 x
b1 /
b1 B
b1 s
b1 z
12
1.
b10 u
b1 o
1#
#880000
0#
#885000
b10 3
b10 A
b10 x
12
b10 /
b10 B
b10 s
b10 z
1.
b11 u
b10 o
1#
#890000
0#
#895000
b11 3
b11 A
b11 x
12
b11 /
b11 B
b11 s
b11 z
1.
b0 u
b111 w
b11 o
1#
#900000
0#
#905000
b0 :
b0 @
b111 8
b111 r
b100 5
b100 t
b0 3
b0 A
b0 x
12
b0 /
b0 B
b0 s
b0 z
1.
b110 v
b100 w
b0 o
b111 p
1#
#910000
0#
#915000
b10110000101100001011000010110 :
b10110000101100001011000010110 @
b110 1
b110 q
b100 8
b100 r
b1 5
b1 t
02
0.
b1 u
b110 y
b100 p
1#
#920000
0#
#925000
b1 3
b1 A
b1 x
b1 /
b1 B
b1 s
b1 z
b10 u
b1 o
1#
#930000
0#
#935000
b10 3
b10 A
b10 x
b10 /
b10 B
b10 s
b10 z
b11 u
b10 o
1#
#940000
0#
#945000
b11 3
b11 A
b11 x
b11 /
b11 B
b11 s
b11 z
b0 u
b101 w
b11 o
1#
#950000
0#
#955000
b11111111111111111111111111111111 :
b11111111111111111111111111111111 @
b101 8
b101 r
b10 5
b10 t
b0 3
b0 A
b0 x
b0 /
b0 B
b0 s
b0 z
b1 u
b0 o
b101 p
1#
#960000
0#
#965000
b1 3
b1 A
b1 x
b1 /
b1 B
b1 s
b1 z
b10 u
b1 o
1#
#970000
0#
#975000
b10 3
b10 A
b10 x
b10 /
b10 B
b10 s
b10 z
b11 u
b10 o
1#
#980000
0#
#985000
b11 3
b11 A
b11 x
b11 /
b11 B
b11 s
b11 z
b0 u
b110 w
b11 o
1#
#990000
0#
#995000
b110 8
b110 r
12
1.
b11 5
b11 t
b0 3
b0 A
b0 x
b0 /
b0 B
b0 s
b0 z
b1 u
b0 o
b110 p
1#
#1000000
0#
#1005000
b1 3
b1 A
b1 x
b1 /
b1 B
b1 s
b1 z
12
1.
b10 u
b1 o
1#
#1010000
0#
#1015000
b10 3
b10 A
b10 x
12
b10 /
b10 B
b10 s
b10 z
1.
b11 u
b10 o
1#
#1020000
0#
#1025000
b11 3
b11 A
b11 x
12
b11 /
b11 B
b11 s
b11 z
1.
b0 u
b111 w
b11 o
1#
#1030000
0#
#1035000
b0 :
b0 @
b111 8
b111 r
b100 5
b100 t
b0 3
b0 A
b0 x
12
b0 /
b0 B
b0 s
b0 z
1.
b111 v
b100 w
b0 o
b111 p
1#
#1040000
0#
#1045000
b10110000101100001011000010110 :
b10110000101100001011000010110 @
b111 1
b111 q
b100 8
b100 r
b1 5
b1 t
02
0.
b1 u
b111 y
b100 p
1#
#1050000
0#
#1055000
b1 3
b1 A
b1 x
b1 /
b1 B
b1 s
b1 z
b10 u
b1 o
1#
#1060000
0#
#1065000
b10 3
b10 A
b10 x
b10 /
b10 B
b10 s
b10 z
b11 u
b10 o
1#
#1070000
0#
#1075000
b11 3
b11 A
b11 x
b11 /
b11 B
b11 s
b11 z
b0 u
b101 w
b11 o
1#
#1080000
0#
#1085000
b11111111111111111111111111111111 :
b11111111111111111111111111111111 @
b101 8
b101 r
b10 5
b10 t
b0 3
b0 A
b0 x
b0 /
b0 B
b0 s
b0 z
b1 u
b0 o
b101 p
1#
#1090000
0#
#1095000
b1 3
b1 A
b1 x
b1 /
b1 B
b1 s
b1 z
b10 u
b1 o
1#
#1100000
0#
#1105000
b10 3
b10 A
b10 x
b10 /
b10 B
b10 s
b10 z
b11 u
b10 o
1#
#1110000
0#
#1115000
b11 3
b11 A
b11 x
b11 /
b11 B
b11 s
b11 z
b0 u
b110 w
b11 o
1#
#1120000
0#
#1125000
b110 8
b110 r
12
1.
b11 5
b11 t
b0 3
b0 A
b0 x
b0 /
b0 B
b0 s
b0 z
b1 u
b0 o
b110 p
1#
#1130000
0#
#1135000
b1 3
b1 A
b1 x
b1 /
b1 B
b1 s
b1 z
12
1.
b10 u
b1 o
1#
#1140000
0#
#1145000
b10 3
b10 A
b10 x
12
b10 /
b10 B
b10 s
b10 z
1.
b11 u
b10 o
1#
#1150000
0#
#1155000
b11 3
b11 A
b11 x
12
b11 /
b11 B
b11 s
b11 z
1.
b0 u
b111 w
b11 o
1#
#1160000
0#
#1165000
b0 :
b0 @
b111 8
b111 r
b100 5
b100 t
b0 3
b0 A
b0 x
12
b0 /
b0 B
b0 s
b0 z
1.
b1000 v
b100 w
b0 o
b111 p
1#
#1170000
0#
#1175000
b10110000101100001011000010110 :
b10110000101100001011000010110 @
b1000 1
b1000 q
b100 8
b100 r
b1 5
b1 t
02
0.
b1 u
b1000 y
b100 p
1#
#1180000
0#
#1185000
b1 3
b1 A
b1 x
b1 /
b1 B
b1 s
b1 z
b10 u
b1 o
1#
#1190000
0#
#1195000
b10 3
b10 A
b10 x
b10 /
b10 B
b10 s
b10 z
b11 u
b10 o
1#
#1200000
0#
#1205000
b11 3
b11 A
b11 x
b11 /
b11 B
b11 s
b11 z
b0 u
b101 w
b11 o
1#
#1210000
0#
#1215000
b11111111111111111111111111111111 :
b11111111111111111111111111111111 @
b101 8
b101 r
b10 5
b10 t
b0 3
b0 A
b0 x
b0 /
b0 B
b0 s
b0 z
b1 u
b0 o
b101 p
1#
#1220000
0#
#1225000
b1 3
b1 A
b1 x
b1 /
b1 B
b1 s
b1 z
b10 u
b1 o
1#
#1230000
0#
#1235000
b10 3
b10 A
b10 x
b10 /
b10 B
b10 s
b10 z
b11 u
b10 o
1#
#1240000
0#
#1245000
b11 3
b11 A
b11 x
b11 /
b11 B
b11 s
b11 z
b0 u
b110 w
b11 o
1#
#1250000
0#
#1255000
b110 8
b110 r
12
1.
b11 5
b11 t
b0 3
b0 A
b0 x
b0 /
b0 B
b0 s
b0 z
b1 u
b0 o
b110 p
1#
#1260000
0#
#1265000
b1 3
b1 A
b1 x
b1 /
b1 B
b1 s
b1 z
12
1.
b10 u
b1 o
1#
#1270000
0#
#1275000
b10 3
b10 A
b10 x
12
b10 /
b10 B
b10 s
b10 z
1.
b11 u
b10 o
1#
#1280000
0#
#1285000
b11 3
b11 A
b11 x
12
b11 /
b11 B
b11 s
b11 z
1.
b0 u
b111 w
b11 o
1#
#1290000
0#
#1295000
b0 :
b0 @
b111 8
b111 r
b100 5
b100 t
b0 3
b0 A
b0 x
12
b0 /
b0 B
b0 s
b0 z
1.
b1001 v
b100 w
b0 o
b111 p
1#
#1300000
0#
#1305000
b10110000101100001011000010110 :
b10110000101100001011000010110 @
b1001 1
b1001 q
b100 8
b100 r
b1 5
b1 t
02
0.
b1 u
b1001 y
b100 p
1#
#1310000
0#
#1315000
b1 3
b1 A
b1 x
b1 /
b1 B
b1 s
b1 z
b10 u
b1 o
1#
#1320000
0#
#1325000
b10 3
b10 A
b10 x
b10 /
b10 B
b10 s
b10 z
b11 u
b10 o
1#
#1330000
0#
#1335000
b11 3
b11 A
b11 x
b11 /
b11 B
b11 s
b11 z
b0 u
b101 w
b11 o
1#
#1340000
0#
#1345000
b11111111111111111111111111111111 :
b11111111111111111111111111111111 @
b101 8
b101 r
b10 5
b10 t
b0 3
b0 A
b0 x
b0 /
b0 B
b0 s
b0 z
b1 u
b0 o
b101 p
1#
#1350000
0#
#1355000
b1 3
b1 A
b1 x
b1 /
b1 B
b1 s
b1 z
b10 u
b1 o
1#
#1360000
0#
#1365000
b10 3
b10 A
b10 x
b10 /
b10 B
b10 s
b10 z
b11 u
b10 o
1#
#1370000
0#
#1375000
b11 3
b11 A
b11 x
b11 /
b11 B
b11 s
b11 z
b0 u
b110 w
b11 o
1#
#1380000
0#
#1385000
b110 8
b110 r
12
1.
b11 5
b11 t
b0 3
b0 A
b0 x
b0 /
b0 B
b0 s
b0 z
b1 u
b0 o
b110 p
1#
#1390000
0#
#1395000
b1 3
b1 A
b1 x
b1 /
b1 B
b1 s
b1 z
12
1.
b10 u
b1 o
1#
#1400000
0#
#1405000
b10 3
b10 A
b10 x
12
b10 /
b10 B
b10 s
b10 z
1.
b11 u
b10 o
1#
#1410000
0#
#1415000
b11 3
b11 A
b11 x
12
b11 /
b11 B
b11 s
b11 z
1.
b0 u
b111 w
b11 o
1#
#1420000
0#
#1425000
b0 :
b0 @
b111 8
b111 r
b100 5
b100 t
b0 3
b0 A
b0 x
12
b0 /
b0 B
b0 s
b0 z
1.
b1000 w
b0 o
b111 p
1#
#1430000
0#
#1435000
bx :
bx @
1"
b1000 8
b1000 r
bx 5
bx t
02
0.
b1000 p
1#
