aes_tb.vcd
$date
	Fri Sep 19 19:20:38 2025
$end
$version
	Icarus Verilog
$end
$timescale
	1ps
$end
$scope module aes_tb $end
$var wire 128 ! matrix_state [127:0] $end
$var wire 32 " dword_out [31:0] $end
$var wire 1 # done $end
$var reg 1 $ clk $end
$var reg 32 % cycles [31:0] $end
$var reg 32 & dword_in [31:0] $end
$var reg 128 ' key [127:0] $end
$var reg 128 ( plaintext [127:0] $end
$var reg 1 ) reset_n $end
$var reg 1 * start_n $end
$var reg 1 + start_read_n $end
$var integer 32 , matrix_file [31:0] $end
$scope module uut $end
$var wire 1 $ clk $end
$var wire 32 - dword_in [31:0] $end
$var wire 32 . dword_out [31:0] $end
$var wire 1 ) reset_n $end
$var wire 1 * start_n $end
$var wire 1 + start_read_n $end
$var wire 1 / write_enable $end
$var wire 32 0 state_word [31:0] $end
$var wire 32 1 shifted_row [31:0] $end
$var wire 32 2 sbox_out [31:0] $end
$var wire 1 3 row_col_sel $end
$var wire 2 4 row_col_index [1:0] $end
$var wire 32 5 round_key [31:0] $end
$var wire 4 6 round_index [3:0] $end
$var wire 1 7 output_mat_row_col $end
$var wire 2 8 output_mat_idx [1:0] $end
$var wire 32 9 mixed_col [31:0] $end
$var wire 4 : matrix_in_sel [3:0] $end
$var wire 1 ; key_start $end
$var wire 1 < key_done $end
$var wire 1 # done $end
$var wire 128 = dbg_state [127:0] $end
$var wire 6 > current_state [5:0] $end
$var wire 2 ? count_4 [1:0] $end
$var wire 32 @ ark_out [31:0] $end
$var reg 32 A dmatrix_in [31:0] $end
$scope module ark $end
$var wire 32 B state_out [31:0] $end
$var wire 32 C state_in [31:0] $end
$var wire 32 D round_key [31:0] $end
$upscope $end
$scope module datamatrix $end
$var wire 1 $ clk $end
$var wire 32 E col_in [31:0] $end
$var wire 1 ) reset_n $end
$var wire 1 / write_enable $end
$var wire 1 7 output_row_col $end
$var wire 2 F output_idx [1:0] $end
$var wire 1 3 input_row_col $end
$var wire 2 G input_idx [1:0] $end
$var wire 128 H debug_state [127:0] $end
$var reg 32 I out [31:0] $end
$scope begin $unm_blk_10 $end
$var integer 32 J i [31:0] $end
$var integer 32 K j [31:0] $end
$upscope $end
$upscope $end
$scope module ke $end
$var wire 32 L cipher_key [31:0] $end
$var wire 1 $ clk $end
$var wire 128 M dbg_curr_round_key [127:0] $end
$var wire 1 N reset $end
$var wire 1 ; start $end
$var wire 4 O round_key_num [3:0] $end
$var wire 2 P r_index [1:0] $end
$var reg 128 Q current_key [127:0] $end
$var reg 1 < done $end
$var reg 1 R expanded $end
$var reg 128 S key_reg [127:0] $end
$var reg 2 T load_count [1:0] $end
$var reg 1 U loading $end
$var reg 4 V round_ctr [3:0] $end
$var reg 32 W round_key [31:0] $end
$var reg 2 X state [1:0] $end
$scope function get_word $end
$upscope $end
$scope function next_key $end
$upscope $end
$scope function rcon $end
$var reg 8 Y rc [7:0] $end
$var integer 32 Z i [31:0] $end
$upscope $end
$scope function rot_word $end
$var reg 32 [ w [31:0] $end
$upscope $end
$scope function sbox_lookup $end
$var reg 8 \ byte_in [7:0] $end
$upscope $end
$scope function sub_word $end
$var reg 32 ] w [31:0] $end
$upscope $end
$scope begin $unm_blk_32 $end
$var reg 128 ^ next [127:0] $end
$upscope $end
$upscope $end
$scope module mc $end
$var wire 32 _ col_in [31:0] $end
$var wire 8 ` s3 [7:0] $end
$var wire 8 a s2 [7:0] $end
$var wire 8 b s1 [7:0] $end
$var wire 8 c s0 [7:0] $end
$var wire 32 d col_out [31:0] $end
$scope function mul_by_3 $end
$var reg 8 e byte_in [7:0] $end
$upscope $end
$scope function xtime $end
$var reg 8 f byte_in [7:0] $end
$upscope $end
$upscope $end
$scope module sb $end
$var wire 32 g row_in [31:0] $end
$var wire 32 h row_out [31:0] $end
$scope function sbox_lookup $end
$upscope $end
$upscope $end
$scope module sm $end
$var wire 1 $ clock $end
$var wire 2 i count_4_out [1:0] $end
$var wire 1 < key_expand_done $end
$var wire 1 ) reset_n $end
$var wire 1 + start_read_n $end
$var wire 1 * start_write_n $end
$var parameter 6 j ADDROUNDKEY $end
$var parameter 6 k COMPUTE_ROUNDKEYS $end
$var parameter 6 l CTEXT_READ $end
$var parameter 6 m ENCRYPTION_DONE $end
$var parameter 6 n IDLE $end
$var parameter 6 o INIT_ADDROUNDKEY $end
$var parameter 6 p KEY_WRITE $end
$var parameter 6 q MIXCOLUMNS $end
$var parameter 4 r NUM_ROUNDS $end
$var parameter 6 s PTEXT_WRITE $end
$var parameter 6 t SHIFTROWS $end
$var parameter 6 u SUBBYTES $end
$var reg 2 v count_4 [1:0] $end
$var reg 6 w current_state [5:0] $end
$var reg 4 x dbg_round [3:0] $end
$var reg 6 y dbg_state [5:0] $end
$var reg 1 # done $end
$var reg 2 z input_mat_idx [1:0] $end
$var reg 1 3 input_mat_row_col $end
$var reg 1 ; key_start $end
$var reg 4 { matrix_in_sel [3:0] $end
$var reg 1 / matrix_write_enable $end
$var reg 2 | next_count_4 [1:0] $end
$var reg 4 } next_round_counter [3:0] $end
$var reg 6 ~ next_state [5:0] $end
$var reg 2 !" output_mat_idx [1:0] $end
$var reg 1 7 output_mat_row_col $end
$var reg 4 "" round_counter [3:0] $end
$upscope $end
$scope module sr $end
$var wire 2 #" idx_row [1:0] $end
$var wire 32 $" row_in [31:0] $end
$var wire 32 %" row_out [31:0] $end
$var reg 32 &" row_out_reg [31:0] $end
$upscope $end
$upscope $end
$scope task printMatrix $end
$var reg 32 '" cycle [31:0] $end
$var reg 128 (" matrix_state [127:0] $end
$upscope $end
$upscope $end
$enddefinitions $end
$comment Show the parameter values. $end
$dumpall
b100 u
b101 t
b1 s
b1001 r
b110 q
b10 p
b1010 o
b0 n
b1000 m
b1001 l
b11 k
b111 j
$end
#0
$dumpvars
bx ("
bx '"
b0 &"
b0 %"
b0 $"
b0 #"
b0 ""
b0 !"
b0 ~
b0 }
b0 |
b0 {
b0 z
b0 y
b0 x
b0 w
b0 v
b0 i
b1100011011000110110001101100011 h
b0 g
b0 f
b0 e
b0 d
b0 c
b0 b
b0 a
b0 `
b0 _
bx ^
bx ]
bx \
bx [
bx Z
bx Y
b0 X
bx W
b0 V
0U
b0 T
b0 S
0R
bx Q
b0 P
b0 O
1N
bx M
b0 L
b100 K
b100 J
b0 I
b0 H
b0 G
b0 F
b0 E
bx D
b0 C
bx B
b0 A
bx @
b0 ?
b0 >
b0 =
0<
0;
b0 :
b0 9
b0 8
07
b0 6
bx 5
b0 4
03
b1100011011000110110001101100011 2
b0 1
b0 0
0/
b0 .
b0 -
b10000000000000000000000000000011 ,
1+
1*
0)
b110010010000111111011010101000100010000101101000110000100011010011000100110001100110001010001011100000001101110000011100110100 (
b101011011111100001010100010110001010001010111011010010101001101010101111110111000101011000100000001001110011110100111100111100 '
b0 &
b0 %
0$
0#
b0 "
b0 !
$end
#5000
b100 K
b100 J
1$
#10000
0$
#15000
b100 K
b100 J
1$
#20000
b110010010000111111011010101000 A
b110010010000111111011010101000 E
b1 ~
0$
b110010010000111111011010101000 &
b110010010000111111011010101000 -
b110010010000111111011010101000 L
0*
0N
1)
#25000
b0 @
b0 B
b1 >
b1 y
13
1/
b1 |
b0 5
b0 D
b0 W
b1 w
b10 X
b0 M
b0 Q
1$
#30000
b1 |
0$
1*
#35000
b1100100001100100011001001010110 9
b1100100001100100011001001010110 d
b110010 f
b110010 e
b100011011000110110001101100011 2
b100011011000110110001101100011 h
b110010 c
b110010000000000000000000000000 @
b110010000000000000000000000000 B
b110010 1
b110010 %"
b110010 &"
b110010000000000000000000000000 "
b110010000000000000000000000000 .
b110010000000000000000000000000 0
b110010000000000000000000000000 C
b110010000000000000000000000000 I
b110010000000000000000000000000 _
b110010000000000000000000000000 g
b110010000000000000000000000000 $"
b1 4
b1 G
b1 z
b1 #"
13
b10 |
b110010010000111111011010101000000000000000000000000000000000000000000000000000000000000000000000000000000000000000000000000000 !
b110010010000111111011010101000000000000000000000000000000000000000000000000000000000000000000000000000000000000000000000000000 =
b110010010000111111011010101000000000000000000000000000000000000000000000000000000000000000000000000000000000000000000000000000 H
b1 ?
b1 P
b1 i
b1 v
b1 V
b1100010011000110110001101100011011000100110001101100011011000110110001001100011011000110110001101100010011000110110001101100011 Q
b1100010011000110110001101100011011000100110001101100011011000110110001001100011011000110110001101100010011000110110001101100011 ^
b1 Y
b1 Z
b0 \
b0 ]
b0 [
1$
#40000
b10001000010110100011000010001101 A
b10001000010110100011000010001101 E
0$
b10001000010110100011000010001101 &
b10001000010110100011000010001101 -
b10001000010110100011000010001101 L
#45000
b11100111001110011011101011011110 9
b11100111001110011011101011011110 d
b10001000 e
b10001000 f
b100011110001000110001101100011 2
b100011110001000110001101100011 h
b10001000 b
b110010100010000000000000000000 @
b110010100010000000000000000000 B
b11001010001000 1
b11001010001000 %"
b11001010001000 &"
b10 4
b10 G
b10 z
b10 #"
13
b11 |
b110010100010000000000000000000 "
b110010100010000000000000000000 .
b110010100010000000000000000000 0
b110010100010000000000000000000 C
b110010100010000000000000000000 I
b110010100010000000000000000000 _
b110010100010000000000000000000 g
b110010100010000000000000000000 $"
b10 ?
b10 P
b10 i
b10 v
b110010010000111111011010101000100010000101101000110000100011010000000000000000000000000000000000000000000000000000000000000000 !
b110010010000111111011010101000100010000101101000110000100011010000000000000000000000000000000000000000000000000000000000000000 =
b110010010000111111011010101000100010000101101000110000100011010000000000000000000000000000000000000000000000000000000000000000 H
b10 V
b10100100101001111010011100010110110001101100010011000100011101011010010010100111101001110001011011000110110001001100010001110101 Q
b10100100101001111010011100010110110001101100010011000100011101011010010010100111101001110001011011000110110001001100010001110101 ^
b10 Y
b10 Z
b1100010 \
b1100011011000110110001101100010 ]
b1100010011000110110001101100011 [
1$
#50000
b110001001100011001100010100010 A
b110001001100011001100010100010 E
0$
b110001001100011001100010100010 &
b110001001100011001100010100010 -
b110001001100011001100010100010 L
#55000
b11010110011010101101100011101111 9
b11010110011010101101100011101111 d
b110001 e
b110001 f
b100011110001001100011101100011 2
b100011110001001100011101100011 h
b110001 a
b110010100010000011000100000000 @
b110010100010000011000100000000 B
b1100101000100000110001 1
b1100101000100000110001 %"
b1100101000100000110001 &"
b110010100010000011000100000000 "
b110010100010000011000100000000 .
b110010100010000011000100000000 0
b110010100010000011000100000000 C
b110010100010000011000100000000 I
b110010100010000011000100000000 _
b110010100010000011000100000000 g
b110010100010000011000100000000 $"
1;
b11 4
b11 G
b11 z
b11 #"
13
b0 |
b10 ~
b110010010000111111011010101000100010000101101000110000100011010011000100110001100110001010001000000000000000000000000000000000 !
b110010010000111111011010101000100010000101101000110000100011010011000100110001100110001010001000000000000000000000000000000000 =
b110010010000111111011010101000100010000101101000110000100011010011000100110001100110001010001000000000000000000000000000000000 H
b11 ?
b11 P
b11 i
b11 v
b11 V
b11000111110000001000110001111010000000010000010001001000000011111010010110100011111011110001100101100011011001110010101101101100 Q
b11000111110000001000110001111010000000010000010001001000000011111010010110100011111011110001100101100011011001110010101101101100 ^
b100 Y
b11 Z
b11000110 \
b11000100110001000111010111000110 ]
b11000110110001001100010001110101 [
1$
#60000
b11100000001101110000011100110100 A
b11100000001101110000011100110100 E
0$
b11100000001101110000011100110100 &
b11100000001101110000011100110100 -
b11100000001101110000011100110100 L
#65000
b11100000 e
b11100000 f
b110110100010101110001100110100 9
b110110100010101110001100110100 d
b100011110001001100011111100001 2
b100011110001001100011111100001 h
bx A
bx E
b11100000 `
b110010100010000011000111100000 @
b110010100010000011000111100000 B
b110010100010000011000111100000 1
b110010100010000011000111100000 %"
b110010100010000011000111100000 &"
0;
b10 >
b10 y
0/
bx :
bx {
b0 4
b0 G
b0 z
b0 #"
03
b1 |
b110010100010000011000111100000 "
b110010100010000011000111100000 .
b110010100010000011000111100000 0
b110010100010000011000111100000 C
b110010100010000011000111100000 I
b110010100010000011000111100000 _
b110010100010000011000111100000 g
b110010100010000011000111100000 $"
b0 ?
b0 P
b0 i
b0 v
b10 w
b110010010000111111011010101000100010000101101000110000100011010011000100110001100110001010001011100000001101110000011100110100 !
b110010010000111111011010101000100010000101101000110000100011010011000100110001100110001010001011100000001101110000011100110100 =
b110010010000111111011010101000100010000101101000110000100011010011000100110001100110001010001011100000001101110000011100110100 H
b100 V
b1011011101101010111100010111110010110101011000100110000101100011111111100010010110111111010100010011100011101011111010011000100 Q
1U
b1011011101101010111100010111110010110101011000100110000101100011111111100010010110111111010100010011100011101011111010011000100 ^
b1000 Y
b100 Z
b1100011 \
b1100111001010110110110001100011 ]
b1100011011001110010101101101100 [
1$
#70000
0$
b101011011111100001010100010110 &
b101011011111100001010100010110 -
b101011011111100001010100010110 L
#75000
b10001000001100011110000000110010 1
b10001000001100011110000000110010 %"
b10001000001100011110000000110010 &"
b1 4
b1 G
b1 z
b1 #"
b10 |
b1 ?
b1 P
b1 i
b1 v
b0 X
b0 V
b1100000101101010001111101001010001110100000010000101111111110111100010100010110111100000101001101011001011000110000010010010111 Q
b1 T
b101011011111100001010100010110000000000000000000000000000000000000000000000000000000000000000000000000000000000000000000000000 S
b1100000101101010001111101001010001110100000010000101111111110111100010100010110111100000101001101011001011000110000010010010111 ^
b10000 Y
b101 Z
b10011100 \
b1110101111101001100010010011100 ]
b10011100011101011111010011000100 [
1$
#80000
0$
b101000101011101101001010100110 &
b101000101011101101001010100110 -
b101000101011101101001010100110 L
#85000
b110001111000000011001010001000 1
b110001111000000011001010001000 %"
b110001111000000011001010001000 &"
b10 4
b10 G
b10 z
b10 #"
b11 |
b10 ?
b10 P
b10 i
b10 v
b10 T
b101011011111100001010100010110001010001010111011010010101001100000000000000000000000000000000000000000000000000000000000000000 S
1$
#90000
0$
b10101011111101110001010110001000 &
b10101011111101110001010110001000 -
b10101011111101110001010110001000 L
#95000
b11100000001100101000100000110001 1
b11100000001100101000100000110001 %"
b11100000001100101000100000110001 &"
b11 4
b11 G
b11 z
b11 #"
b0 |
b11 ~
b11 ?
b11 P
b11 i
b11 v
b11 T
b101011011111100001010100010110001010001010111011010010101001101010101111110111000101011000100000000000000000000000000000000000 S
1$
#100000
0$
b1001110011110100111100111100 &
b1001110011110100111100111100 -
b1001110011110100111100111100 L
#105000
b110010100010000011000111100000 1
b110010100010000011000111100000 %"
b110010100010000011000111100000 &"
b11 >
b11 y
b0 4
b0 G
b0 z
b0 #"
b0 ?
b0 P
b0 i
b0 v
b11 w
b0 T
0U
b101011011111100001010100010110001010001010111011010010101001101010101111110111000101011000100000001001110011110100111100111100 S
1$
#110000
0$
b1 %
b0 '"
b110010010000111111011010101000100010000101101000110000100011010011000100110001100110001010001011100000001101110000011100110100 ("
#115000
b11001111101100010010011110110 @
b11001111101100010010011110110 B
b101011011111100001010100010110 5
b101011011111100001010100010110 D
b101011011111100001010100010110 W
b10 X
b101011011111100001010100010110001010001010111011010010101001101010101111110111000101011000100000001001110011110100111100111100 M
b101011011111100001010100010110001010001010111011010010101001101010101111110111000101011000100000001001110011110100111100111100 Q
1$
#120000
0$
b10 %
b1 '"
#125000
b1 V
b1011010000000110111010100010111011100101010110110100111101100011101100101011010101100100011100111010000100101011111110100000101 Q
b1011010000000110111010100010111011100101010110110100111101100011101100101011010101100100011100111010000100101011111110100000101 ^
b1 Y
b1 Z
b1001 \
b11001111010011110011110000001001 ]
b1001110011110100111100111100 [
1$
#130000
0$
b11 %
b10 '"
#135000
b10 V
b1110011000000110001111000101001000000011010111010111001100110001101100011110100000010111010000100001000011000011111011010100100 Q
b1110011000000110001111000101001000000011010111010111001100110001101100011110100000010111010000100001000011000011111011010100100 ^
b10 Y
b10 Z
b11010000 \
b10010101111111010000010111010000 ]
b11010000100101011111110100000101 [
1$
#140000
0$
b100 %
b11 '"
#145000
b11 V
b11000101000000110111100100011001110001001010110111000000100000010001110001011001110010110010000000010100001110000011110110000100 Q
b11000101000000110111100100011001110001001010110111000000100000010001110001011001110010110010000000010100001110000011110110000100 ^
b100 Y
b11 Z
b1000 \
b1100001111101101010010000001000 ]
b1000011000011111011010100100 [
1$
#150000
0$
b101 %
b100 '"
#155000
b100 V
b1001000001101100001111011100011100011001001101111011110011000101001000011000010000101010100001010000100111110100010100011000110 Q
b1001000001101100001111011100011100011001001101111011110011000101001000011000010000101010100001010000100111110100010100011000110 ^
b1000 Y
b100 Z
b10100 \
b111000001111011000010000010100 ]
b10100001110000011110110000100 [
1$
#160000
0$
b110 %
b101 '"
#165000
b101 V
b1011000110111010111001010000100110101000100011010101100111001100100010010000100101110011010010011000000011111101001000101100010 Q
b1011000110111010111001010000100110101000100011010101100111001100100010010000100101110011010010011000000011111101001000101100010 ^
b10000 Y
b101 Z
b10000100 \
b11111010001010001100011010000100 ]
b10000100111110100010100011000110 [
1$
#170000
0$
b111 %
b110 '"
#175000
b110 V
b11110010011011110000011110111010001001100010100110101011010111000110001010101101000100101111100010100010110100111000001110011010 Q
b11110010011011110000011110111010001001100010100110101011010111000110001010101101000100101111100010100010110100111000001110011010 ^
b100000 Y
b110 Z
b11000000 \
b1111110100100010110001011000000 ]
b11000000011111101001000101100010 [
1$
#180000
0$
b1000 %
b111 '"
#185000
b111 V
b1110110101010110010111111001111010100001000001010000100100100110011001000101111100101100110101110010000111111000001010111110001 Q
b1110110101010110010111111001111010100001000001010000100100100110011001000101111100101100110101110010000111111000001010111110001 ^
b1000000 Y
b111 Z
b10100010 \
b11010011100000111001101010100010 ]
b10100010110100111000001110011010 [
1$
#190000
0$
b1001 %
b1000 '"
#195000
b1000 V
b11110110111100100010111111110001101001100111000010101011011000101001010001011111001111010000100100000100101000110010100011111000 Q
b11110110111100100010111111110001101001100111000010101011011000101001010001011111001111010000100100000100101000110010100011111000 ^
b10000000 Y
b1000 Z
b10010000 \
b11111100000101011111000110010000 ]
b10010000111111000001010111110001 [
1$
#200000
0$
b1010 %
b1001 '"
#205000
b1001 V
b101001000110010010111100000011100011110110100110000100011000010001101100110110101110010110100000011111100101011001000110010000 Q
b101001000110010010111100000011100011110110100110000100011000010001101100110110101110010110100000011111100101011001000110010000 ^
b11011 Y
b1001 Z
b100 \
b10100011001010001111100000000100 ]
b100101000110010100011111000 [
1$
#210000
0$
b1011 %
b1010 '"
#215000
b1010 V
b110100101010110001000111000011101110111100001010010101101000101010000011110100001011001100101010111111011000011011110101011010 Q
b110100101010110001000111000011101110111100001010010101101000101010000011110100001011001100101010111111011000011011110101011010 ^
b110110 Y
b1010 Z
b11111 \
b10010101100100011001000000011111 ]
b11111100101011001000110010000 [
1$
#220000
0$
b1100 %
b1011 '"
#225000
b11 X
1$
#230000
0$
b1101 %
b1100 '"
#235000
b1010 ~
b0 X
1<
1$
#240000
0$
b1110 %
b1101 '"
#245000
b1000011 e
b1000011 f
b11111111000111010110010110101000 9
b11111111000111010110010110101000 d
b100011000110100100001011000010 2
b100011000110100100001011000010 h
b1000011 b
b11110110 a
b10101000 `
b11001001111011110001110111110 @
b11001001111011110001110111110 B
b110010010000111111011010101000 1
b110010010000111111011010101000 %"
b110010010000111111011010101000 &"
b110010010000111111011010101000 "
b110010010000111111011010101000 .
b110010010000111111011010101000 0
b110010010000111111011010101000 C
b110010010000111111011010101000 I
b110010010000111111011010101000 _
b110010010000111111011010101000 g
b110010010000111111011010101000 $"
b11001001111011110001110111110 A
b11001001111011110001110111110 E
b1010 >
b1010 y
17
13
1/
b100 :
b100 {
b1 |
b1010 w
b10 X
b0 V
b101011011111100001010100010110001010001010111011010010101001101010101111110111000101011000100000001001110011110100111100111100 Q
1$
#250000
0$
b1111 %
b1110 '"
#255000
b10001000 e
b10001000 f
b1011000111000010011111011101000 9
b1011000111000010011111011101000 d
b11000100101111100000010001011101 2
b11000100101111100000010001011101 h
b10100000111101001110001000101011 A
b10100000111101001110001000101011 E
b10001000 c
b1011010 b
b110000 a
b10001101 `
b1011010001100001000110110001000 1
b1011010001100001000110110001000 %"
b1011010001100001000110110001000 &"
b10100000111101001110001000101011 @
b10100000111101001110001000101011 B
b10001000010110100011000010001101 "
b10001000010110100011000010001101 .
b10001000010110100011000010001101 0
b10001000010110100011000010001101 C
b10001000010110100011000010001101 I
b10001000010110100011000010001101 _
b10001000010110100011000010001101 g
b10001000010110100011000010001101 $"
b1 8
b1 F
b1 !"
b1 4
b1 G
b1 z
b1 #"
17
13
b10 |
b101000101011101101001010100110 5
b101000101011101101001010100110 D
b101000101011101101001010100110 W
b11001001111011110001110111110100010000101101000110000100011010011000100110001100110001010001011100000001101110000011100110100 !
b11001001111011110001110111110100010000101101000110000100011010011000100110001100110001010001011100000001101110000011100110100 =
b11001001111011110001110111110100010000101101000110000100011010011000100110001100110001010001011100000001101110000011100110100 H
b1 ?
b1 P
b1 i
b1 v
b1 V
b1011010000000110111010100010111011100101010110110100111101100011101100101011010101100100011100111010000100101011111110100000101 Q
b1011010000000110111010100010111011100101010110110100111101100011101100101011010101100100011100111010000100101011111110100000101 ^
b1 Y
b1 Z
b1001 \
b11001111010011110011110000001001 ]
b1001110011110100111100111100 [
1$
#260000
0$
b10000 %
b1111 '"
b11001001111011110001110111110100010000101101000110000100011010011000100110001100110001010001011100000001101110000011100110100 ("
#265000
b110001 e
b110001 f
b1011010000101101011010100101 9
b1011010000101101011010100101 d
b11000111110001110100011000111010 2
b11000111110001110100011000111010 h
b10011010110001101000110100101010 A
b10011010110001101000110100101010 E
b110001 c
b110001 b
b10011000 a
b10100010 `
b10011010110001101000110100101010 @
b10011010110001101000110100101010 B
b10011000101000100011000100110001 1
b10011000101000100011000100110001 %"
b10011000101000100011000100110001 &"
b10 8
b10 F
b10 !"
17
b10 4
b10 G
b10 z
b10 #"
13
b11 |
b10101011111101110001010110001000 5
b10101011111101110001010110001000 D
b10101011111101110001010110001000 W
b110001001100011001100010100010 "
b110001001100011001100010100010 .
b110001001100011001100010100010 0
b110001001100011001100010100010 C
b110001001100011001100010100010 I
b110001001100011001100010100010 _
b110001001100011001100010100010 g
b110001001100011001100010100010 $"
b10 ?
b10 P
b10 i
b10 v
b11001001111011110001110111110101000001111010011100010001010110011000100110001100110001010001011100000001101110000011100110100 !
b11001001111011110001110111110101000001111010011100010001010110011000100110001100110001010001011100000001101110000011100110100 =
b11001001111011110001110111110101000001111010011100010001010110011000100110001100110001010001011100000001101110000011100110100 H
b10 V
b1110011000000110001111000101001000000011010111010111001100110001101100011110100000010111010000100001000011000011111011010100100 Q
b1110011000000110001111000101001000000011010111010111001100110001101100011110100000010111010000100001000011000011111011010100100 ^
b10 Y
b10 Z
b11010000 \
b10010101111111010000010111010000 ]
b11010000100101011111110100000101 [
1$
#270000
0$
b10001 %
b10000 '"
b11001001111011110001110111110101000001111010011100010001010110011000100110001100110001010001011100000001101110000011100110100 ("
#275000
b11100000 e
b11100000 f
b10110001101100111000010101100011 9
b10110001101100111000010101100011 d
b11100001100110101100010100011000 2
b11100001100110101100010100011000 h
b11101001111110000100100000001000 A
b11101001111110000100100000001000 E
b11100000 c
b110111 b
b111 a
b110100 `
b110100111000000011011100000111 1
b110100111000000011011100000111 %"
b110100111000000011011100000111 &"
b11101001111110000100100000001000 @
b11101001111110000100100000001000 B
b11100000001101110000011100110100 "
b11100000001101110000011100110100 .
b11100000001101110000011100110100 0
b11100000001101110000011100110100 C
b11100000001101110000011100110100 I
b11100000001101110000011100110100 _
b11100000001101110000011100110100 g
b11100000001101110000011100110100 $"
b11 8
b11 F
b11 !"
17
b11 4
b11 G
b11 z
b11 #"
13
b0 |
b100 ~
b1001110011110100111100111100 5
b1001110011110100111100111100 D
b1001110011110100111100111100 W
b11001001111011110001110111110101000001111010011100010001010111001101011000110100011010010101011100000001101110000011100110100 !
b11001001111011110001110111110101000001111010011100010001010111001101011000110100011010010101011100000001101110000011100110100 =
b11001001111011110001110111110101000001111010011100010001010111001101011000110100011010010101011100000001101110000011100110100 H
b11 ?
b11 P
b11 i
b11 v
b11 V
b11000101000000110111100100011001110001001010110111000000100000010001110001011001110010110010000000010100001110000011110110000100 Q
b11000101000000110111100100011001110001001010110111000000100000010001110001011001110010110010000000010100001110000011110110000100 ^
b100 Y
b11 Z
b1000 \
b1100001111101101010010000001000 ]
b1000011000011111011010100100 [
1$
#280000
0$
b10010 %
b10001 '"
b11001001111011110001110111110101000001111010011100010001010111001101011000110100011010010101011100000001101110000011100110100 ("
#285000
b11001 e
b11001 f
b101000111000110010000010010010 9
b101000111000110010000010010010 d
b11010100001001110001000110101110 2
b11010100001001110001000110101110 h
b11010100001001110001000110101110 A
b11010100001001110001000110101110 E
b11001 c
b111101 b
b11100011 a
b10111110 `
b110010010000111111011010101000 @
b110010010000111111011010101000 B
b11001001111011110001110111110 1
b11001001111011110001110111110 %"
b11001001111011110001110111110 &"
b101011011111100001010100010110 5
b101011011111100001010100010110 D
b101011011111100001010100010110 W
b100 >
b100 y
b1 :
b1 {
b0 8
b0 F
b0 !"
17
b0 4
b0 G
b0 z
b0 #"
13
b1 |
b11001001111011110001110111110 "
b11001001111011110001110111110 .
b11001001111011110001110111110 0
b11001001111011110001110111110 C
b11001001111011110001110111110 I
b11001001111011110001110111110 _
b11001001111011110001110111110 g
b11001001111011110001110111110 $"
b0 ?
b0 P
b0 i
b0 v
b100 w
b11001001111011110001110111110101000001111010011100010001010111001101011000110100011010010101011101001111110000100100000001000 !
b11001001111011110001110111110101000001111010011100010001010111001101011000110100011010010101011101001111110000100100000001000 =
b11001001111011110001110111110101000001111010011100010001010111001101011000110100011010010101011101001111110000100100000001000 H
b100 V
b1001000001101100001111011100011100011001001101111011110011000101001000011000010000101010100001010000100111110100010100011000110 Q
b1001000001101100001111011100011100011001001101111011110011000101001000011000010000101010100001010000100111110100010100011000110 ^
b1000 Y
b100 Z
b10100 \
b111000001111011000010000010100 ]
b10100001110000011110110000100 [
1$
#290000
0$
b10011 %
b10010 '"
b11001001111011110001110111110101000001111010011100010001010111001101011000110100011010010101011101001111110000100100000001000 ("
#295000
b11100000101111111001100011110001 A
b11100000101111111001100011110001 E
b10100000 e
b10100000 f
b10010101010001011111011010111011 9
b10010101010001011111011010111011 d
b11100000101111111001100011110001 2
b11100000101111111001100011110001 h
b10100000 c
b11110100 b
b11100010 a
b101011 `
b11110100111000100010101110100000 1
b11110100111000100010101110100000 %"
b11110100111000100010101110100000 &"
b10001000010110100011000010001101 @
b10001000010110100011000010001101 B
b10100000111101001110001000101011 "
b10100000111101001110001000101011 .
b10100000111101001110001000101011 0
b10100000111101001110001000101011 C
b10100000111101001110001000101011 I
b10100000111101001110001000101011 _
b10100000111101001110001000101011 g
b10100000111101001110001000101011 $"
b1 8
b1 F
b1 !"
b1 4
b1 G
b1 z
b1 #"
17
13
b10 |
b101000101011101101001010100110 5
b101000101011101101001010100110 D
b101000101011101101001010100110 W
b11010100001001110001000110101110101000001111010011100010001010111001101011000110100011010010101011101001111110000100100000001000 !
b11010100001001110001000110101110101000001111010011100010001010111001101011000110100011010010101011101001111110000100100000001000 =
b11010100001001110001000110101110101000001111010011100010001010111001101011000110100011010010101011101001111110000100100000001000 H
b1 ?
b1 P
b1 i
b1 v
b101 V
b1011000110111010111001010000100110101000100011010101100111001100100010010000100101110011010010011000000011111101001000101100010 Q
b1011000110111010111001010000100110101000100011010101100111001100100010010000100101110011010010011000000011111101001000101100010 ^
b10000 Y
b101 Z
b10000100 \
b11111010001010001100011010000100 ]
b10000100111110100010100011000110 [
1$
#300000
0$
b10100 %
b10011 '"
b11010100001001110001000110101110101000001111010011100010001010111001101011000110100011010010101011101001111110000100100000001000 ("
#305000
b10111000101101000101110111100101 A
b10111000101101000101110111100101 E
b10011010 e
b10011010 f
b11011001101010110010001110101010 9
b11011001101010110010001110101010 d
b10111000101101000101110111100101 2
b10111000101101000101110111100101 h
b10011010 c
b11000110 b
b10001101 a
b101010 `
b110001001100011001100010100010 @
b110001001100011001100010100010 B
b10001101001010101001101011000110 1
b10001101001010101001101011000110 %"
b10001101001010101001101011000110 &"
b10 8
b10 F
b10 !"
17
b10 4
b10 G
b10 z
b10 #"
13
b11 |
b10101011111101110001010110001000 5
b10101011111101110001010110001000 D
b10101011111101110001010110001000 W
b10011010110001101000110100101010 "
b10011010110001101000110100101010 .
b10011010110001101000110100101010 0
b10011010110001101000110100101010 C
b10011010110001101000110100101010 I
b10011010110001101000110100101010 _
b10011010110001101000110100101010 g
b10011010110001101000110100101010 $"
b10 ?
b10 P
b10 i
b10 v
b11010100001001110001000110101110111000001011111110011000111100011001101011000110100011010010101011101001111110000100100000001000 !
b11010100001001110001000110101110111000001011111110011000111100011001101011000110100011010010101011101001111110000100100000001000 =
b11010100001001110001000110101110111000001011111110011000111100011001101011000110100011010010101011101001111110000100100000001000 H
b110 V
b11110010011011110000011110111010001001100010100110101011010111000110001010101101000100101111100010100010110100111000001110011010 Q
b11110010011011110000011110111010001001100010100110101011010111000110001010101101000100101111100010100010110100111000001110011010 ^
b100000 Y
b110 Z
b11000000 \
b1111110100100010110001011000000 ]
b11000000011111101001000101100010 [
1$
#310000
0$
b10101 %
b10100 '"
b11010100001001110001000110101110111000001011111110011000111100011001101011000110100011010010101011101001111110000100100000001000 ("
