aes_tb.vcd
$date
	Fri Sep 19 13:36:58 2025
$end
$version
	Icarus Verilog
$end
$timescale
	1ps
$end
$scope module aes_tb $end
$var wire 32 ! dword_out [31:0] $end
$var wire 1 " done $end
$var reg 1 # clk $end
$var reg 32 $ dword_in [31:0] $end
$var reg 128 % key [127:0] $end
$var reg 128 & plaintext [127:0] $end
$var reg 1 ' reset_n $end
$var reg 1 ( start_n $end
$var reg 1 ) start_read_n $end
$scope module uut $end
$var wire 1 # clk $end
$var wire 32 * dword_in [31:0] $end
$var wire 32 + dword_out [31:0] $end
$var wire 1 ' reset_n $end
$var wire 1 ( start_n $end
$var wire 1 ) start_read_n $end
$var wire 1 , write_enable $end
$var wire 32 - state_word [31:0] $end
$var wire 32 . shifted_row [31:0] $end
$var wire 32 / sbox_out [31:0] $end
$var wire 1 0 row_col_sel $end
$var wire 2 1 row_col_index [1:0] $end
$var wire 32 2 round_key [31:0] $end
$var wire 4 3 round_index [3:0] $end
$var wire 1 4 output_mat_row_col $end
$var wire 2 5 output_mat_idx [1:0] $end
$var wire 32 6 mixed_col [31:0] $end
$var wire 4 7 matrix_in_sel [3:0] $end
$var wire 1 8 key_start $end
$var wire 1 9 key_done $end
$var wire 1 " done $end
$var wire 6 : current_state [5:0] $end
$var wire 2 ; count_4 [1:0] $end
$var wire 32 < ark_out [31:0] $end
$var reg 32 = dmatrix_in [31:0] $end
$scope module ark $end
$var wire 32 > state_out [31:0] $end
$var wire 32 ? state_in [31:0] $end
$var wire 32 @ round_key [31:0] $end
$upscope $end
$scope module datamatrix $end
$var wire 1 # clk $end
$var wire 32 A col_in [31:0] $end
$var wire 1 ' reset_n $end
$var wire 1 , write_enable $end
$var wire 1 4 output_row_col $end
$var wire 2 B output_idx [1:0] $end
$var wire 1 0 input_row_col $end
$var wire 2 C input_idx [1:0] $end
$var wire 1 D debug_state $end
$var reg 32 E out [31:0] $end
$scope begin $unm_blk_6 $end
$var integer 32 F i [31:0] $end
$var integer 32 G j [31:0] $end
$upscope $end
$upscope $end
$scope module ke $end
$var wire 32 H cipher_key [31:0] $end
$var wire 1 # clk $end
$var wire 1 I reset $end
$var wire 1 8 start $end
$var wire 4 J round_key_num [3:0] $end
$var wire 2 K r_index [1:0] $end
$var reg 128 L current_key [127:0] $end
$var reg 1 9 done $end
$var reg 1 M expanded $end
$var reg 128 N key_reg [127:0] $end
$var reg 2 O load_count [1:0] $end
$var reg 1 P loading $end
$var reg 4 Q round_ctr [3:0] $end
$var reg 32 R round_key [31:0] $end
$var reg 2 S state [1:0] $end
$scope function get_word $end
$upscope $end
$scope function next_key $end
$upscope $end
$scope function rcon $end
$var reg 8 T rc [7:0] $end
$var integer 32 U i [31:0] $end
$upscope $end
$scope function rot_word $end
$var reg 32 V w [31:0] $end
$upscope $end
$scope function sbox_lookup $end
$var reg 8 W byte_in [7:0] $end
$upscope $end
$scope function sub_word $end
$var reg 32 X w [31:0] $end
$upscope $end
$upscope $end
$scope module mc $end
$var wire 32 Y col_in [31:0] $end
$var wire 8 Z s3 [7:0] $end
$var wire 8 [ s2 [7:0] $end
$var wire 8 \ s1 [7:0] $end
$var wire 8 ] s0 [7:0] $end
$var wire 32 ^ col_out [31:0] $end
$scope function mul_by_3 $end
$var reg 8 _ byte_in [7:0] $end
$upscope $end
$scope function xtime $end
$var reg 8 ` byte_in [7:0] $end
$upscope $end
$upscope $end
$scope module sb $end
$var wire 32 a row_in [31:0] $end
$var wire 32 b row_out [31:0] $end
$scope function sbox_lookup $end
$upscope $end
$upscope $end
$scope module sm $end
$var wire 1 # clock $end
$var wire 2 c count_4_out [1:0] $end
$var wire 1 9 key_expand_done $end
$var wire 1 ' reset_n $end
$var wire 1 ) start_read_n $end
$var wire 1 ( start_write_n $end
$var parameter 6 d ADDROUNDKEY $end
$var parameter 6 e COMPUTE_ROUNDKEYS $end
$var parameter 6 f CTEXT_READ $end
$var parameter 6 g ENCRYPTION_DONE $end
$var parameter 6 h IDLE $end
$var parameter 6 i INIT_ADDROUNDKEY $end
$var parameter 6 j KEY_WRITE $end
$var parameter 6 k MIXCOLUMNS $end
$var parameter 6 l PTEXT_WRITE $end
$var parameter 6 m SHIFTROWS $end
$var parameter 6 n SUBBYTES $end
$var reg 2 o count_4 [1:0] $end
$var reg 6 p current_state [5:0] $end
$var reg 4 q dbg_round [3:0] $end
$var reg 6 r dbg_state [5:0] $end
$var reg 1 " done $end
$var reg 2 s input_mat_idx [1:0] $end
$var reg 1 0 input_mat_row_col $end
$var reg 1 8 key_start $end
$var reg 4 t matrix_in_sel [3:0] $end
$var reg 1 , matrix_write_enable $end
$var reg 2 u next_count_4 [1:0] $end
$var reg 4 v next_round_counter [3:0] $end
$var reg 6 w next_state [5:0] $end
$var reg 2 x output_mat_idx [1:0] $end
$var reg 1 4 output_mat_row_col $end
$var reg 4 y round_counter [3:0] $end
$upscope $end
$scope module sr $end
$var wire 2 z idx_row [1:0] $end
$var wire 32 { row_in [31:0] $end
$var wire 32 | row_out [31:0] $end
$var reg 32 } row_out_reg [31:0] $end
$upscope $end
$upscope $end
$upscope $end
$enddefinitions $end
$comment Show the parameter values. $end
$dumpall
b100 n
b101 m
b1 l
b110 k
b10 j
b1010 i
b0 h
b1000 g
b1001 f
b11 e
b111 d
$end
#0
$dumpvars
b0 }
b0 |
b0 {
b0 z
b0 y
b0 x
b0 w
b0 v
b0 u
b0 t
b0 s
b0 r
b0 q
b0 p
b0 o
b0 c
b1100011011000110110001101100011 b
b0 a
b0 `
b0 _
b0 ^
b0 ]
b0 \
b0 [
b0 Z
b0 Y
bx X
bx W
bx V
bx U
bx T
b0 S
bx R
b0 Q
0P
b0 O
b0 N
0M
bx L
b0 K
b0 J
1I
b0 H
b100 G
b100 F
b0 E
0D
b0 C
b0 B
b0 A
bx @
b0 ?
bx >
b0 =
bx <
b0 ;
b0 :
09
08
b0 7
b0 6
b0 5
04
b0 3
bx 2
b0 1
00
b1100011011000110110001101100011 /
b0 .
b0 -
0,
b0 +
b0 *
1)
1(
0'
b11110011010001001000000111101100001111001100011000100111101110101100110101011101110000111111101100001000111100100111001111100110 &
b0 %
b0 $
0#
0"
b0 !
$end
#5000
b100 G
b100 F
1#
#10000
0#
#15000
b100 G
b100 F
1#
#20000
b11110011010001001000000111101100 =
b11110011010001001000000111101100 A
b1 w
0#
b11110011010001001000000111101100 $
b11110011010001001000000111101100 *
b11110011010001001000000111101100 H
0(
0I
1'
#25000
b0 <
b0 >
b1 :
b1 r
10
1,
b1 u
b0 2
b0 @
b0 R
b1 p
b10 S
b0 L
1#
#30000
b1 u
0#
1(
#35000
b11111101111100111111001100001110 6
b11111101111100111111001100001110 ^
b11110011 `
b11110011 _
b1101011000110110001101100011 /
b1101011000110110001101100011 b
b11110011 ]
b11110011000000000000000000000000 <
b11110011000000000000000000000000 >
b11110011 .
b11110011 |
b11110011 }
b11110011000000000000000000000000 !
b11110011000000000000000000000000 +
b11110011000000000000000000000000 -
b11110011000000000000000000000000 ?
b11110011000000000000000000000000 E
b11110011000000000000000000000000 Y
b11110011000000000000000000000000 a
b11110011000000000000000000000000 {
b1 1
b1 C
b1 s
b1 z
10
b10 u
b1 ;
b1 K
b1 c
b1 o
b1 Q
b1100010011000110110001101100011011000100110001101100011011000110110001001100011011000110110001101100010011000110110001101100011 L
b1 T
b1 U
b0 W
b0 X
b0 V
1#
#40000
b111100110001100010011110111010 =
b111100110001100010011110111010 A
0#
b111100110001100010011110111010 $
b111100110001100010011110111010 *
b111100110001100010011110111010 H
#45000
b10111001100010111100111100110010 6
b10111001100010111100111100110010 ^
b111100 _
b111100 `
b1101111010110110001101100011 /
b1101111010110110001101100011 b
b111100 \
b11110011001111000000000000000000 <
b11110011001111000000000000000000 >
b1111001100111100 .
b1111001100111100 |
b1111001100111100 }
b10 1
b10 C
b10 s
b10 z
10
b11 u
b11110011001111000000000000000000 !
b11110011001111000000000000000000 +
b11110011001111000000000000000000 -
b11110011001111000000000000000000 ?
b11110011001111000000000000000000 E
b11110011001111000000000000000000 Y
b11110011001111000000000000000000 a
b11110011001111000000000000000000 {
b10 ;
b10 K
b10 c
b10 o
b10 Q
b10100100101001111010011100010110110001101100010011000100011101011010010010100111101001110001011011000110110001001100010001110101 L
b10 T
b10 U
b1100010 W
b1100011011000110110001101100010 X
b1100010011000110110001101100011 V
1#
#50000
b11001101010111011100001111111011 =
b11001101010111011100001111111011 A
0#
b11001101010111011100001111111011 $
b11001101010111011100001111111011 *
b11001101010111011100001111111011 H
#55000
b1110100110001110100111011111111 6
b1110100110001110100111011111111 ^
b11001101 _
b11001101 `
b1101111010111011110101100011 /
b1101111010111011110101100011 b
b11001101 [
b11110011001111001100110100000000 <
b11110011001111001100110100000000 >
b111100110011110011001101 .
b111100110011110011001101 |
b111100110011110011001101 }
b11110011001111001100110100000000 !
b11110011001111001100110100000000 +
b11110011001111001100110100000000 -
b11110011001111001100110100000000 ?
b11110011001111001100110100000000 E
b11110011001111001100110100000000 Y
b11110011001111001100110100000000 a
b11110011001111001100110100000000 {
b11 1
b11 C
b11 s
b11 z
10
b0 u
b10 w
b11 ;
b11 K
b11 c
b11 o
b11 Q
b11000111110000001000110001111010000000010000010001001000000011111010010110100011111011110001100101100011011001110010101101101100 L
b100 T
b11 U
b11000110 W
b11000100110001000111010111000110 X
b11000110110001001100010001110101 V
1#
#60000
b0 =
b0 A
0#
b0 $
b0 *
b0 H
#65000
bx =
bx A
b11110011001111001100110100000000 .
b11110011001111001100110100000000 |
b11110011001111001100110100000000 }
18
b10 :
b10 r
0,
bx 7
bx t
b0 1
b0 C
b0 s
b0 z
00
b1 u
b0 ;
b0 K
b0 c
b0 o
b10 p
b100 Q
b1011011101101010111100010111110010110101011000100110000101100011111111100010010110111111010100010011100011101011111010011000100 L
b1000 T
b100 U
b1100011 W
b1100111001010110110110001100011 X
b1100011011001110010101101101100 V
1#
#70000
0#
#75000
b111100110011010000000011110011 .
b111100110011010000000011110011 |
b111100110011010000000011110011 }
08
b1 1
b1 C
b1 s
b1 z
b10 u
b1 ;
b1 K
b1 c
b1 o
1P
b101 Q
b1100000101101010001111101001010001110100000010000101111111110111100010100010110111100000101001101011001011000110000010010010111 L
b10000 T
b101 U
b10011100 W
b1110101111101001100010010011100 X
b10011100011101011111010011000100 V
1#
#80000
0#
#85000
b11001101000000001111001100111100 .
b11001101000000001111001100111100 |
b11001101000000001111001100111100 }
b10 1
b10 C
b10 s
b10 z
b11 u
b10 ;
b10 K
b10 c
b10 o
b0 S
b0 Q
b10000100010001111000101101011001101111100100001110100100101000100111101101010101010101001111000100100010001101100101000001100110 L
b1 O
b100000 T
b110 U
b1011001 W
b1100011000001001001011101011001 X
b1011001011000110000010010010111 V
1#
#90000
0#
#95000
b111100110011110011001101 .
b111100110011110011001101 |
b111100110011110011001101 }
b11 1
b11 C
b11 s
b11 z
b0 u
b1010 w
b11 ;
b11 K
b11 c
b11 o
b10 O
1#
#100000
0#
#105000
b0 =
b0 A
b11110011001111001100110100000000 .
b11110011001111001100110100000000 |
b11110011001111001100110100000000 }
b1010 :
b1010 r
1,
b100 7
b100 t
b0 1
b0 C
b0 s
b0 z
b1 u
b0 ;
b0 K
b0 c
b0 o
b1010 p
b11 O
1#
#110000
0#
#115000
b10000100001101000011100001010111 6
b10000100001101000011100001010111 ^
b1000100 _
b1000100 `
b11011101101000100110001100011 /
b11011101101000100110001100011 b
b1000100 ]
b11000110 \
b1011101 [
b1000100110001100101110100000000 <
b1000100110001100101110100000000 >
b11000110010111010000000001000100 .
b11000110010111010000000001000100 |
b11000110010111010000000001000100 }
b1000100110001100101110100000000 !
b1000100110001100101110100000000 +
b1000100110001100101110100000000 -
b1000100110001100101110100000000 ?
b1000100110001100101110100000000 E
b1000100110001100101110100000000 Y
b1000100110001100101110100000000 a
b1000100110001100101110100000000 {
b1 5
b1 B
b1 x
b1 1
b1 C
b1 s
b1 z
b10 u
b1 ;
b1 K
b1 c
b1 o
b0 O
0P
1#
#120000
0#
#125000
b10110011100100010011101101111100 6
b10110011100100010011101101111100 ^
b10000001 _
b10000001 `
b1100110011000010111001100011 /
b1100110011000010111001100011 b
b10000001 ]
b100111 \
b11000011 [
b10000001001001111100001100000000 <
b10000001001001111100001100000000 >
b11000011000000001000000100100111 .
b11000011000000001000000100100111 |
b11000011000000001000000100100111 }
b10 5
b10 B
b10 x
b10 1
b10 C
b10 s
b10 z
b11 u
b10000001001001111100001100000000 !
b10000001001001111100001100000000 +
b10000001001001111100001100000000 -
b10000001001001111100001100000000 ?
b10000001001001111100001100000000 E
b10000001001001111100001100000000 Y
b10000001001001111100001100000000 a
b10000001001001111100001100000000 {
b10 ;
b10 K
b10 c
b10 o
b10 S
b0 L
1#
#130000
0#
#135000
b11101101100101011011101101101110 6
b11101101100101011011101101101110 ^
b11101100 _
b11101100 `
b11001110111101000000111101100011 /
b11001110111101000000111101100011 b
b11101100 ]
b10111010 \
b11111011 [
b11101100101110101111101100000000 <
b11101100101110101111101100000000 >
b111011001011101011111011 .
b111011001011101011111011 |
b111011001011101011111011 }
b11101100101110101111101100000000 !
b11101100101110101111101100000000 +
b11101100101110101111101100000000 -
b11101100101110101111101100000000 ?
b11101100101110101111101100000000 E
b11101100101110101111101100000000 Y
b11101100101110101111101100000000 a
b11101100101110101111101100000000 {
b11 5
b11 B
b11 x
b11 1
b11 C
b11 s
b11 z
b0 u
b11 w
b11 ;
b11 K
b11 c
b11 o
b1 Q
b1100010011000110110001101100011011000100110001101100011011000110110001001100011011000110110001101100010011000110110001101100011 L
b1 T
b1 U
b0 W
b0 X
b0 V
1#
#140000
0#
#145000
b0 6
b0 ^
b0 _
b0 `
b1100011011000110110001101100011 /
b1100011011000110110001101100011 b
bx =
bx A
b0 ]
b0 \
b0 [
b0 <
b0 >
b0 .
b0 |
b0 }
b11 :
b11 r
0,
bx 7
bx t
b0 5
b0 B
b0 x
b0 1
b0 C
b0 s
b0 z
b0 !
b0 +
b0 -
b0 ?
b0 E
b0 Y
b0 a
b0 {
b0 ;
b0 K
b0 c
b0 o
b11 p
b10 Q
b10100100101001111010011100010110110001101100010011000100011101011010010010100111101001110001011011000110110001001100010001110101 L
b10 T
b10 U
b1100010 W
b1100011011000110110001101100010 X
b1100010011000110110001101100011 V
1#
#150000
0#
#155000
b11 Q
b11000111110000001000110001111010000000010000010001001000000011111010010110100011111011110001100101100011011001110010101101101100 L
b100 T
b11 U
b11000110 W
b11000100110001000111010111000110 X
b11000110110001001100010001110101 V
1#
#160000
0#
#165000
b100 Q
b1011011101101010111100010111110010110101011000100110000101100011111111100010010110111111010100010011100011101011111010011000100 L
b1000 T
b100 U
b1100011 W
b1100111001010110110110001100011 X
b1100011011001110010101101101100 V
1#
#170000
0#
#175000
b101 Q
b1100000101101010001111101001010001110100000010000101111111110111100010100010110111100000101001101011001011000110000010010010111 L
b10000 T
b101 U
b10011100 W
b1110101111101001100010010011100 X
b10011100011101011111010011000100 V
1#
#180000
0#
#185000
b110 Q
b10000100010001111000101101011001101111100100001110100100101000100111101101010101010101001111000100100010001101100101000001100110 L
b100000 T
b110 U
b1011001 W
b1100011000001001001011101011001 X
b1011001011000110000010010010111 V
1#
#190000
0#
#195000
b111 Q
b10000000101111011110011111001010001111101111111001000011011010000100010110101011000101111001100101100111100111010100011111111111 L
b1000000 T
b111 U
b100010 W
b110110010100000110011000100010 X
b100010001101100101000001100110 V
1#
#200000
0#
#205000
b1000 Q
b1011101000011110011101011110001101010101111110100100001101100111000011110100101100111010111100010111011010011111010001010000 L
b10000000 T
b1000 U
b1100111 W
b10011101010001111111111101100111 X
b1100111100111010100011111111111 V
1#
#210000
0#
#215000
b1001 Q
b1000101101000010001110110101110011100001111111010111001100110000000000000001010000010100011011100010111011000111111111001100111 L
b11011 T
b1001 U
b10111 W
b1101001111101000101000000010111 X
b10111011010011111010001010000 V
1#
#220000
0#
#225000
b1010 Q
b10110111101000011000100101011110110001110101111100110000110001101100011101010101001110101111000111010000001101101100010010010110 L
b110110 T
b1010 U
b10111 W
b1100011111111100110011100010111 X
b10111011000111111111001100111 V
1#
#230000
0#
#235000
b11 S
1#
#240000
0#
#245000
b100 w
b0 S
19
1#
#250000
0#
#255000
b1100011011000110110001101100011 =
b1100011011000110110001101100011 A
b100 :
b100 r
1,
b1 7
b1 t
b1 u
b100 p
b10 S
b0 Q
b0 L
1#
#260000
0#
#265000
b1100011011000110110001101100011 =
b1100011011000110110001101100011 A
b0 _
b0 `
b0 6
b0 ^
b1100011011000110110001101100011 /
b1100011011000110110001101100011 b
b0 ]
b0 \
b0 [
b0 Z
b0 <
b0 >
b0 .
b0 |
b0 }
b1 5
b1 B
b1 x
b1 1
b1 C
b1 s
b1 z
b10 u
b0 !
b0 +
b0 -
b0 ?
b0 E
b0 Y
b0 a
b0 {
b1 ;
b1 K
b1 c
b1 o
b1 Q
b1100010011000110110001101100011011000100110001101100011011000110110001001100011011000110110001101100010011000110110001101100011 L
b1 T
b1 U
b0 W
b0 X
b0 V
1#
#270000
0#
#275000
b10 5
b10 B
b10 x
b10 1
b10 C
b10 s
b10 z
b11 u
b10 ;
b10 K
b10 c
b10 o
b10 Q
b10100100101001111010011100010110110001101100010011000100011101011010010010100111101001110001011011000110110001001100010001110101 L
b10 T
b10 U
b1100010 W
b1100011011000110110001101100010 X
b1100010011000110110001101100011 V
1#
#280000
0#
#285000
b1100011011000110110001101100011 =
b1100011011000110110001101100011 A
b0 _
b0 `
b0 6
b0 ^
b1100011011000110110001101100011 /
b1100011011000110110001101100011 b
b0 ]
b0 \
b0 [
b0 Z
b0 <
b0 >
b0 .
b0 |
b0 }
b11 5
b11 B
b11 x
b11 1
b11 C
b11 s
b11 z
b0 u
b101 w
b0 !
b0 +
b0 -
b0 ?
b0 E
b0 Y
b0 a
b0 {
b11 ;
b11 K
b11 c
b11 o
b11 Q
b11000111110000001000110001111010000000010000010001001000000011111010010110100011111011110001100101100011011001110010101101101100 L
b100 T
b11 U
b11000110 W
b11000100110001000111010111000110 X
b11000110110001001100010001110101 V
1#
#290000
0#
#295000
b1100011 _
b1100011 `
b1100011011000110110001101100011 6
b1100011011000110110001101100011 ^
b11111011111110111111101111111011 /
b11111011111110111111101111111011 b
b1100011 ]
b1100011 \
b1100011 [
b1100011 Z
b1100011011000110110001101100011 <
b1100011011000110110001101100011 >
b1100011011000110110001101100011 .
b1100011011000110110001101100011 |
b1100011011000110110001101100011 }
1D
b1100011011000110110001101100011 !
b1100011011000110110001101100011 +
b1100011011000110110001101100011 -
b1100011011000110110001101100011 ?
b1100011011000110110001101100011 E
b1100011011000110110001101100011 Y
b1100011011000110110001101100011 a
b1100011011000110110001101100011 {
b101 :
b101 r
b10 7
b10 t
b0 5
b0 B
b0 x
b0 1
b0 C
b0 s
b0 z
b1 u
b0 ;
b0 K
b0 c
b0 o
b101 p
b100 Q
b1011011101101010111100010111110010110101011000100110000101100011111111100010010110111111010100010011100011101011111010011000100 L
b1000 T
b100 U
b1100011 W
b1100111001010110110110001100011 X
b1100011011001110010101101101100 V
1#
#300000
0#
#305000
b1 5
b1 B
b1 x
b1 1
b1 C
b1 s
b1 z
b10 u
b1 ;
b1 K
b1 c
b1 o
b101 Q
b1100000101101010001111101001010001110100000010000101111111110111100010100010110111100000101001101011001011000110000010010010111 L
b10000 T
b101 U
b10011100 W
b1110101111101001100010010011100 X
b10011100011101011111010011000100 V
1#
#310000
0#
#315000
b10 5
b10 B
b10 x
b10 1
b10 C
b10 s
b10 z
b11 u
b10 ;
b10 K
b10 c
b10 o
b110 Q
b10000100010001111000101101011001101111100100001110100100101000100111101101010101010101001111000100100010001101100101000001100110 L
b100000 T
b110 U
b1011001 W
b1100011000001001001011101011001 X
b1011001011000110000010010010111 V
1#
#320000
0#
#325000
b11 5
b11 B
b11 x
b11 1
b11 C
b11 s
b11 z
b0 u
b110 w
b11 ;
b11 K
b11 c
b11 o
b111 Q
b10000000101111011110011111001010001111101111111001000011011010000100010110101011000101111001100101100111100111010100011111111111 L
b1000000 T
b111 U
b100010 W
b110110010100000110011000100010 X
b100010001101100101000001100110 V
1#
#330000
0#
#335000
b110 :
b110 r
14
10
b11 7
b11 t
b0 5
b0 B
b0 x
b0 1
b0 C
b0 s
b0 z
b1 u
b0 ;
b0 K
b0 c
b0 o
b110 p
b1000 Q
b1011101000011110011101011110001101010101111110100100001101100111000011110100101100111010111100010111011010011111010001010000 L
b10000000 T
b1000 U
b1100111 W
b10011101010001111111111101100111 X
b1100111100111010100011111111111 V
1#
#340000
0#
#345000
b1 5
b1 B
b1 x
b1 1
b1 C
b1 s
b1 z
14
10
b10 u
b1 ;
b1 K
b1 c
b1 o
b1001 Q
b1000101101000010001110110101110011100001111111010111001100110000000000000001010000010100011011100010111011000111111111001100111 L
b11011 T
b1001 U
b10111 W
b1101001111101000101000000010111 X
b10111011010011111010001010000 V
1#
#350000
0#
#355000
b10 5
b10 B
b10 x
14
b10 1
b10 C
b10 s
b10 z
10
b11 u
b10 ;
b10 K
b10 c
b10 o
b1010 Q
b10110111101000011000100101011110110001110101111100110000110001101100011101010101001110101111000111010000001101101100010010010110 L
b110110 T
b1010 U
b10111 W
b1100011111111100110011100010111 X
b10111011000111111111001100111 V
1#
#360000
0#
#365000
b11 5
b11 B
b11 x
14
b11 1
b11 C
b11 s
b11 z
10
b0 u
b111 w
b11 ;
b11 K
b11 c
b11 o
b11 S
1#
#370000
0#
#375000
b0 =
b0 A
b111 :
b111 r
b100 7
b100 t
b0 5
b0 B
b0 x
14
b0 1
b0 C
b0 s
b0 z
10
b1 u
b0 ;
b0 K
b0 c
b0 o
b111 p
b0 S
1#
#380000
0#
#385000
b1100011 _
b1100011 `
b1100011011000110110001101100011 6
b1100011011000110110001101100011 ^
b11111011111110111111101111111011 /
b11111011111110111111101111111011 b
b1100011 ]
b1100011 \
b1100011 [
b1100011 Z
b1100011011000110110001101100011 <
b1100011011000110110001101100011 >
b1100011011000110110001101100011 .
b1100011011000110110001101100011 |
b1100011011000110110001101100011 }
b1 5
b1 B
b1 x
b1 1
b1 C
b1 s
b1 z
14
10
b10 u
b1100011011000110110001101100011 !
b1100011011000110110001101100011 +
b1100011011000110110001101100011 -
b1100011011000110110001101100011 ?
b1100011011000110110001101100011 E
b1100011011000110110001101100011 Y
b1100011011000110110001101100011 a
b1100011011000110110001101100011 {
b1 ;
b1 K
b1 c
b1 o
b10 S
b0 Q
b0 L
1#
#390000
0#
#395000
b10 5
b10 B
b10 x
14
b10 1
b10 C
b10 s
b10 z
10
b11 u
b10 ;
b10 K
b10 c
b10 o
b1 Q
b1100010011000110110001101100011011000100110001101100011011000110110001001100011011000110110001101100010011000110110001101100011 L
b1 T
b1 U
b0 W
b0 X
b0 V
1#
#400000
0#
#405000
b1100011 _
b1100011 `
b1100011011000110110001101100011 6
b1100011011000110110001101100011 ^
b11111011111110111111101111111011 /
b11111011111110111111101111111011 b
b1100011 ]
b1100011 \
b1100011 [
b1100011 Z
b1100011011000110110001101100011 <
b1100011011000110110001101100011 >
b1100011011000110110001101100011 .
b1100011011000110110001101100011 |
b1100011011000110110001101100011 }
b11 5
b11 B
b11 x
14
b11 1
b11 C
b11 s
b11 z
10
b0 u
b1 v
b100 w
b1100011011000110110001101100011 !
b1100011011000110110001101100011 +
b1100011011000110110001101100011 -
b1100011011000110110001101100011 ?
b1100011011000110110001101100011 E
b1100011011000110110001101100011 Y
b1100011011000110110001101100011 a
b1100011011000110110001101100011 {
b11 ;
b11 K
b11 c
b11 o
b10 Q
b10100100101001111010011100010110110001101100010011000100011101011010010010100111101001110001011011000110110001001100010001110101 L
b10 T
b10 U
b1100010 W
b1100011011000110110001101100010 X
b1100010011000110110001101100011 V
1#
#410000
0#
#415000
b0 _
b0 `
b0 6
b0 ^
b1100011011000110110001101100011 /
b1100011011000110110001101100011 b
b0 ]
b0 \
b0 [
b0 Z
b1100010011000110110001101100011 <
b1100010011000110110001101100011 >
b1100011011000110110001101100011 =
b1100011011000110110001101100011 A
b0 .
b0 |
b0 }
0D
b0 !
b0 +
b0 -
b0 ?
b0 E
b0 Y
b0 a
b0 {
b1100010011000110110001101100011 2
b1100010011000110110001101100011 @
b1100010011000110110001101100011 R
b1 3
b1 J
b1 q
b100 :
b100 r
b1 7
b1 t
b0 5
b0 B
b0 x
04
b0 1
b0 C
b0 s
b0 z
00
b1 u
b0 ;
b0 K
b0 c
b0 o
b1 y
b100 p
b11 Q
b11000111110000001000110001111010000000010000010001001000000011111010010110100011111011110001100101100011011001110010101101101100 L
b100 T
b11 U
b11000110 W
b11000100110001000111010111000110 X
b11000110110001001100010001110101 V
1#
#420000
0#
#425000
b1100011011000110110001101100011 =
b1100011011000110110001101100011 A
b0 _
b0 `
b0 6
b0 ^
b1100011011000110110001101100011 /
b1100011011000110110001101100011 b
b0 ]
b0 \
b0 [
b0 Z
b1100010011000110110001101100011 <
b1100010011000110110001101100011 >
b0 .
b0 |
b0 }
b1 5
b1 B
b1 x
b1 1
b1 C
b1 s
b1 z
b10 u
b0 !
b0 +
b0 -
b0 ?
b0 E
b0 Y
b0 a
b0 {
b1 ;
b1 K
b1 c
b1 o
b100 Q
b1011011101101010111100010111110010110101011000100110000101100011111111100010010110111111010100010011100011101011111010011000100 L
b1000 T
b100 U
b1100011 W
b1100111001010110110110001100011 X
b1100011011001110010101101101100 V
1#
#430000
0#
#435000
b10 5
b10 B
b10 x
b10 1
b10 C
b10 s
b10 z
b11 u
b10 ;
b10 K
b10 c
b10 o
b101 Q
b1100000101101010001111101001010001110100000010000101111111110111100010100010110111100000101001101011001011000110000010010010111 L
b10000 T
b101 U
b10011100 W
b1110101111101001100010010011100 X
b10011100011101011111010011000100 V
1#
#440000
0#
#445000
b1100011011000110110001101100011 =
b1100011011000110110001101100011 A
b0 _
b0 `
b0 6
b0 ^
b1100011011000110110001101100011 /
b1100011011000110110001101100011 b
b0 ]
b0 \
b0 [
b0 Z
b1100010011000110110001101100011 <
b1100010011000110110001101100011 >
b0 .
b0 |
b0 }
b11 5
b11 B
b11 x
b11 1
b11 C
b11 s
b11 z
b0 u
b101 w
b0 !
b0 +
b0 -
b0 ?
b0 E
b0 Y
b0 a
b0 {
b11 ;
b11 K
b11 c
b11 o
b110 Q
b10000100010001111000101101011001101111100100001110100100101000100111101101010101010101001111000100100010001101100101000001100110 L
b100000 T
b110 U
b1011001 W
b1100011000001001001011101011001 X
b1011001011000110000010010010111 V
1#
#450000
0#
#455000
b1100011 _
b1100011 `
b1100011011000110110001101100011 6
b1100011011000110110001101100011 ^
b11111011111110111111101111111011 /
b11111011111110111111101111111011 b
b1100011 ]
b1100011 \
b1100011 [
b1100011 Z
b1000000000000000000000000 <
b1000000000000000000000000 >
b1100011011000110110001101100011 .
b1100011011000110110001101100011 |
b1100011011000110110001101100011 }
1D
b1100011011000110110001101100011 !
b1100011011000110110001101100011 +
b1100011011000110110001101100011 -
b1100011011000110110001101100011 ?
b1100011011000110110001101100011 E
b1100011011000110110001101100011 Y
b1100011011000110110001101100011 a
b1100011011000110110001101100011 {
b101 :
b101 r
b10 7
b10 t
b0 5
b0 B
b0 x
b0 1
b0 C
b0 s
b0 z
b1 u
b0 ;
b0 K
b0 c
b0 o
b101 p
b111 Q
b10000000101111011110011111001010001111101111111001000011011010000100010110101011000101111001100101100111100111010100011111111111 L
b1000000 T
b111 U
b100010 W
b110110010100000110011000100010 X
b100010001101100101000001100110 V
1#
#460000
0#
#465000
b1 5
b1 B
b1 x
b1 1
b1 C
b1 s
b1 z
b10 u
b1 ;
b1 K
b1 c
b1 o
b1000 Q
b1011101000011110011101011110001101010101111110100100001101100111000011110100101100111010111100010111011010011111010001010000 L
b10000000 T
b1000 U
b1100111 W
b10011101010001111111111101100111 X
b1100111100111010100011111111111 V
1#
#470000
0#
#475000
b10 5
b10 B
b10 x
b10 1
b10 C
b10 s
b10 z
b11 u
b10 ;
b10 K
b10 c
b10 o
b1001 Q
b1000101101000010001110110101110011100001111111010111001100110000000000000001010000010100011011100010111011000111111111001100111 L
b11011 T
b1001 U
b10111 W
b1101001111101000101000000010111 X
b10111011010011111010001010000 V
1#
#480000
0#
#485000
b11 5
b11 B
b11 x
b11 1
b11 C
b11 s
b11 z
b0 u
b110 w
b11 ;
b11 K
b11 c
b11 o
b1010 Q
b10110111101000011000100101011110110001110101111100110000110001101100011101010101001110101111000111010000001101101100010010010110 L
b110110 T
b1010 U
b10111 W
b1100011111111100110011100010111 X
b10111011000111111111001100111 V
1#
#490000
0#
#495000
b110 :
b110 r
14
10
b11 7
b11 t
b0 5
b0 B
b0 x
b0 1
b0 C
b0 s
b0 z
b1 u
b0 ;
b0 K
b0 c
b0 o
b110 p
b11 S
1#
#500000
0#
#505000
b1 5
b1 B
b1 x
b1 1
b1 C
b1 s
b1 z
14
10
b10 u
b1 ;
b1 K
b1 c
b1 o
b0 S
1#
#510000
0#
#515000
b10 5
b10 B
b10 x
14
b10 1
b10 C
b10 s
b10 z
10
b11 u
b10 ;
b10 K
b10 c
b10 o
b10 S
b0 Q
b0 L
1#
#520000
0#
#525000
b11 5
b11 B
b11 x
14
b11 1
b11 C
b11 s
b11 z
10
b0 u
b111 w
b11 ;
b11 K
b11 c
b11 o
b1 Q
b1100010011000110110001101100011011000100110001101100011011000110110001001100011011000110110001101100010011000110110001101100011 L
b1 T
b1 U
b0 W
b0 X
b0 V
1#
#530000
0#
