aes_tb.vcd
$date
	Tue Sep 16 20:25:31 2025
$end
$version
	Icarus Verilog
$end
$timescale
	1ps
$end
$scope module aes_tb $end
$var wire 32 ! dword_out [31:0] $end
$var wire 1 " done $end
$var reg 1 # clk $end
$var reg 32 $ dword_in [31:0] $end
$var reg 128 % key [127:0] $end
$var reg 128 & plaintext [127:0] $end
$var reg 1 ' reset_n $end
$var reg 1 ( start_n $end
$var reg 1 ) start_read_n $end
$scope module uut $end
$var wire 1 # clk $end
$var wire 32 * dword_in [31:0] $end
$var wire 32 + dword_out [31:0] $end
$var wire 1 ' reset_n $end
$var wire 1 ( start_n $end
$var wire 1 ) start_read_n $end
$var wire 1 , write_enable $end
$var wire 32 - state_word [31:0] $end
$var wire 32 . shifted_row [31:0] $end
$var wire 32 / sbox_out [31:0] $end
$var wire 1 0 row_col_sel $end
$var wire 2 1 row_col_index [1:0] $end
$var wire 32 2 round_key [31:0] $end
$var wire 4 3 round_index [3:0] $end
$var wire 1 4 output_mat_row_col $end
$var wire 2 5 output_mat_idx [1:0] $end
$var wire 32 6 mixed_col [31:0] $end
$var wire 4 7 matrix_in_sel [3:0] $end
$var wire 1 8 key_start $end
$var wire 1 9 key_done $end
$var wire 1 " done $end
$var wire 128 : dbg_flattened_matrix [127:0] $end
$var wire 6 ; current_state [5:0] $end
$var wire 2 < count_4 [1:0] $end
$var wire 32 = ark_out [31:0] $end
$var reg 32 > dmatrix_in [31:0] $end
$scope module ark $end
$var wire 32 ? state_out [31:0] $end
$var wire 32 @ state_in [31:0] $end
$var wire 32 A round_key [31:0] $end
$upscope $end
$scope module datamatrix $end
$var wire 1 # clk $end
$var wire 32 B col_in [31:0] $end
$var wire 1 ' reset_n $end
$var wire 1 , write_enable $end
$var wire 1 4 output_row_col $end
$var wire 2 C output_idx [1:0] $end
$var wire 1 0 input_row_col $end
$var wire 2 D input_idx [1:0] $end
$var wire 128 E debug_state [127:0] $end
$var reg 32 F out [31:0] $end
$scope begin $unm_blk_6 $end
$var integer 32 G i [31:0] $end
$var integer 32 H j [31:0] $end
$upscope $end
$upscope $end
$scope module ke $end
$var wire 32 I cipher_key [31:0] $end
$var wire 1 # clk $end
$var wire 1 J reset $end
$var wire 1 8 start $end
$var wire 4 K round_key_num [3:0] $end
$var wire 2 L r_index [1:0] $end
$var reg 128 M current_key [127:0] $end
$var reg 1 9 done $end
$var reg 1 N expanded $end
$var reg 128 O key_reg [127:0] $end
$var reg 2 P load_count [1:0] $end
$var reg 1 Q loading $end
$var reg 4 R round_ctr [3:0] $end
$var reg 32 S round_key [31:0] $end
$var reg 2 T state [1:0] $end
$scope function get_word $end
$upscope $end
$scope function next_key $end
$upscope $end
$scope function rcon $end
$var reg 8 U rc [7:0] $end
$var integer 32 V i [31:0] $end
$upscope $end
$scope function rot_word $end
$var reg 32 W w [31:0] $end
$upscope $end
$scope function sbox_lookup $end
$var reg 8 X byte_in [7:0] $end
$upscope $end
$scope function sub_word $end
$var reg 32 Y w [31:0] $end
$upscope $end
$upscope $end
$scope module mc $end
$var wire 32 Z col_in [31:0] $end
$var wire 8 [ s3 [7:0] $end
$var wire 8 \ s2 [7:0] $end
$var wire 8 ] s1 [7:0] $end
$var wire 8 ^ s0 [7:0] $end
$var wire 32 _ col_out [31:0] $end
$scope function mul_by_3 $end
$var reg 8 ` byte_in [7:0] $end
$upscope $end
$scope function xtime $end
$var reg 8 a byte_in [7:0] $end
$upscope $end
$upscope $end
$scope module sb $end
$var wire 32 b row_in [31:0] $end
$var wire 32 c row_out [31:0] $end
$scope function sbox_lookup $end
$upscope $end
$upscope $end
$scope module sm $end
$var wire 1 # clock $end
$var wire 2 d count_4_out [1:0] $end
$var wire 1 9 key_expand_done $end
$var wire 1 ' reset_n $end
$var wire 1 ) start_read_n $end
$var wire 1 ( start_write_n $end
$var parameter 6 e ADDROUNDKEY $end
$var parameter 6 f COMPUTE_ROUNDKEYS $end
$var parameter 6 g CTEXT_READ $end
$var parameter 6 h ENCRYPTION_DONE $end
$var parameter 6 i IDLE $end
$var parameter 6 j KEY_WRITE $end
$var parameter 6 k MIXCOLUMNS $end
$var parameter 6 l PTEXT_WRITE $end
$var parameter 6 m SHIFTROWS $end
$var parameter 6 n SUBBYTES $end
$var reg 2 o count_4 [1:0] $end
$var reg 6 p current_state [5:0] $end
$var reg 4 q dbg_round [3:0] $end
$var reg 6 r dbg_state [5:0] $end
$var reg 1 " done $end
$var reg 2 s input_mat_idx [1:0] $end
$var reg 1 0 input_mat_row_col $end
$var reg 1 8 key_start $end
$var reg 4 t matrix_in_sel [3:0] $end
$var reg 1 , matrix_write_enable $end
$var reg 2 u next_count_4 [1:0] $end
$var reg 4 v next_round_counter [3:0] $end
$var reg 6 w next_state [5:0] $end
$var reg 2 x output_mat_idx [1:0] $end
$var reg 1 4 output_mat_row_col $end
$var reg 4 y round_counter [3:0] $end
$upscope $end
$scope module sr $end
$var wire 2 z idx_row [1:0] $end
$var wire 32 { row_in [31:0] $end
$var wire 32 | row_out [31:0] $end
$var reg 32 } row_out_reg [31:0] $end
$upscope $end
$upscope $end
$upscope $end
$enddefinitions $end
$comment Show the parameter values. $end
$dumpall
b100 n
b101 m
b1 l
b110 k
b10 j
b0 i
b1000 h
b1001 g
b11 f
b111 e
$end
#0
$dumpvars
b0 }
b0 |
b0 {
b0 z
b0 y
b0 x
b0 w
b0 v
b0 u
b0 t
b0 s
b0 r
b0 q
b0 p
b0 o
b0 d
b1100011011000110110001101100011 c
b0 b
b0 a
b0 `
b0 _
b0 ^
b0 ]
b0 \
b0 [
b0 Z
bx Y
bx X
bx W
bx V
bx U
b0 T
bx S
b0 R
0Q
b0 P
b0 O
0N
bx M
b0 L
b0 K
1J
b0 I
b100 H
b100 G
b0 F
b0 E
b0 D
b0 C
b0 B
bx A
b0 @
bx ?
b0 >
bx =
b0 <
b0 ;
b0 :
09
08
b0 7
b0 6
b0 5
04
b0 3
bx 2
b0 1
00
b1100011011000110110001101100011 /
b0 .
b0 -
0,
b0 +
b0 *
1)
1(
0'
b100010010001000110011010001000101010101100110011101111000100010011001101010101011101111001100110111011110111011111111 &
b10000001000000011000001000000010100000110000001110000100000001001000010100000101100001100000011010000111000001111 %
b0 $
0#
0"
b0 !
$end
#5000
b100 H
b100 G
1#
#10000
0#
#15000
b100 H
b100 G
1#
#20000
b100010010001000110011 >
b100010010001000110011 B
b1 w
0#
b100010010001000110011 $
b100010010001000110011 *
b100010010001000110011 I
0(
0J
1'
#25000
b0 =
b0 ?
b1 ;
b1 r
10
1,
b1 u
b0 2
b0 A
b0 S
b1 p
b10 T
b0 M
1#
#30000
b1 u
0#
1(
#35000
b1 1
b1 D
b1 s
b1 z
10
b10 u
b100010000000000000000000000000010001000000000000000000000000000110011000000000000000000000000 :
b100010000000000000000000000000010001000000000000000000000000000110011000000000000000000000000 E
b1 <
b1 L
b1 d
b1 o
b1 R
b1100010011000110110001101100011011000100110001101100011011000110110001001100011011000110110001101100010011000110110001101100011 M
b1 U
b1 V
b0 X
b0 Y
b0 W
1#
#40000
b1000100010101010110011001110111 >
b1000100010101010110011001110111 B
0#
b1000100010101010110011001110111 $
b1000100010101010110011001110111 *
b1000100010101010110011001110111 I
#45000
b11001100100010000100010001000100 6
b11001100100010000100010001000100 _
b1000100 `
b1000100 a
b1100011000110110110001101100011 /
b1100011000110110110001101100011 c
b1000100 ]
b10001000000000000000000 =
b10001000000000000000000 ?
b1000100 .
b1000100 |
b1000100 }
b10 1
b10 D
b10 s
b10 z
10
b11 u
b10001000000000000000000 !
b10001000000000000000000 +
b10001000000000000000000 -
b10001000000000000000000 @
b10001000000000000000000 F
b10001000000000000000000 Z
b10001000000000000000000 b
b10001000000000000000000 {
b10 <
b10 L
b10 d
b10 o
b10001000000000000000000000100010101010100000000000000000010001001100110000000000000000000110011011101110000000000000000 :
b10001000000000000000000000100010101010100000000000000000010001001100110000000000000000000110011011101110000000000000000 E
b10 R
b10100100101001111010011100010110110001101100010011000100011101011010010010100111101001110001011011000110110001001100010001110101 M
b10 U
b10 V
b1100010 X
b1100011011000110110001101100010 Y
b1100010011000110110001101100011 W
1#
#50000
b10001000100110011010101010111011 >
b10001000100110011010101010111011 B
0#
b10001000100110011010101010111011 $
b10001000100110011010101010111011 *
b10001000100110011010101010111011 I
#55000
b1000100000010110100111111001100 6
b1000100000010110100111111001100 _
b10001000 `
b10001000 a
b1100011000110111100010001100011 /
b1100011000110111100010001100011 c
b10001000 \
b10001001000100000000000 =
b10001001000100000000000 ?
b100010010001000 .
b100010010001000 |
b100010010001000 }
b10001001000100000000000 !
b10001001000100000000000 +
b10001001000100000000000 -
b10001001000100000000000 @
b10001001000100000000000 F
b10001001000100000000000 Z
b10001001000100000000000 b
b10001001000100000000000 {
b11 1
b11 D
b11 s
b11 z
10
b0 u
b10 w
b10001001000100000000000000100010101010110011001000000000010001001100110101010100000000000110011011101111011101100000000 :
b10001001000100000000000000100010101010110011001000000000010001001100110101010100000000000110011011101111011101100000000 E
b11 <
b11 L
b11 d
b11 o
b11 R
b11000111110000001000110001111010000000010000010001001000000011111010010110100011111011110001100101100011011001110010101101101100 M
b100 U
b11 V
b11000110 X
b11000100110001000111010111000110 Y
b11000110110001001100010001110101 W
1#
#60000
b10000001000000011 >
b10000001000000011 B
0#
b10000001000000011 $
b10000001000000011 *
b10000001000000011 I
#65000
bx >
bx B
b10001001000100000000000 .
b10001001000100000000000 |
b10001001000100000000000 }
18
b10 ;
b10 r
0,
bx 7
bx t
b0 1
b0 D
b0 s
b0 z
10
b1 u
b0 <
b0 L
b0 d
b0 o
b10 p
b10001001000100000000000000100010101010110011001000000010010001001100110101010100000001000110011011101111011101100000011 :
b10001001000100000000000000100010101010110011001000000010010001001100110101010100000001000110011011101111011101100000011 E
b100 R
b1011011101101010111100010111110010110101011000100110000101100011111111100010010110111111010100010011100011101011111010011000100 M
b1000 U
b100 V
b1100011 X
b1100111001010110110110001100011 Y
b1100011011001110010101101101100 W
1#
#70000
0#
b100000001010000011000000111 $
b100000001010000011000000111 *
b100000001010000011000000111 I
#75000
b1000100100010000000000000000000 .
b1000100100010000000000000000000 |
b1000100100010000000000000000000 }
08
b1 1
b1 D
b1 s
b1 z
10
b10 u
b1 <
b1 L
b1 d
b1 o
1Q
b101 R
b1100000101101010001111101001010001110100000010000101111111110111100010100010110111100000101001101011001011000110000010010010111 M
b10000 U
b101 V
b10011100 X
b1110101111101001100010010011100 Y
b10011100011101011111010011000100 W
1#
#80000
0#
b1000000010010000101000001011 $
b1000000010010000101000001011 *
b1000000010010000101000001011 I
#85000
b10001000000000000000000001000100 .
b10001000000000000000000001000100 |
b10001000000000000000000001000100 }
b10 1
b10 D
b10 s
b10 z
10
b11 u
b10 <
b10 L
b10 d
b10 o
b0 T
b0 R
b10000100010001111000101101011001101111100100001110100100101000100111101101010101010101001111000100100010001101100101000001100110 M
b1 P
b1000000010010000101000001011000000000000000000000000000000000000000000000000000000000000000000000000000000000000000000000000 O
b100000 U
b110 V
b1011001 X
b1100011000001001001011101011001 Y
b1011001011000110000010010010111 W
1#
#90000
0#
b1100000011010000111000001111 $
b1100000011010000111000001111 *
b1100000011010000111000001111 I
#95000
b100010010001000 .
b100010010001000 |
b100010010001000 }
b11 1
b11 D
b11 s
b11 z
10
b0 u
b11 w
b11 <
b11 L
b11 d
b11 o
b10 P
b1000000010010000101000001011000011000000110100001110000011110000000000000000000000000000000000000000000000000000000000000000 O
1#
#100000
0#
#105000
b10001001000100000000000 .
b10001001000100000000000 |
b10001001000100000000000 }
b11 ;
b11 r
b0 1
b0 D
b0 s
b0 z
00
b0 <
b0 L
b0 d
b0 o
b11 p
b11 P
b1000000010010000101000001011000011000000110100001110000011110000110000001101000011100000111100000000000000000000000000000000 O
1#
#110000
0#
#115000
b0 P
0Q
b1000000010010000101000001011000011000000110100001110000011110000110000001101000011100000111100001100000011010000111000001111 O
1#
#120000
0#
#125000
b1000010011011000001000001011 =
b1000010011011000001000001011 ?
b1000000010010000101000001011 2
b1000000010010000101000001011 A
b1000000010010000101000001011 S
b10 T
b1000000010010000101000001011000011000000110100001110000011110000110000001101000011100000111100001100000011010000111000001111 M
1#
#130000
0#
#135000
b1 R
b11011110101000100111110011110101110100101010111101110010111110101101111010100010011111001111010111010010101011110111001011111010 M
b1 U
b1 V
b1100 X
b1101000011100000111100001100 Y
b1100000011010000111000001111 W
1#
#140000
0#
#145000
b10 R
b10101100110101110111110010000000011111100111100000001110011110101010000011011010011100101000111101110010011101010000000001110101 M
b10 U
b10 V
b11010010 X
b10101111011100101111101011010010 Y
b11010010101011110111001011111010 W
1#
#150000
0#
#155000
b11 R
b10000011101101000101011111110101111111011100110001011001100011110101110100010110001010110000000000101111011000110010101101110101 M
b100 U
b11 V
b1110010 X
b1110101000000000111010101110010 Y
b1110010011101010000000001110101 W
1#
#160000
0#
#165000
b100 R
b1001111110000010111110001100000101100100000110100100101111011111110111100011011000011101110111111000000011110000010010110011010 M
b1000 U
b100 V
b101111 X
b1100011001010110111010100101111 Y
b101111011000110010101101110101 W
1#
#170000
0#
#175000
b101 R
b1010101111111100101010001011110111001111111001101110001101100010000100011101000011111110101111011001000100100000101101011000100 M
b10000 U
b101 V
b11000000 X
b1111000001001011001101011000000 Y
b11000000011110000010010110011010 W
1#
#180000
0#
#185000
b110 R
b1001011000111100011001101010100101011001110110101000010111001011010010000000101001111011011101101101100100101010110011101111111 M
b100000 U
b110 V
b11001000 X
b10010000010110101100010011001000 Y
b11001000100100000101101011000100 W
1#
#190000
0#
#195000
b111 R
b100000100010100100001110100000100011000110011100000001010001010010100001100010001111001111111001000100111101110101101110000001 M
b1000000 U
b111 V
b1101100 X
b10010101011001110111111101101100 Y
b1101100100101010110011101111111 W
1#
#200000
0#
#205000
b1000 R
b10100000111010111111000100011100001011001000110011110000010110010000010011101110110011001010011101000000000110011001011100100110 M
b10000000 U
b1000 V
b1000100 X
b11110111010110111000000101000100 Y
b1000100111101110101101110000001 W
1#
#210000
0#
#215000
b1001 R
b1101111011111110000011000110111010000111111001111110110011011100100011100011101001110101100100100000111000001001010110111101111 M
b11011 U
b1001 V
b1000000 X
b11001100101110010011001000000 Y
b1000000000110011001011100100110 W
1#
#220000
0#
#225000
b1010 R
b10101011011101000000011011110010111010001000011111110000100111001010111110011010110010100101010110101000100111100110011110111010 M
b110110 U
b1010 V
b111 X
b100101011011110111100000111 Y
b111000001001010110111101111 W
1#
#230000
0#
#235000
b11 T
1#
#240000
0#
#245000
b100 w
b0 T
19
1#
#250000
0#
#255000
b1100011000110111100010001100011 >
b1100011000110111100010001100011 B
b100 ;
b100 r
1,
b1 7
b1 t
b1 u
b100 p
b10 T
b0 R
b1000000010010000101000001011000011000000110100001110000011110000110000001101000011100000111100001100000011010000111000001111 M
1#
#260000
0#
#265000
b10000010111111001110111001111100 >
b10000010111111001110111001111100 B
b10001 `
b10001 a
b1000101000010100110111011111101 6
b1000101000010100110111011111101 _
b10000010111111001110111001111100 /
b10000010111111001110111001111100 c
b10001 ^
b1010101 ]
b10011001 \
b1 [
b11101010110001001011100001110 =
b11101010110001001011100001110 ?
b1010101100110010000000100010001 .
b1010101100110010000000100010001 |
b1010101100110010000000100010001 }
b1 5
b1 C
b1 x
b1 1
b1 D
b1 s
b1 z
b10 u
b1100000011010000111000001111 2
b1100000011010000111000001111 A
b1100000011010000111000001111 S
b10001010101011001100100000001 !
b10001010101011001100100000001 +
b10001010101011001100100000001 -
b10001010101011001100100000001 @
b10001010101011001100100000001 F
b10001010101011001100100000001 Z
b10001010101011001100100000001 b
b10001010101011001100100000001 {
b1 <
b1 L
b1 d
b1 o
b1100011000110111100010001100011000100010101010110011001000000010010001001100110101010100000001000110011011101111011101100000011 :
b1100011000110111100010001100011000100010101010110011001000000010010001001100110101010100000001000110011011101111011101100000011 E
b1 R
b11011110101000100111110011110101110100101010111101110010111110101101111010100010011111001111010111010010101011110111001011111010 M
b1 U
b1 V
b1100 X
b1101000011100000111100001100 Y
b1100000011010000111000001111 W
1#
#270000
0#
#275000
b10010011001100111010110001110111 >
b10010011001100111010110001110111 B
b100010 `
b100010 a
b1000110000010010000110110101110 6
b1000110000010010000110110101110 _
b10010011001100111010110001110111 /
b10010011001100111010110001110111 c
b100010 ^
b1100110 ]
b10101010 \
b10 [
b101110011010111010010000001101 =
b101110011010111010010000001101 ?
b10101010000000100010001001100110 .
b10101010000000100010001001100110 |
b10101010000000100010001001100110 }
b100010011001101010101000000010 !
b100010011001101010101000000010 +
b100010011001101010101000000010 -
b100010011001101010101000000010 @
b100010011001101010101000000010 F
b100010011001101010101000000010 Z
b100010011001101010101000000010 b
b100010011001101010101000000010 {
b10 5
b10 C
b10 x
b10 1
b10 D
b10 s
b10 z
b11 u
b1100011000110111100010001100011100000101111110011101110011111000010001001100110101010100000001000110011011101111011101100000011 :
b1100011000110111100010001100011100000101111110011101110011111000010001001100110101010100000001000110011011101111011101100000011 E
b10 <
b10 L
b10 d
b10 o
b10 R
b10101100110101110111110010000000011111100111100000001110011110101010000011011010011100101000111101110010011101010000000001110101 M
b10 U
b10 V
b11010010 X
b10101111011100101111101011010010 Y
b11010010101011110111001011111010 W
1#
#280000
0#
#285000
b11000011111101011110101001111011 >
b11000011111101011110101001111011 B
b110011 `
b110011 a
b1000111000010000010110010011111 6
b1000111000010000010110010011111 _
b11000011111101011110101001111011 /
b11000011111101011110101001111011 c
b110011 ^
b1110111 ]
b10111011 \
b11 [
b111111011110101011010100001100 =
b111111011110101011010100001100 ?
b11001100110111011110111011 .
b11001100110111011110111011 |
b11001100110111011110111011 }
b11 5
b11 C
b11 x
b11 1
b11 D
b11 s
b11 z
b0 u
b101 w
b110011011101111011101100000011 !
b110011011101111011101100000011 +
b110011011101111011101100000011 -
b110011011101111011101100000011 @
b110011011101111011101100000011 F
b110011011101111011101100000011 Z
b110011011101111011101100000011 b
b110011011101111011101100000011 {
b11 <
b11 L
b11 d
b11 o
b1100011000110111100010001100011100000101111110011101110011111001001001100110011101011000111011100110011011101111011101100000011 :
b1100011000110111100010001100011100000101111110011101110011111001001001100110011101011000111011100110011011101111011101100000011 E
b11 R
b10000011101101000101011111110101111111011100110001011001100011110101110100010110001010110000000000101111011000110010101101110101 M
b100 U
b11 V
b1110010 X
b1110101000000000111010101110010 Y
b1110010011101010000000001110101 W
1#
#290000
0#
#295000
b1100011 `
b1100011 a
b1001100011000010100111010111100 6
b1001100011000010100111010111100 _
b11111011101011110001110011111011 /
b11111011101011110001110011111011 c
b1100011 ^
b11011 ]
b11000100 \
b1100011 [
b1101011000100101100111001101000 =
b1101011000100101100111001101000 ?
b1100011000110111100010001100011 >
b1100011000110111100010001100011 B
b1100011000110111100010001100011 .
b1100011000110111100010001100011 |
b1100011000110111100010001100011 }
b1100011000110111100010001100011 !
b1100011000110111100010001100011 +
b1100011000110111100010001100011 -
b1100011000110111100010001100011 @
b1100011000110111100010001100011 F
b1100011000110111100010001100011 Z
b1100011000110111100010001100011 b
b1100011000110111100010001100011 {
b1000000010010000101000001011 2
b1000000010010000101000001011 A
b1000000010010000101000001011 S
b101 ;
b101 r
b10 7
b10 t
b0 5
b0 C
b0 x
b0 1
b0 D
b0 s
b0 z
b1 u
b1100011000110111100010001100011100000101111110011101110011111001001001100110011101011000111011111000011111101011110101001111011 :
b1100011000110111100010001100011100000101111110011101110011111001001001100110011101011000111011111000011111101011110101001111011 E
b0 <
b0 L
b0 d
b0 o
b101 p
b100 R
b1001111110000010111110001100000101100100000110100100101111011111110111100011011000011101110111111000000011110000010010110011010 M
b1000 U
b100 V
b101111 X
b1100011001010110111010100101111 Y
b101111011000110010101101110101 W
1#
#300000
0#
#305000
b10000010 `
b10000010 a
b10010010001101000011110101110111 6
b10010010001101000011110101110111 _
b10011101100000010100000010000 /
b10011101100000010100000010000 c
b10000010 ^
b11111100 ]
b11101110 \
b1111100 [
b11111100111011100111110010000010 >
b11111100111011100111110010000010 B
b10000010111111001110111001111100 !
b10000010111111001110111001111100 +
b10000010111111001110111001111100 -
b10000010111111001110111001111100 @
b10000010111111001110111001111100 F
b10000010111111001110111001111100 Z
b10000010111111001110111001111100 b
b10000010111111001110111001111100 {
b11111100111011100111110010000010 .
b11111100111011100111110010000010 |
b11111100111011100111110010000010 }
b10001110111100011110000001110011 =
b10001110111100011110000001110011 ?
b1 5
b1 C
b1 x
b1 1
b1 D
b1 s
b1 z
b10 u
b1100000011010000111000001111 2
b1100000011010000111000001111 A
b1100000011010000111000001111 S
b1 <
b1 L
b1 d
b1 o
b101 R
b1010101111111100101010001011110111001111111001101110001101100010000100011101000011111110101111011001000100100000101101011000100 M
b10000 U
b101 V
b11000000 X
b1111000001001011001101011000000 Y
b11000000011110000010010110011010 W
1#
#310000
0#
#315000
b10010011 `
b10010011 a
b10110011011011010111101011011111 6
b10110011011011010111101011011111 _
b11011100110000111001000111110101 /
b11011100110000111001000111110101 c
b10101100011101111001001100110011 >
b10101100011101111001001100110011 B
b10010011 ^
b110011 ]
b10101100 \
b1110111 [
b10011111001111101010001001111000 =
b10011111001111101010001001111000 ?
b10101100011101111001001100110011 .
b10101100011101111001001100110011 |
b10101100011101111001001100110011 }
b10010011001100111010110001110111 !
b10010011001100111010110001110111 +
b10010011001100111010110001110111 -
b10010011001100111010110001110111 @
b10010011001100111010110001110111 F
b10010011001100111010110001110111 Z
b10010011001100111010110001110111 b
b10010011001100111010110001110111 {
b10 5
b10 C
b10 x
b10 1
b10 D
b10 s
b10 z
b11 u
b1100011000110111100010001100011111111001110111001111100100000101001001100110011101011000111011111000011111101011110101001111011 :
b1100011000110111100010001100011111111001110111001111100100000101001001100110011101011000111011111000011111101011110101001111011 E
b10 <
b10 L
b10 d
b10 o
b110 R
b1001011000111100011001101010100101011001110110101000010111001011010010000000101001111011011101101101100100101010110011101111111 M
b100000 U
b110 V
b11001000 X
b10010000010110101100010011001000 Y
b11001000100100000101101011000100 W
1#
#320000
0#
#325000
b11000011 `
b11000011 a
b1000011011000111010010110111 6
b1000011011000111010010110111 _
b101110111001101000011100100001 /
b101110111001101000011100100001 c
b1111011110000111111010111101010 >
b1111011110000111111010111101010 B
b11000011 ^
b11110101 ]
b11101010 \
b1111011 [
b11001111111110001110010001110100 =
b11001111111110001110010001110100 ?
b1111011110000111111010111101010 .
b1111011110000111111010111101010 |
b1111011110000111111010111101010 }
b11 5
b11 C
b11 x
b11 1
b11 D
b11 s
b11 z
b0 u
b110 w
b11000011111101011110101001111011 !
b11000011111101011110101001111011 +
b11000011111101011110101001111011 -
b11000011111101011110101001111011 @
b11000011111101011110101001111011 F
b11000011111101011110101001111011 Z
b11000011111101011110101001111011 b
b11000011111101011110101001111011 {
b11 <
b11 L
b11 d
b11 o
b1100011000110111100010001100011111111001110111001111100100000101010110001110111100100110011001111000011111101011110101001111011 :
b1100011000110111100010001100011111111001110111001111100100000101010110001110111100100110011001111000011111101011110101001111011 E
b111 R
b100000100010100100001110100000100011000110011100000001010001010010100001100010001111001111111001000100111101110101101110000001 M
b1000000 U
b111 V
b1101100 X
b10010101011001110111111101101100 Y
b1101100100101010110011101111111 W
1#
#330000
0#
#335000
b1110000101000101000100000011 6
b1110000101000101000100000011 _
b1100011 `
b1100011 a
b11111011101100001001000100100001 /
b11111011101100001001000100100001 c
b1100011 ^
b11111100 ]
b10101100 \
b1101011111101011010011001110000 =
b1101011111101011010011001110000 ?
b1110000101000101000100000011 >
b1110000101000101000100000011 B
b1100011111111001010110001111011 .
b1100011111111001010110001111011 |
b1100011111111001010110001111011 }
b1100011111111001010110001111011 !
b1100011111111001010110001111011 +
b1100011111111001010110001111011 -
b1100011111111001010110001111011 @
b1100011111111001010110001111011 F
b1100011111111001010110001111011 Z
b1100011111111001010110001111011 b
b1100011111111001010110001111011 {
b1000000010010000101000001011 2
b1000000010010000101000001011 A
b1000000010010000101000001011 S
b110 ;
b110 r
14
10
b11 7
b11 t
b0 5
b0 C
b0 x
b0 1
b0 D
b0 s
b0 z
b1 u
b1100011000110111100010001100011111111001110111001111100100000101010110001110111100100110011001101111011110000111111010111101010 :
b1100011000110111100010001100011111111001110111001111100100000101010110001110111100100110011001101111011110000111111010111101010 E
b0 <
b0 L
b0 d
b0 o
b110 p
b1000 R
b10100000111010111111000100011100001011001000110011110000010110010000010011101110110011001010011101000000000110011001011100100110 M
b10000000 U
b1000 V
b1000100 X
b11110111010110111000000101000100 Y
b1000100111101110101101110000001 W
1#
#340000
0#
#345000
b10101011100001100100010100101001 >
b10101011100001100100010100101001 B
b11011 `
b11011 a
b10101011100001100100010100101001 6
b10101011100001100100010100101001 _
b10101111001010001111010100101110 /
b10101111001010001111010100101110 c
b11011 ^
b11101110 ]
b1110111 \
b11000011 [
b10111111000110111100111001100 =
b10111111000110111100111001100 ?
b11101110011101111100001100011011 .
b11101110011101111100001100011011 |
b11101110011101111100001100011011 }
b1 5
b1 C
b1 x
b1 1
b1 D
b1 s
b1 z
14
10
b10 u
b1100000011010000111000001111 2
b1100000011010000111000001111 A
b1100000011010000111000001111 S
b11011111011100111011111000011 !
b11011111011100111011111000011 +
b11011111011100111011111000011 -
b11011111011100111011111000011 @
b11011111011100111011111000011 F
b11011111011100111011111000011 Z
b11011111011100111011111000011 b
b11011111011100111011111000011 {
b1 <
b1 L
b1 d
b1 o
b1110000110111100010001100011000101001110111001111100100000100101000101110111100100110011001100000011110000111111010111101010 :
b1110000110111100010001100011000101001110111001111100100000100101000101110111100100110011001100000011110000111111010111101010 E
b1001 R
b1101111011111110000011000110111010000111111001111110110011011100100011100011101001110101100100100000111000001001010110111101111 M
b11011 U
b1001 V
b1000000 X
b11001100101110010011001000000 Y
b1000000000110011001011100100110 W
1#
#350000
0#
#355000
b1110001011001111000000101001001 >
b1110001011001111000000101001001 B
b11000100 `
b11000100 a
b1110001011001111000000101001001 6
b1110001011001111000000101001001 _
b11100000100001101110011100110 /
b11100000100001101110011100110 c
b11000100 ^
b1111100 ]
b10010011 \
b11110101 [
b11001000011100011001110111111010 =
b11001000011100011001110111111010 ?
b10010011111101011100010001111100 .
b10010011111101011100010001111100 |
b10010011111101011100010001111100 }
b11000100011111001001001111110101 !
b11000100011111001001001111110101 +
b11000100011111001001001111110101 -
b11000100011111001001001111110101 @
b11000100011111001001001111110101 F
b11000100011111001001001111110101 Z
b11000100011111001001001111110101 b
b11000100011111001001001111110101 {
b10 5
b10 C
b10 x
14
b10 1
b10 D
b10 s
b10 z
10
b11 u
b1110101010111100010001100011000101001000011001111100100000100101000101000101100100110011001100000011001010011111010111101010 :
b1110101010111100010001100011000101001000011001111100100000100101000101000101100100110011001100000011001010011111010111101010 E
b10 <
b10 L
b10 d
b10 o
b1010 R
b10101011011101000000011011110010111010001000011111110000100111001010111110011010110010100101010110101000100111100110011110111010 M
b110110 U
b1010 V
b111 X
b100101011011110111100000111 Y
b111000001001010110111101111 W
1#
#360000
0#
#365000
b10000010110000111010001011011011 >
b10000010110000111010001011011011 B
b1100011 `
b1100011 a
b10000010110000111010001011011011 6
b10000010110000111010001011011011 _
b11111011000100111100001110000111 /
b11111011000100111100001110000111 c
b1100011 ^
b10000010 ]
b110011 \
b11101010 [
b1101111100011110011110111100101 =
b1101111100011110011110111100101 ?
b11101010011000111000001000110011 .
b11101010011000111000001000110011 |
b11101010011000111000001000110011 }
b11 5
b11 C
b11 x
14
b11 1
b11 D
b11 s
b11 z
10
b0 u
b111 w
b1100011100000100011001111101010 !
b1100011100000100011001111101010 +
b1100011100000100011001111101010 -
b1100011100000100011001111101010 @
b1100011100000100011001111101010 F
b1100011100000100011001111101010 Z
b1100011100000100011001111101010 b
b1100011100000100011001111101010 {
b11 <
b11 L
b11 d
b11 o
b1110101010110111000101100011000101001000011001100111100000100101000101000101100000010011001100000011001010010100100111101010 :
b1110101010110111000101100011000101001000011001100111100000100101000101000101100000010011001100000011001010010100100111101010 E
b11 T
1#
#370000
0#
#375000
b1110 `
b1110 a
b1110010110101101011110101010001 6
b1110010110101101011110101010001 _
b10101011111110101101000101111011 /
b10101011111110101101000101111011 c
b1110 ^
b10100 ]
b1010001 \
b11 [
b110000111010101101100001000 =
b110000111010101101100001000 ?
b1000000010010000101000001011 >
b1000000010010000101000001011 B
b1110000101000101000100000011 .
b1110000101000101000100000011 |
b1110000101000101000100000011 }
b1110000101000101000100000011 !
b1110000101000101000100000011 +
b1110000101000101000100000011 -
b1110000101000101000100000011 @
b1110000101000101000100000011 F
b1110000101000101000100000011 Z
b1110000101000101000100000011 b
b1110000101000101000100000011 {
b1000000010010000101000001011 2
b1000000010010000101000001011 A
b1000000010010000101000001011 S
b111 ;
b111 r
b100 7
b100 t
b0 5
b0 C
b0 x
14
b0 1
b0 D
b0 s
b0 z
10
b1 u
b1110101010110111000110000010000101001000011001100111110000110101000101000101100000011010001000000011001010010100100111011011 :
b1110101010110111000110000010000101001000011001100111110000110101000101000101100000011010001000000011001010010100100111011011 E
b0 <
b0 L
b0 d
b0 o
b111 p
b0 T
1#
#380000
0#
