veriloged/aes_tb.vcd
$date
	Thu Sep 25 14:48:24 2025
$end
$version
	Icarus Verilog
$end
$timescale
	1ps
$end
$scope module aes_tb $end
$var wire 128 ! matrix_state [127:0] $end
$var wire 32 " dword_out [31:0] $end
$var wire 1 # done $end
$var reg 128 $ ciphertext [127:0] $end
$var reg 1 % clk $end
$var reg 32 & cycles [31:0] $end
$var reg 32 ' dword_in [31:0] $end
$var reg 128 ( key [127:0] $end
$var reg 128 ) plaintext [127:0] $end
$var reg 1 * reset_n $end
$var reg 1 + start_n $end
$var reg 1 , start_read_n $end
$var integer 32 - matrix_file [31:0] $end
$scope module uut $end
$var wire 1 % clk $end
$var wire 32 . dword_in [31:0] $end
$var wire 32 / dword_out [31:0] $end
$var wire 1 * reset_n $end
$var wire 1 + start_n $end
$var wire 1 , start_read_n $end
$var wire 1 0 write_enable $end
$var wire 32 1 state_word [31:0] $end
$var wire 32 2 shifted_row [31:0] $end
$var wire 32 3 sbox_out [31:0] $end
$var wire 1 4 row_col_sel $end
$var wire 2 5 row_col_index [1:0] $end
$var wire 32 6 round_key [31:0] $end
$var wire 4 7 round_index [3:0] $end
$var wire 1 8 output_mat_row_col $end
$var wire 2 9 output_mat_idx [1:0] $end
$var wire 32 : mixed_col [31:0] $end
$var wire 4 ; matrix_in_sel [3:0] $end
$var wire 1 < key_start $end
$var wire 1 = key_done $end
$var wire 1 # done $end
$var wire 128 > dbg_state [127:0] $end
$var wire 6 ? current_state [5:0] $end
$var wire 2 @ count_4 [1:0] $end
$var wire 32 A ark_out [31:0] $end
$var reg 32 B dmatrix_in [31:0] $end
$scope module ark $end
$var wire 32 C state_out [31:0] $end
$var wire 32 D state_in [31:0] $end
$var wire 32 E round_key [31:0] $end
$upscope $end
$scope module datamatrix $end
$var wire 1 % clk $end
$var wire 32 F col_in [31:0] $end
$var wire 1 * reset_n $end
$var wire 1 0 write_enable $end
$var wire 1 8 output_row_col $end
$var wire 2 G output_idx [1:0] $end
$var wire 1 4 input_row_col $end
$var wire 2 H input_idx [1:0] $end
$var wire 128 I debug_state [127:0] $end
$var reg 32 J out [31:0] $end
$var integer 32 K i [31:0] $end
$upscope $end
$scope module ke $end
$var wire 32 L cipher_key [31:0] $end
$var wire 1 % clk $end
$var wire 1 M reset $end
$var wire 1 < start $end
$var wire 4 N round_key_num [3:0] $end
$var wire 2 O r_index [1:0] $end
$var parameter 2 P DONE $end
$var parameter 2 Q EXPAND $end
$var parameter 2 R IDLE $end
$var parameter 2 S LOAD $end
$var reg 32 T after_rot [31:0] $end
$var reg 32 U after_sub_rcon [31:0] $end
$var reg 128 V current_key [127:0] $end
$var reg 1 = done $end
$var reg 128 W key_reg [127:0] $end
$var reg 2 X load_count [1:0] $end
$var reg 1 Y loading $end
$var reg 32 Z new_word [31:0] $end
$var reg 6 [ round_ctr [5:0] $end
$var reg 32 \ round_key [31:0] $end
$var reg 2 ] state [1:0] $end
$var reg 32 ^ temp [31:0] $end
$var integer 32 _ r [31:0] $end
$scope function get_word $end
$var reg 2 ` index [1:0] $end
$var reg 128 a key [127:0] $end
$upscope $end
$scope function next_word $end
$var reg 6 b i [5:0] $end
$var reg 32 c prev_word [31:0] $end
$var reg 4 d round_num [3:0] $end
$var reg 32 e tempx [31:0] $end
$var reg 32 f wordNk [31:0] $end
$upscope $end
$scope function rcon $end
$var reg 4 g i [3:0] $end
$var reg 8 h rc [7:0] $end
$upscope $end
$scope function rot_word $end
$var reg 32 i w [31:0] $end
$upscope $end
$scope function sbox_lookup $end
$var reg 8 j byte_in [7:0] $end
$upscope $end
$scope function sub_word $end
$var reg 32 k tmp [31:0] $end
$var reg 32 l w [31:0] $end
$upscope $end
$upscope $end
$scope module mc $end
$var wire 32 m col_in [31:0] $end
$var wire 8 n s3 [7:0] $end
$var wire 8 o s2 [7:0] $end
$var wire 8 p s1 [7:0] $end
$var wire 8 q s0 [7:0] $end
$var wire 32 r col_out [31:0] $end
$scope function mul_by_3 $end
$var reg 8 s byte_in [7:0] $end
$upscope $end
$scope function xtime $end
$var reg 8 t byte_in [7:0] $end
$upscope $end
$upscope $end
$scope module sb $end
$var wire 32 u row_in [31:0] $end
$var wire 32 v row_out [31:0] $end
$scope function sbox_lookup $end
$var reg 8 w byte_in [7:0] $end
$upscope $end
$upscope $end
$scope module sm $end
$var wire 1 % clock $end
$var wire 2 x count_4_out [1:0] $end
$var wire 1 = key_expand_done $end
$var wire 1 * reset_n $end
$var wire 1 , start_read_n $end
$var wire 1 + start_write_n $end
$var parameter 6 y ADDROUNDKEY $end
$var parameter 6 z COMPUTE_ROUNDKEYS $end
$var parameter 6 { CTEXT_READ $end
$var parameter 6 | ENCRYPTION_DONE $end
$var parameter 6 } IDLE $end
$var parameter 6 ~ INIT_ADDROUNDKEY $end
$var parameter 6 !" KEY_WRITE $end
$var parameter 6 "" MIXCOLUMNS $end
$var parameter 4 #" NUM_ROUNDS $end
$var parameter 6 $" PTEXT_WRITE $end
$var parameter 6 %" SHIFTROWS $end
$var parameter 6 &" SUBBYTES $end
$var reg 2 '" count_4 [1:0] $end
$var reg 6 (" current_state [5:0] $end
$var reg 4 )" dbg_round [3:0] $end
$var reg 6 *" dbg_state [5:0] $end
$var reg 1 # done $end
$var reg 2 +" input_mat_idx [1:0] $end
$var reg 1 4 input_mat_row_col $end
$var reg 1 < key_start $end
$var reg 4 ," matrix_in_sel [3:0] $end
$var reg 1 0 matrix_write_enable $end
$var reg 2 -" next_count_4 [1:0] $end
$var reg 4 ." next_round_counter [3:0] $end
$var reg 6 /" next_state [5:0] $end
$var reg 2 0" output_mat_idx [1:0] $end
$var reg 1 8 output_mat_row_col $end
$var reg 4 1" round_counter [3:0] $end
$upscope $end
$scope module sr $end
$var wire 2 2" idx_row [1:0] $end
$var wire 32 3" row_in [31:0] $end
$var wire 32 4" row_out [31:0] $end
$var reg 32 5" row_out_reg [31:0] $end
$upscope $end
$upscope $end
$scope task printMatrix $end
$var reg 32 6" cycle [31:0] $end
$var reg 128 7" matrix_state [127:0] $end
$upscope $end
$upscope $end
$enddefinitions $end
$comment Show the parameter values. $end
$dumpall
b100 &"
b101 %"
b1 $"
b1010 #"
b110 ""
b10 !"
b1010 ~
b0 }
b1000 |
b1001 {
b11 z
b111 y
b1 S
b0 R
b10 Q
b11 P
$end
#0
$dumpvars
bx 7"
bx 6"
b0 5"
b0 4"
b0 3"
b0 2"
b0 1"
b0 0"
b0 /"
b0 ."
b0 -"
b0 ,"
b0 +"
b0 *"
b0 )"
b0 ("
b0 '"
b0 x
b0 w
b1100011011000110110001101100011 v
b0 u
b0 t
b0 s
b0 r
b0 q
b0 p
b0 o
b0 n
b0 m
bx l
bx k
bx j
bx i
bx h
bx g
bx f
bx e
bx d
bx c
bx b
bx a
bx `
bx _
bx ^
b0 ]
bx \
b0 [
bx Z
0Y
b0 X
b0 W
bx V
bx U
bx T
b0 O
b0 N
1M
b0 L
b10000 K
b0 J
b0 I
b0 H
b0 G
b0 F
bx E
b0 D
bx C
b0 B
bx A
b0 @
b0 ?
b0 >
0=
0<
b0 ;
b0 :
b0 9
08
b0 7
bx 6
b0 5
04
b1100011011000110110001101100011 3
b0 2
b0 1
00
b0 /
b0 .
b10000000000000000000000000000011 -
1,
1+
0*
b110010010000111111011010101000100010000101101000110000100011010011000100110001100110001010001011100000001101110000011100110100 )
b101011011111100001010100010110001010001010111011010010101001101010101111110111000101011000100000001001110011110100111100111100 (
b0 '
b0 &
0%
b0 $
0#
b0 "
b0 !
$end
#5000
b10000 K
1%
#10000
0%
#15000
b10000 K
1%
#20000
b110010010000111111011010101000 B
b110010010000111111011010101000 F
b1 /"
0%
b110010010000111111011010101000 '
b110010010000111111011010101000 .
b110010010000111111011010101000 L
0+
0M
1*
#25000
b1 ?
b1 *"
14
10
b1 -"
b1 ("
1%
#30000
b1 -"
0%
1+
#35000
b1100100001100100011001001010110 :
b1100100001100100011001001010110 r
b110010 t
b110010 s
b100011011000110110001101100011 3
b100011011000110110001101100011 v
b110010 w
b110010 q
b110010 2
b110010 4"
b110010 5"
b1 5
b1 H
b1 +"
b1 2"
14
b10 -"
b110010000000000000000000000000 "
b110010000000000000000000000000 /
b110010000000000000000000000000 1
b110010000000000000000000000000 D
b110010000000000000000000000000 J
b110010000000000000000000000000 m
b110010000000000000000000000000 u
b110010000000000000000000000000 3"
b1 @
b1 O
b1 x
b1 '"
b110010010000111111011010101000000000000000000000000000000000000000000000000000000000000000000000000000000000000000000000000000 !
b110010010000111111011010101000000000000000000000000000000000000000000000000000000000000000000000000000000000000000000000000000 >
b110010010000111111011010101000000000000000000000000000000000000000000000000000000000000000000000000000000000000000000000000000 I
1%
#40000
b10001000010110100011000010001101 B
b10001000010110100011000010001101 F
0%
b10001000010110100011000010001101 '
b10001000010110100011000010001101 .
b10001000010110100011000010001101 L
#45000
b11100111001110011011101011011110 :
b11100111001110011011101011011110 r
b10001000 s
b10001000 t
b100011110001000110001101100011 3
b100011110001000110001101100011 v
b10001000 w
b10001000 p
b11001010001000 2
b11001010001000 4"
b11001010001000 5"
b110010100010000000000000000000 "
b110010100010000000000000000000 /
b110010100010000000000000000000 1
b110010100010000000000000000000 D
b110010100010000000000000000000 J
b110010100010000000000000000000 m
b110010100010000000000000000000 u
b110010100010000000000000000000 3"
b10 5
b10 H
b10 +"
b10 2"
14
b11 -"
b110010010000111111011010101000100010000101101000110000100011010000000000000000000000000000000000000000000000000000000000000000 !
b110010010000111111011010101000100010000101101000110000100011010000000000000000000000000000000000000000000000000000000000000000 >
b110010010000111111011010101000100010000101101000110000100011010000000000000000000000000000000000000000000000000000000000000000 I
b10 @
b10 O
b10 x
b10 '"
1%
#50000
b110001001100011001100010100010 B
b110001001100011001100010100010 F
0%
b110001001100011001100010100010 '
b110001001100011001100010100010 .
b110001001100011001100010100010 L
#55000
b11010110011010101101100011101111 :
b11010110011010101101100011101111 r
b110001 s
b110001 t
b100011110001001100011101100011 3
b100011110001001100011101100011 v
b110001 w
b110001 o
b1100101000100000110001 2
b1100101000100000110001 4"
b1100101000100000110001 5"
1<
b11 5
b11 H
b11 +"
b11 2"
14
b0 -"
b10 /"
b110010100010000011000100000000 "
b110010100010000011000100000000 /
b110010100010000011000100000000 1
b110010100010000011000100000000 D
b110010100010000011000100000000 J
b110010100010000011000100000000 m
b110010100010000011000100000000 u
b110010100010000011000100000000 3"
b11 @
b11 O
b11 x
b11 '"
b110010010000111111011010101000100010000101101000110000100011010011000100110001100110001010001000000000000000000000000000000000 !
b110010010000111111011010101000100010000101101000110000100011010011000100110001100110001010001000000000000000000000000000000000 >
b110010010000111111011010101000100010000101101000110000100011010011000100110001100110001010001000000000000000000000000000000000 I
1%
#60000
b11100000001101110000011100110100 B
b11100000001101110000011100110100 F
0%
b11100000001101110000011100110100 '
b11100000001101110000011100110100 .
b11100000001101110000011100110100 L
#65000
b11100000 s
b11100000 t
b110110100010101110001100110100 :
b110110100010101110001100110100 r
b100011110001001100011111100001 3
b100011110001001100011111100001 v
b11100000 w
b11100000 n
bx B
bx F
b110010100010000011000111100000 2
b110010100010000011000111100000 4"
b110010100010000011000111100000 5"
b110010100010000011000111100000 "
b110010100010000011000111100000 /
b110010100010000011000111100000 1
b110010100010000011000111100000 D
b110010100010000011000111100000 J
b110010100010000011000111100000 m
b110010100010000011000111100000 u
b110010100010000011000111100000 3"
0<
b10 ?
b10 *"
00
bx ;
bx ,"
b0 5
b0 H
b0 +"
b0 2"
04
b1 -"
b110010010000111111011010101000100010000101101000110000100011010011000100110001100110001010001011100000001101110000011100110100 !
b110010010000111111011010101000100010000101101000110000100011010011000100110001100110001010001011100000001101110000011100110100 >
b110010010000111111011010101000100010000101101000110000100011010011000100110001100110001010001011100000001101110000011100110100 I
b0 @
b0 O
b0 x
b0 '"
b10 ("
b1 ]
1Y
1%
#70000
0%
b101011011111100001010100010110 '
b101011011111100001010100010110 .
b101011011111100001010100010110 L
#75000
b10001000001100011110000000110010 2
b10001000001100011110000000110010 4"
b10001000001100011110000000110010 5"
b1 5
b1 H
b1 +"
b1 2"
b10 -"
b1 @
b1 O
b1 x
b1 '"
b1 X
b101011011111100001010100010110000000000000000000000000000000000000000000000000000000000000000000000000000000000000000000000000 W
1%
#80000
0%
b101000101011101101001010100110 '
b101000101011101101001010100110 .
b101000101011101101001010100110 L
#85000
b110001111000000011001010001000 2
b110001111000000011001010001000 4"
b110001111000000011001010001000 5"
b10 5
b10 H
b10 +"
b10 2"
b11 -"
b10 @
b10 O
b10 x
b10 '"
b10 X
b101011011111100001010100010110001010001010111011010010101001100000000000000000000000000000000000000000000000000000000000000000 W
1%
#90000
0%
b10101011111101110001010110001000 '
b10101011111101110001010110001000 .
b10101011111101110001010110001000 L
#95000
b11100000001100101000100000110001 2
b11100000001100101000100000110001 4"
b11100000001100101000100000110001 5"
b11 5
b11 H
b11 +"
b11 2"
b0 -"
b11 /"
b11 @
b11 O
b11 x
b11 '"
b11 X
b101011011111100001010100010110001010001010111011010010101001101010101111110111000101011000100000000000000000000000000000000000 W
1%
#100000
0%
b1001110011110100111100111100 '
b1001110011110100111100111100 .
b1001110011110100111100111100 L
#105000
b110010100010000011000111100000 2
b110010100010000011000111100000 4"
b110010100010000011000111100000 5"
b11 ?
b11 *"
b0 5
b0 H
b0 +"
b0 2"
b0 @
b0 O
b0 x
b0 '"
b11 ("
b0 X
0Y
b101011011111100001010100010110001010001010111011010010101001101010101111110111000101011000100000001001110011110100111100111100 W
1%
#110000
0%
b1 &
b0 6"
b110010010000111111011010101000100010000101101000110000100011010011000100110001100110001010001011100000001101110000011100110100 7"
#115000
b11001111101100010010011110110 A
b11001111101100010010011110110 C
b101011011111100001010100010110 6
b101011011111100001010100010110 E
b101011011111100001010100010110 \
b10 ]
b100 [
b101011011111100001010100010110001010001010111011010010101001101010101111110111000101011000100000001001110011110100111100111100 V
1%
#120000
0%
b10 &
b1 6"
#125000
b101 [
b10100000111110101111111000010111 Z
b10001011100001001110101100000001 U
b1 h
b1 g
b10001010100001001110101100000001 k
b1001 j
b11001111010011110011110000001001 l
b11001111010011110011110000001001 T
b1001110011110100111100111100 i
b1001110011110100111100111100 ^
1%
#130000
0%
b11 &
b10 6"
#135000
b110 [
b11100000001011011011101111110000 k
b10111 j
b10100000111110101111111000010111 l
b10001000010101000010110010110001 Z
b10100000111110101111111000010111 U
b10100000111110101111111000010111 T
b10100000111110101111111000010111 ^
1%
#140000
0%
b100 &
b11 6"
#145000
b111 [
b11000100001000000111000111001000 k
b10110001 j
b10001000010101000010110010110001 l
b100011101000110011100100111001 Z
b10001000010101000010110010110001 U
b10001000010101000010110010110001 T
b10001000010101000010110010110001 ^
1%
#150000
0%
b101 &
b100 6"
#155000
b1000 [
b100110000010100001001000010010 k
b111001 j
b100011101000110011100100111001 l
b101010011011000111011000000101 Z
b100011101000110011100100111001 U
b100011101000110011100100111001 T
b100011101000110011100100111001 ^
1%
#160000
0%
b110 &
b101 6"
#165000
b1001 [
b11110010110000101001010111110010 Z
b1010010001110000110101111100101 U
b10 h
b10 g
b1010000001110000110101111100101 k
b101010 j
b1101100011101100000010100101010 l
b1101100011101100000010100101010 T
b101010011011000111011000000101 i
b101010011011000111011000000101 ^
1%
#170000
0%
b111 &
b110 6"
#175000
b1010 [
b10001001001001010010101010001001 k
b11110010 j
b11110010110000101001010111110010 l
b1111010100101101011100101000011 Z
b11110010110000101001010111110010 U
b11110010110000101001010111110010 T
b11110010110000101001010111110010 ^
1%
#180000
0%
b1000 &
b111 6"
#185000
b1011 [
b11011010100100000101011000011010 k
b1000011 j
b1111010100101101011100101000011 l
b1011001001101011000000001111010 Z
b1111010100101101011100101000011 U
b1111010100101101011100101000011 T
b1111010100101101011100101000011 ^
1%
#190000
0%
b1001 &
b1000 6"
#195000
b1100 [
b11001011100101101100110111011010 k
b1111010 j
b1011001001101011000000001111010 l
b1110011010110011111011001111111 Z
b1011001001101011000000001111010 U
b1011001001101011000000001111010 T
b1011001001101011000000001111010 ^
1%
#200000
0%
b1010 &
b1001 6"
#205000
b1101 [
b111101100000000100011101111101 Z
b11001111010000101101001010001111 U
b100 h
b11 g
b11001011010000101101001010001111 k
b1110011 j
b1011001111101100111111101110011 l
b1011001111101100111111101110011 T
b1110011010110011111011001111111 i
b1110011010110011111011001111111 ^
1%
#210000
0%
b1011 &
b1010 6"
#215000
b1110 [
b100111110011011010000011111111 k
b1111101 j
b111101100000000100011101111101 l
b1000111000101101111111000111110 Z
b111101100000000100011101111101 U
b111101100000000100011101111101 T
b111101100000000100011101111101 ^
1%
#220000
0%
b1100 &
b1011 6"
#225000
b1111 [
b10100000010001111011101110110010 k
b111110 j
b1000111000101101111111000111110 l
b11110001000110111111001000100 Z
b1000111000101101111111000111110 U
b1000111000101101111111000111110 T
b1000111000101101111111000111110 ^
1%
#230000
0%
b1101 &
b1100 6"
#235000
b10000 [
b1110010001001101111001100011011 k
b1000100 j
b11110001000110111111001000100 l
b1101101011110101000100000111011 Z
b11110001000110111111001000100 U
b11110001000110111111001000100 T
b11110001000110111111001000100 ^
1%
#240000
0%
b1110 &
b1101 6"
#245000
b10001 [
b11101111010001001010010101000001 Z
b11010010110001001110001000111100 U
b1000 h
b100 g
b11011010110001001110001000111100 k
b1101101 j
b1111010100010000011101101101101 l
b1111010100010000011101101101101 T
b1101101011110101000100000111011 i
b1101101011110101000100000111011 ^
1%
#250000
0%
b1111 &
b1110 6"
#255000
b10010 [
b11011111000110110000011010000011 k
b1000001 j
b11101111010001001010010101000001 l
b10101000010100100101101101111111 Z
b11101111010001001010010101000001 U
b11101111010001001010010101000001 T
b11101111010001001010010101000001 ^
1%
#260000
0%
b10000 &
b1111 6"
#265000
b10011 [
b11000010000000000011100111010010 k
b1111111 j
b10101000010100100101101101111111 l
b10110110011100010010010100111011 Z
b10101000010100100101101101111111 U
b10101000010100100101101101111111 T
b10101000010100100101101101111111 ^
1%
#270000
0%
b10001 &
b10000 6"
#275000
b10100 [
b1001110101000110011111111100010 k
b111011 j
b10110110011100010010010100111011 l
b11011011000010111010110100000000 Z
b10110110011100010010010100111011 U
b10110110011100010010010100111011 T
b10110110011100010010010100111011 ^
1%
#280000
0%
b10010 &
b10001 6"
#285000
b10101 [
b11010100110100011100011011111000 Z
b111011100101010110001110111001 U
b10000 h
b101 g
b101011100101010110001110111001 k
b11011011 j
b1011101011010000000011011011 l
b1011101011010000000011011011 T
b11011011000010111010110100000000 i
b11011011000010111010110100000000 ^
1%
#290000
0%
b10011 &
b10010 6"
#295000
b10110 [
b1001000001111101011010001000001 k
b11111000 j
b11010100110100011100011011111000 l
b1111100100000111001110110000111 Z
b11010100110100011100011011111000 U
b11010100110100011100011011111000 T
b11010100110100011100011011111000 ^
1%
#300000
0%
b10100 &
b10011 6"
#305000
b10111 [
b10000111011000101111000010111 k
b10000111 j
b1111100100000111001110110000111 l
b11001010111100101011100010111100 Z
b1111100100000111001110110000111 U
b1111100100000111001110110000111 T
b1111100100000111001110110000111 ^
1%
#310000
0%
b10101 &
b10100 6"
#315000
b11000 [
b1110100100010010110110001100101 k
b10111100 j
b11001010111100101011100010111100 l
b10001111110010001010110111100 Z
b11001010111100101011100010111100 U
b11001010111100101011100010111100 T
b11001010111100101011100010111100 ^
1%
#320000
0%
b10110 &
b10101 6"
#325000
b11001 [
b1101101100010001010001101111010 Z
b10111001010110010110010110000010 U
b100000 h
b110 g
b10011001010110010110010110000010 k
b10001 j
b11111001000101011011110000010001 l
b11111001000101011011110000010001 T
b10001111110010001010110111100 i
b10001111110010001010110111100 ^
1%
#330000
0%
b10111 &
b10110 6"
#335000
b11010 [
b111100110001000000101011011010 k
b1111010 j
b1101101100010001010001101111010 l
b10001000010110011111011111101 Z
b1101101100010001010001101111010 U
b1101101100010001010001101111010 T
b1101101100010001010001101111010 ^
1%
#340000
0%
b11000 &
b10111 6"
#345000
b11011 [
b10000010001010111011001001010100 k
b11111101 j
b10001000010110011111011111101 l
b11011011111110011000011001000001 Z
b10001000010110011111011111101 U
b10001000010110011111011111101 T
b10001000010110011111011111101 ^
1%
#350000
0%
b11001 &
b11000 6"
#355000
b11100 [
b10111001100110010100010010000011 k
b1000001 j
b11011011111110011000011001000001 l
b11001010000000001001001111111101 Z
b11011011111110011000011001000001 U
b11011011111110011000011001000001 T
b11011011111110011000011001000001 ^
1%
#360000
0%
b11010 &
b11001 6"
#365000
b11101 [
b1001110010101001111011100001110 Z
b100011110111000101010001110100 U
b1000000 h
b111 g
b1100011110111000101010001110100 k
b11001010 j
b100100111111110111001010 l
b100100111111110111001010 T
b11001010000000001001001111111101 i
b11001010000000001001001111111101 ^
1%
#370000
0%
b11011 &
b11010 6"
#375000
b11110 [
b101111001000000110100010101011 k
b1110 j
b1001110010101001111011100001110 l
b1011111010111111100100111110011 Z
b1001110010101001111011100001110 U
b1001110010101001111011100001110 T
b1001110010101001111011100001110 ^
1%
#380000
0%
b11100 &
b11011 6"
#385000
b11111 [
b11001111110011111101110100001101 k
b11110011 j
b1011111010111111100100111110011 l
b10000100101001100100111110110010 Z
b1011111010111111100100111110011 U
b1011111010111111100100111110011 T
b1011111010111111100100111110011 ^
1%
#390000
0%
b11101 &
b11100 6"
#395000
b100000 [
b1011111001001001000010000110111 k
b10110010 j
b10000100101001100100111110110010 l
b1001110101001101101110001001111 Z
b10000100101001100100111110110010 U
b10000100101001100100111110110010 T
b10000100101001100100111110110010 ^
1%
#400000
0%
b11110 &
b11101 6"
#405000
b100001 [
b11101010110100100111001100100001 Z
b10100100100001101000010000101111 U
b10000000 h
b1000 g
b100100100001101000010000101111 k
b1001110 j
b10100110110111000100111101001110 l
b10100110110111000100111101001110 T
b1001110101001101101110001001111 i
b1001110101001101101110001001111 ^
1%
#410000
0%
b11111 &
b11110 6"
#415000
b100010 [
b10000111101101011000111111111101 k
b100001 j
b11101010110100100111001100100001 l
b10110101100011011011101011010010 Z
b11101010110100100111001100100001 U
b11101010110100100111001100100001 T
b11101010110100100111001100100001 ^
1%
#420000
0%
b100000 &
b11111 6"
#425000
b100011 [
b11010101010111011111010010110101 k
b11010010 j
b10110101100011011011101011010010 l
b110001001010111111010101100000 Z
b10110101100011011011101011010010 U
b10110101100011011011101011010010 T
b10110101100011011011101011010010 ^
1%
#430000
0%
b100001 &
b100000 6"
#435000
b100100 [
b11000111111100011110011011010000 k
b1100000 j
b110001001010111111010101100000 l
b1111111100011010010100100101111 Z
b110001001010111111010101100000 U
b110001001010111111010101100000 T
b110001001010111111010101100000 ^
1%
#440000
0%
b100010 &
b100001 6"
#445000
b100101 [
b10101100011101110110011011110011 Z
b1000110101001010001010111010010 U
b11011 h
b1001 g
b1011101101001010001010111010010 k
b1111111 j
b10001101001010010010111101111111 l
b10001101001010010010111101111111 T
b1111111100011010010100100101111 i
b1111111100011010010100100101111 ^
1%
#450000
0%
b100011 &
b100010 6"
#455000
b100110 [
b10010001111101010011001100001101 k
b11110011 j
b10101100011101110110011011110011 l
b11001111110101101110000100001 Z
b10101100011101110110011011110011 U
b10101100011101110110011011110011 T
b10101100011101110110011011110011 ^
1%
#460000
0%
b100100 &
b100011 6"
#465000
b100111 [
b11010100001011011000011011111101 k
b100001 j
b11001111110101101110000100001 l
b101000110100010010100101000001 Z
b11001111110101101110000100001 U
b11001111110101101110000100001 T
b11001111110101101110000100001 ^
1%
#470000
0%
b100101 &
b100100 6"
#475000
b101000 [
b110100001111101010010110000011 k
b1000001 j
b101000110100010010100101000001 l
b1010111010111000000000001101110 Z
b101000110100010010100101000001 U
b101000110100010010100101000001 T
b101000110100010010100101000001 ^
1%
#480000
0%
b100110 &
b100101 6"
#485000
b101001 [
b11010000000101001111100110101000 Z
b1111100011000111001111101011011 U
b110110 h
b1010 g
b1001010011000111001111101011011 k
b1010111 j
b1011100000000000110111001010111 l
b1011100000000000110111001010111 T
b1010111010111000000000001101110 i
b1010111010111000000000001101110 ^
1%
#490000
0%
b100111 &
b100110 6"
#495000
b101010 [
b1110000111110101001100111000010 k
b10101000 j
b11010000000101001111100110101000 l
b11001001111011100010010110001001 Z
b11010000000101001111100110101000 U
b11010000000101001111100110101000 T
b11010000000101001111100110101000 ^
1%
#500000
0%
b101000 &
b100111 6"
#505000
b101011 [
b11011101001010000011111110100111 k
b10001001 j
b11001001111011100010010110001001 l
b11100001001111110000110011001000 Z
b11001001111011100010010110001001 U
b11001001111011100010010110001001 T
b11001001111011100010010110001001 ^
1%
#510000
0%
b101001 &
b101000 6"
#515000
b101100 [
b11111000011101011111111011101000 k
b11001000 j
b11100001001111110000110011001000 l
b10110110011000110000110010100110 Z
b11100001001111110000110011001000 U
b11100001001111110000110011001000 T
b11100001001111110000110011001000 ^
1%
#520000
0%
b101010 &
b101001 6"
#525000
b11 ]
b1011 _
1%
#530000
0%
b101011 &
b101010 6"
#535000
b1010 /"
b0 ]
1=
1%
#540000
0%
b101100 &
b101011 6"
#545000
b1000011 s
b1000011 t
b11111111000111010110010110101000 :
b11111111000111010110010110101000 r
b100011000110100100001011000010 3
b100011000110100100001011000010 v
b1000011 w
b1000011 p
b11110110 o
b10101000 n
b11001001111011110001110111110 A
b11001001111011110001110111110 C
b110010010000111111011010101000 2
b110010010000111111011010101000 4"
b110010010000111111011010101000 5"
b110010010000111111011010101000 "
b110010010000111111011010101000 /
b110010010000111111011010101000 1
b110010010000111111011010101000 D
b110010010000111111011010101000 J
b110010010000111111011010101000 m
b110010010000111111011010101000 u
b110010010000111111011010101000 3"
b11001001111011110001110111110 B
b11001001111011110001110111110 F
b1010 ?
b1010 *"
18
14
10
b100 ;
b100 ,"
b1 -"
b1010 ("
1%
#550000
0%
b101101 &
b101100 6"
#555000
b10001000 s
b10001000 t
b1011000111000010011111011101000 :
b1011000111000010011111011101000 r
b11000100101111100000010001011101 3
b11000100101111100000010001011101 v
b10001000 w
b10100000111101001110001000101011 B
b10100000111101001110001000101011 F
b10001000 q
b1011010 p
b110000 o
b10001101 n
b10100000111101001110001000101011 A
b10100000111101001110001000101011 C
b1011010001100001000110110001000 2
b1011010001100001000110110001000 4"
b1011010001100001000110110001000 5"
b1 9
b1 G
b1 0"
b1 5
b1 H
b1 +"
b1 2"
18
14
b10 -"
b101000101011101101001010100110 6
b101000101011101101001010100110 E
b101000101011101101001010100110 \
b10001000010110100011000010001101 "
b10001000010110100011000010001101 /
b10001000010110100011000010001101 1
b10001000010110100011000010001101 D
b10001000010110100011000010001101 J
b10001000010110100011000010001101 m
b10001000010110100011000010001101 u
b10001000010110100011000010001101 3"
b1 @
b1 O
b1 x
b1 '"
b11001001111011110001110111110100010000101101000110000100011010011000100110001100110001010001011100000001101110000011100110100 !
b11001001111011110001110111110100010000101101000110000100011010011000100110001100110001010001011100000001101110000011100110100 >
b11001001111011110001110111110100010000101101000110000100011010011000100110001100110001010001011100000001101110000011100110100 I
1%
#560000
0%
b101110 &
b101101 6"
b11001001111011110001110111110100010000101101000110000100011010011000100110001100110001010001011100000001101110000011100110100 7"
#565000
b110001 s
b110001 t
b1011010000101101011010100101 :
b1011010000101101011010100101 r
b11000111110001110100011000111010 3
b11000111110001110100011000111010 v
b110001 w
b10011010110001101000110100101010 B
b10011010110001101000110100101010 F
b110001 q
b110001 p
b10011000 o
b10100010 n
b10011000101000100011000100110001 2
b10011000101000100011000100110001 4"
b10011000101000100011000100110001 5"
b10011010110001101000110100101010 A
b10011010110001101000110100101010 C
b110001001100011001100010100010 "
b110001001100011001100010100010 /
b110001001100011001100010100010 1
b110001001100011001100010100010 D
b110001001100011001100010100010 J
b110001001100011001100010100010 m
b110001001100011001100010100010 u
b110001001100011001100010100010 3"
b10 9
b10 G
b10 0"
18
b10 5
b10 H
b10 +"
b10 2"
14
b11 -"
b10101011111101110001010110001000 6
b10101011111101110001010110001000 E
b10101011111101110001010110001000 \
b11001001111011110001110111110101000001111010011100010001010110011000100110001100110001010001011100000001101110000011100110100 !
b11001001111011110001110111110101000001111010011100010001010110011000100110001100110001010001011100000001101110000011100110100 >
b11001001111011110001110111110101000001111010011100010001010110011000100110001100110001010001011100000001101110000011100110100 I
b10 @
b10 O
b10 x
b10 '"
1%
#570000
0%
b101111 &
b101110 6"
b11001001111011110001110111110101000001111010011100010001010110011000100110001100110001010001011100000001101110000011100110100 7"
#575000
b11100000 s
b11100000 t
b10110001101100111000010101100011 :
b10110001101100111000010101100011 r
b11100001100110101100010100011000 3
b11100001100110101100010100011000 v
b11100000 w
b11101001111110000100100000001000 B
b11101001111110000100100000001000 F
b11100000 q
b110111 p
b111 o
b110100 n
b11101001111110000100100000001000 A
b11101001111110000100100000001000 C
b110100111000000011011100000111 2
b110100111000000011011100000111 4"
b110100111000000011011100000111 5"
b11 9
b11 G
b11 0"
18
b11 5
b11 H
b11 +"
b11 2"
14
b1 ."
b0 -"
b100 /"
b1001110011110100111100111100 6
b1001110011110100111100111100 E
b1001110011110100111100111100 \
b11100000001101110000011100110100 "
b11100000001101110000011100110100 /
b11100000001101110000011100110100 1
b11100000001101110000011100110100 D
b11100000001101110000011100110100 J
b11100000001101110000011100110100 m
b11100000001101110000011100110100 u
b11100000001101110000011100110100 3"
b11 @
b11 O
b11 x
b11 '"
b11001001111011110001110111110101000001111010011100010001010111001101011000110100011010010101011100000001101110000011100110100 !
b11001001111011110001110111110101000001111010011100010001010111001101011000110100011010010101011100000001101110000011100110100 >
b11001001111011110001110111110101000001111010011100010001010111001101011000110100011010010101011100000001101110000011100110100 I
1%
#580000
0%
b110000 &
b101111 6"
b11001001111011110001110111110101000001111010011100010001010111001101011000110100011010010101011100000001101110000011100110100 7"
