veriloged/aes_tb.vcd
$date
	Tue Sep 23 13:53:52 2025
$end
$version
	Icarus Verilog
$end
$timescale
	1ps
$end
$scope module aes_tb $end
$var wire 128 ! matrix_state [127:0] $end
$var wire 32 " dword_out [31:0] $end
$var wire 1 # done $end
$var reg 1 $ clk $end
$var reg 32 % cycles [31:0] $end
$var reg 32 & dword_in [31:0] $end
$var reg 128 ' key [127:0] $end
$var reg 128 ( plaintext [127:0] $end
$var reg 1 ) reset_n $end
$var reg 1 * start_n $end
$var reg 1 + start_read_n $end
$var integer 32 , matrix_file [31:0] $end
$scope module uut $end
$var wire 1 $ clk $end
$var wire 32 - dword_in [31:0] $end
$var wire 32 . dword_out [31:0] $end
$var wire 1 ) reset_n $end
$var wire 1 * start_n $end
$var wire 1 + start_read_n $end
$var wire 1 / write_enable $end
$var wire 32 0 state_word [31:0] $end
$var wire 32 1 shifted_row [31:0] $end
$var wire 32 2 sbox_out [31:0] $end
$var wire 1 3 row_col_sel $end
$var wire 2 4 row_col_index [1:0] $end
$var wire 32 5 round_key [31:0] $end
$var wire 4 6 round_index [3:0] $end
$var wire 1 7 output_mat_row_col $end
$var wire 2 8 output_mat_idx [1:0] $end
$var wire 32 9 mixed_col [31:0] $end
$var wire 4 : matrix_in_sel [3:0] $end
$var wire 1 ; key_start $end
$var wire 1 < key_done $end
$var wire 1 # done $end
$var wire 128 = dbg_state [127:0] $end
$var wire 6 > current_state [5:0] $end
$var wire 2 ? count_4 [1:0] $end
$var wire 32 @ ark_out [31:0] $end
$var reg 32 A dmatrix_in [31:0] $end
$scope module ark $end
$var wire 32 B state_out [31:0] $end
$var wire 32 C state_in [31:0] $end
$var wire 32 D round_key [31:0] $end
$upscope $end
$scope module datamatrix $end
$var wire 1 $ clk $end
$var wire 32 E col_in [31:0] $end
$var wire 1 ) reset_n $end
$var wire 1 / write_enable $end
$var wire 1 7 output_row_col $end
$var wire 2 F output_idx [1:0] $end
$var wire 1 3 input_row_col $end
$var wire 2 G input_idx [1:0] $end
$var wire 128 H debug_state [127:0] $end
$var reg 32 I out [31:0] $end
$var integer 32 J i [31:0] $end
$upscope $end
$scope module ke $end
$var wire 32 K cipher_key [31:0] $end
$var wire 1 $ clk $end
$var wire 128 L dbg_curr_round_key [127:0] $end
$var wire 1 M reset $end
$var wire 1 ; start $end
$var wire 4 N round_key_num [3:0] $end
$var wire 2 O r_index [1:0] $end
$var parameter 2 P DONE_S $end
$var parameter 2 Q EXPAND $end
$var parameter 2 R IDLE $end
$var reg 128 S current_key [127:0] $end
$var reg 1 < done $end
$var reg 1 T expanded $end
$var reg 128 U key_reg [127:0] $end
$var reg 2 V load_count [1:0] $end
$var reg 1 W loading $end
$var reg 128 X next [127:0] $end
$var reg 4 Y round_ctr [3:0] $end
$var reg 32 Z round_key [31:0] $end
$var reg 2 [ state [1:0] $end
$scope function get_word $end
$var reg 32 \ index [31:0] $end
$var reg 128 ] key [127:0] $end
$upscope $end
$scope function next_key $end
$var reg 128 ^ prev_key [127:0] $end
$var reg 32 _ round_num [31:0] $end
$var reg 32 ` temp [31:0] $end
$var reg 32 a w0 [31:0] $end
$var reg 32 b w1 [31:0] $end
$var reg 32 c w2 [31:0] $end
$var reg 32 d w3 [31:0] $end
$upscope $end
$scope function rcon $end
$var reg 8 e rc [7:0] $end
$var integer 32 f i [31:0] $end
$upscope $end
$scope function rot_word $end
$var reg 32 g w [31:0] $end
$upscope $end
$scope function sbox_lookup $end
$var reg 8 h byte_in [7:0] $end
$upscope $end
$scope function sub_word $end
$var reg 32 i w [31:0] $end
$upscope $end
$upscope $end
$scope module mc $end
$var wire 32 j col_in [31:0] $end
$var wire 8 k s3 [7:0] $end
$var wire 8 l s2 [7:0] $end
$var wire 8 m s1 [7:0] $end
$var wire 8 n s0 [7:0] $end
$var wire 32 o col_out [31:0] $end
$scope function mul_by_3 $end
$var reg 8 p byte_in [7:0] $end
$upscope $end
$scope function xtime $end
$var reg 8 q byte_in [7:0] $end
$upscope $end
$upscope $end
$scope module sb $end
$var wire 32 r row_in [31:0] $end
$var wire 32 s row_out [31:0] $end
$scope function sbox_lookup $end
$upscope $end
$upscope $end
$scope module sm $end
$var wire 1 $ clock $end
$var wire 2 t count_4_out [1:0] $end
$var wire 1 < key_expand_done $end
$var wire 1 ) reset_n $end
$var wire 1 + start_read_n $end
$var wire 1 * start_write_n $end
$var parameter 6 u ADDROUNDKEY $end
$var parameter 6 v COMPUTE_ROUNDKEYS $end
$var parameter 6 w CTEXT_READ $end
$var parameter 6 x ENCRYPTION_DONE $end
$var parameter 6 y IDLE $end
$var parameter 6 z INIT_ADDROUNDKEY $end
$var parameter 6 { KEY_WRITE $end
$var parameter 6 | MIXCOLUMNS $end
$var parameter 4 } NUM_ROUNDS $end
$var parameter 6 ~ PTEXT_WRITE $end
$var parameter 6 !" SHIFTROWS $end
$var parameter 6 "" SUBBYTES $end
$var reg 2 #" count_4 [1:0] $end
$var reg 6 $" current_state [5:0] $end
$var reg 4 %" dbg_round [3:0] $end
$var reg 6 &" dbg_state [5:0] $end
$var reg 1 # done $end
$var reg 2 '" input_mat_idx [1:0] $end
$var reg 1 3 input_mat_row_col $end
$var reg 1 ; key_start $end
$var reg 4 (" matrix_in_sel [3:0] $end
$var reg 1 / matrix_write_enable $end
$var reg 2 )" next_count_4 [1:0] $end
$var reg 4 *" next_round_counter [3:0] $end
$var reg 6 +" next_state [5:0] $end
$var reg 2 ," output_mat_idx [1:0] $end
$var reg 1 7 output_mat_row_col $end
$var reg 4 -" round_counter [3:0] $end
$upscope $end
$scope module sr $end
$var wire 2 ." idx_row [1:0] $end
$var wire 32 /" row_in [31:0] $end
$var wire 32 0" row_out [31:0] $end
$var reg 32 1" row_out_reg [31:0] $end
$upscope $end
$upscope $end
$scope task printMatrix $end
$var reg 32 2" cycle [31:0] $end
$var reg 128 3" matrix_state [127:0] $end
$upscope $end
$upscope $end
$enddefinitions $end
$comment Show the parameter values. $end
$dumpall
b100 ""
b101 !"
b1 ~
b1001 }
b110 |
b10 {
b1010 z
b0 y
b1000 x
b1001 w
b11 v
b111 u
b0 R
b1 Q
b10 P
$end
#0
$dumpvars
bx 3"
bx 2"
b0 1"
b0 0"
b0 /"
b0 ."
b0 -"
b0 ,"
b0 +"
b0 *"
b0 )"
b0 ("
b0 '"
b0 &"
b0 %"
b0 $"
b0 #"
b0 t
b1100011011000110110001101100011 s
b0 r
b0 q
b0 p
b0 o
b0 n
b0 m
b0 l
b0 k
b0 j
bx i
bx h
bx g
bx f
bx e
bx d
bx c
bx b
bx a
bx `
bx _
bx ^
bx ]
bx \
b0 [
bx Z
b0 Y
bx X
0W
b0 V
b0 U
0T
bx S
b0 O
b0 N
1M
bx L
b0 K
b10000 J
b0 I
b0 H
b0 G
b0 F
b0 E
bx D
b0 C
bx B
b0 A
bx @
b0 ?
b0 >
b0 =
0<
0;
b0 :
b0 9
b0 8
07
b0 6
bx 5
b0 4
03
b1100011011000110110001101100011 2
b0 1
b0 0
0/
b0 .
b0 -
b10000000000000000000000000000011 ,
1+
1*
0)
b110010010000111111011010101000100010000101101000110000100011010011000100110001100110001010001011100000001101110000011100110100 (
b101011011111100001010100010110001010001010111011010010101001101010101111110111000101011000100000001001110011110100111100111100 '
b0 &
b0 %
0$
0#
b0 "
b0 !
$end
#5000
b10000 J
1$
#10000
0$
#15000
b10000 J
1$
#20000
b110010010000111111011010101000 A
b110010010000111111011010101000 E
b1 +"
0$
b110010010000111111011010101000 &
b110010010000111111011010101000 -
b110010010000111111011010101000 K
0*
0M
1)
#25000
b0 @
b0 B
b1 >
b1 &"
13
1/
b1 )"
b0 5
b0 D
b0 Z
b1 $"
b1 [
b0 L
b0 S
1$
#30000
b1 )"
0$
1*
#35000
b1100100001100100011001001010110 9
b1100100001100100011001001010110 o
b110010 q
b110010 p
b100011011000110110001101100011 2
b100011011000110110001101100011 s
b110010 n
b110010000000000000000000000000 @
b110010000000000000000000000000 B
b110010 1
b110010 0"
b110010 1"
b1 4
b1 G
b1 '"
b1 ."
13
b10 )"
b110010000000000000000000000000 "
b110010000000000000000000000000 .
b110010000000000000000000000000 0
b110010000000000000000000000000 C
b110010000000000000000000000000 I
b110010000000000000000000000000 j
b110010000000000000000000000000 r
b110010000000000000000000000000 /"
b1 ?
b1 O
b1 t
b1 #"
b110010010000111111011010101000000000000000000000000000000000000000000000000000000000000000000000000000000000000000000000000000 !
b110010010000111111011010101000000000000000000000000000000000000000000000000000000000000000000000000000000000000000000000000000 =
b110010010000111111011010101000000000000000000000000000000000000000000000000000000000000000000000000000000000000000000000000000 H
b1 Y
b1100010011000110110001101100011011000100110001101100011011000110110001001100011011000110110001101100010011000110110001101100011 S
b1100010011000110110001101100011011000100110001101100011011000110110001001100011011000110110001101100010011000110110001101100011 X
b1100010011000110110001101100011 d
b1100010011000110110001101100011 c
b1100010011000110110001101100011 b
b1100010011000110110001101100011 a
b1 e
b1 f
b0 h
b0 i
b0 g
b1100010011000110110001101100011 `
b0 ]
b11 \
b0 ^
b1 _
1$
#40000
b10001000010110100011000010001101 A
b10001000010110100011000010001101 E
0$
b10001000010110100011000010001101 &
b10001000010110100011000010001101 -
b10001000010110100011000010001101 K
#45000
b11100111001110011011101011011110 9
b11100111001110011011101011011110 o
b10001000 p
b10001000 q
b100011110001000110001101100011 2
b100011110001000110001101100011 s
b10001000 m
b110010100010000000000000000000 @
b110010100010000000000000000000 B
b11001010001000 1
b11001010001000 0"
b11001010001000 1"
b110010100010000000000000000000 "
b110010100010000000000000000000 .
b110010100010000000000000000000 0
b110010100010000000000000000000 C
b110010100010000000000000000000 I
b110010100010000000000000000000 j
b110010100010000000000000000000 r
b110010100010000000000000000000 /"
b10 4
b10 G
b10 '"
b10 ."
13
b11 )"
b110010010000111111011010101000100010000101101000110000100011010000000000000000000000000000000000000000000000000000000000000000 !
b110010010000111111011010101000100010000101101000110000100011010000000000000000000000000000000000000000000000000000000000000000 =
b110010010000111111011010101000100010000101101000110000100011010000000000000000000000000000000000000000000000000000000000000000 H
b10 ?
b10 O
b10 t
b10 #"
b10 Y
b10100100101001111010011100010110110001101100010011000100011101011010010010100111101001110001011011000110110001001100010001110101 S
b10100100101001111010011100010110110001101100010011000100011101011010010010100111101001110001011011000110110001001100010001110101 X
b11000110110001001100010001110101 d
b10100100101001111010011100010110 c
b11000110110001001100010001110101 b
b10100100101001111010011100010110 a
b11 \
b11000110110001001100010001110101 `
b10 e
b10 f
b1100010 h
b1100011011000110110001101100010 i
b1100010011000110110001101100011 g
b1100010011000110110001101100011011000100110001101100011011000110110001001100011011000110110001101100010011000110110001101100011 ]
b1100010011000110110001101100011011000100110001101100011011000110110001001100011011000110110001101100010011000110110001101100011 ^
b10 _
1$
#50000
b110001001100011001100010100010 A
b110001001100011001100010100010 E
0$
b110001001100011001100010100010 &
b110001001100011001100010100010 -
b110001001100011001100010100010 K
#55000
b11010110011010101101100011101111 9
b11010110011010101101100011101111 o
b110001 p
b110001 q
b100011110001001100011101100011 2
b100011110001001100011101100011 s
b110001 l
b110010100010000011000100000000 @
b110010100010000011000100000000 B
b1100101000100000110001 1
b1100101000100000110001 0"
b1100101000100000110001 1"
1;
b11 4
b11 G
b11 '"
b11 ."
13
b0 )"
b10 +"
b110010100010000011000100000000 "
b110010100010000011000100000000 .
b110010100010000011000100000000 0
b110010100010000011000100000000 C
b110010100010000011000100000000 I
b110010100010000011000100000000 j
b110010100010000011000100000000 r
b110010100010000011000100000000 /"
b11 ?
b11 O
b11 t
b11 #"
b110010010000111111011010101000100010000101101000110000100011010011000100110001100110001010001000000000000000000000000000000000 !
b110010010000111111011010101000100010000101101000110000100011010011000100110001100110001010001000000000000000000000000000000000 =
b110010010000111111011010101000100010000101101000110000100011010011000100110001100110001010001000000000000000000000000000000000 H
b11 Y
b11000111110000001000110001111010000000010000010001001000000011111010010110100011111011110001100101100011011001110010101101101100 S
b11000111110000001000110001111010000000010000010001001000000011111010010110100011111011110001100101100011011001110010101101101100 X
b1100011011001110010101101101100 d
b10100101101000111110111100011001 c
b1000001000100100000001111 b
b11000111110000001000110001111010 a
b11 \
b1100011011001110010101101101100 `
b100 e
b11 f
b11000110 h
b11000100110001000111010111000110 i
b11000110110001001100010001110101 g
b10100100101001111010011100010110110001101100010011000100011101011010010010100111101001110001011011000110110001001100010001110101 ]
b10100100101001111010011100010110110001101100010011000100011101011010010010100111101001110001011011000110110001001100010001110101 ^
b11 _
1$
#60000
b11100000001101110000011100110100 A
b11100000001101110000011100110100 E
0$
b11100000001101110000011100110100 &
b11100000001101110000011100110100 -
b11100000001101110000011100110100 K
#65000
b11100000 p
b11100000 q
b110110100010101110001100110100 9
b110110100010101110001100110100 o
b100011110001001100011111100001 2
b100011110001001100011111100001 s
b11100000 k
b110010100010000011000111100000 @
b110010100010000011000111100000 B
bx A
bx E
b110010100010000011000111100000 1
b110010100010000011000111100000 0"
b110010100010000011000111100000 1"
b110010100010000011000111100000 "
b110010100010000011000111100000 .
b110010100010000011000111100000 0
b110010100010000011000111100000 C
b110010100010000011000111100000 I
b110010100010000011000111100000 j
b110010100010000011000111100000 r
b110010100010000011000111100000 /"
0;
b10 >
b10 &"
0/
bx :
bx ("
b0 4
b0 G
b0 '"
b0 ."
03
b1 )"
b110010010000111111011010101000100010000101101000110000100011010011000100110001100110001010001011100000001101110000011100110100 !
b110010010000111111011010101000100010000101101000110000100011010011000100110001100110001010001011100000001101110000011100110100 =
b110010010000111111011010101000100010000101101000110000100011010011000100110001100110001010001011100000001101110000011100110100 H
b0 ?
b0 O
b0 t
b0 #"
b10 $"
b100 Y
b1011011101101010111100010111110010110101011000100110000101100011111111100010010110111111010100010011100011101011111010011000100 S
1W
b1011011101101010111100010111110010110101011000100110000101100011111111100010010110111111010100010011100011101011111010011000100 X
b10011100011101011111010011000100 d
b11111111000100101101111110101000 c
b1011010101100010011000010110001 b
b1011011101101010111100010111110 a
b11 \
b10011100011101011111010011000100 `
b1000 e
b100 f
b1100011 h
b1100111001010110110110001100011 i
b1100011011001110010101101101100 g
b11000111110000001000110001111010000000010000010001001000000011111010010110100011111011110001100101100011011001110010101101101100 ]
b11000111110000001000110001111010000000010000010001001000000011111010010110100011111011110001100101100011011001110010101101101100 ^
b100 _
1$
#70000
0$
b101011011111100001010100010110 &
b101011011111100001010100010110 -
b101011011111100001010100010110 K
#75000
b10001000001100011110000000110010 1
b10001000001100011110000000110010 0"
b10001000001100011110000000110010 1"
b1 4
b1 G
b1 '"
b1 ."
b10 )"
b1 ?
b1 O
b1 t
b1 #"
b1 V
b101011011111100001010100010110000000000000000000000000000000000000000000000000000000000000000000000000000000000000000000000000 U
b0 [
b0 Y
b1100000101101010001111101001010001110100000010000101111111110111100010100010110111100000101001101011001011000110000010010010111 S
b1100000101101010001111101001010001110100000010000101111111110111100010100010110111100000101001101011001011000110000010010010111 X
b1011001011000110000010010010111 d
b11000101000101101111000001010011 c
b111010000001000010111111111011 b
b1100000101101010001111101001010 a
b11 \
b111011000000000110011111110100 `
b10000 e
b101 f
b10011100 h
b1110101111101001100010010011100 i
b10011100011101011111010011000100 g
b1011011101101010111100010111110010110101011000100110000101100011111111100010010110111111010100010011100011101011111010011000100 ]
b1011011101101010111100010111110010110101011000100110000101100011111111100010010110111111010100010011100011101011111010011000100 ^
b101 _
1$
#80000
0$
b101000101011101101001010100110 &
b101000101011101101001010100110 -
b101000101011101101001010100110 K
#85000
b110001111000000011001010001000 1
b110001111000000011001010001000 0"
b110001111000000011001010001000 1"
b10 4
b10 G
b10 '"
b10 ."
b11 )"
b10 ?
b10 O
b10 t
b10 #"
b10 V
b101011011111100001010100010110001010001010111011010010101001100000000000000000000000000000000000000000000000000000000000000000 U
1$
#90000
0$
b10101011111101110001010110001000 &
b10101011111101110001010110001000 -
b10101011111101110001010110001000 K
#95000
b11100000001100101000100000110001 1
b11100000001100101000100000110001 0"
b11100000001100101000100000110001 1"
b11 4
b11 G
b11 '"
b11 ."
b0 )"
b11 +"
b11 ?
b11 O
b11 t
b11 #"
b11 V
b101011011111100001010100010110001010001010111011010010101001101010101111110111000101011000100000000000000000000000000000000000 U
1$
#100000
0$
b1001110011110100111100111100 &
b1001110011110100111100111100 -
b1001110011110100111100111100 K
#105000
b110010100010000011000111100000 1
b110010100010000011000111100000 0"
b110010100010000011000111100000 1"
b11 >
b11 &"
b0 4
b0 G
b0 '"
b0 ."
b0 ?
b0 O
b0 t
b0 #"
b11 $"
b0 V
0W
b101011011111100001010100010110001010001010111011010010101001101010101111110111000101011000100000001001110011110100111100111100 U
1$
#110000
0$
b1 %
b0 2"
b110010010000111111011010101000100010000101101000110000100011010011000100110001100110001010001011100000001101110000011100110100 3"
#115000
b11001111101100010010011110110 @
b11001111101100010010011110110 B
b101011011111100001010100010110 5
b101011011111100001010100010110 D
b101011011111100001010100010110 Z
b1 [
b101011011111100001010100010110001010001010111011010010101001101010101111110111000101011000100000001001110011110100111100111100 L
b101011011111100001010100010110001010001010111011010010101001101010101111110111000101011000100000001001110011110100111100111100 S
1$
#120000
0$
b10 %
b1 2"
#125000
b1 Y
b1011010000000110111010100010111011100101010110110100111101100011101100101011010101100100011100111010000100101011111110100000101 S
b1011010000000110111010100010111011100101010110110100111101100011101100101011010101100100011100111010000100101011111110100000101 X
b11010000100101011111110100000101 d
b11011001010110101011001000111001 c
b1110010101011011010011110110001 b
b1011010000000110111010100010111 a
b11 \
b1 e
b1 f
b1001 h
b11001111010011110011110000001001 i
b1001110011110100111100111100 g
b1110001011111010110000000000001 `
b101011011111100001010100010110001010001010111011010010101001101010101111110111000101011000100000001001110011110100111100111100 ]
b101011011111100001010100010110001010001010111011010010101001101010101111110111000101011000100000001001110011110100111100111100 ^
b1 _
1$
#130000
0$
b11 %
b10 2"
#135000
b10 Y
b1110011000000110001111000101001000000011010111010111001100110001101100011110100000010111010000100001000011000011111011010100100 S
b1110011000000110001111000101001000000011010111010111001100110001101100011110100000010111010000100001000011000011111011010100100 X
b1000011000011111011010100100 d
b11011000111101000000101110100001 c
b1101011101011100110011000 b
b1110011000000110001111000101001 a
b11 \
b10 e
b10 f
b11010000 h
b10010101111111010000010111010000 i
b11010000100101011111110100000101 g
b101001000000000110101100111110 `
b1011010000000110111010100010111011100101010110110100111101100011101100101011010101100100011100111010000100101011111110100000101 ]
b1011010000000110111010100010111011100101010110110100111101100011101100101011010101100100011100111010000100101011111110100000101 ^
b10 _
1$
#140000
0$
b100 %
b11 2"
#145000
b11 Y
b11000101000000110111100100011001110001001010110111000000100000010001110001011001110010110010000000010100001110000011110110000100 S
b11000101000000110111100100011001110001001010110111000000100000010001110001011001110010110010000000010100001110000011110110000100 X
b10100001110000011110110000100 d
b11100010110011100101100100000 c
b11000100101011011100000010000001 b
b11000101000000110111100100011001 a
b11 \
b100 e
b11 f
b1000 h
b1100001111101101010010000001000 i
b1000011000011111011010100100 g
b10110110000000000110011100110000 `
b1110011000000110001111000101001000000011010111010111001100110001101100011110100000010111010000100001000011000011111011010100100 ]
b1110011000000110001111000101001000000011010111010111001100110001101100011110100000010111010000100001000011000011111011010100100 ^
b11 _
1$
#150000
0$
b101 %
b100 2"
#155000
b100 Y
b1001000001101100001111011100011100011001001101111011110011000101001000011000010000101010100001010000100111110100010100011000110 S
b1001000001101100001111011100011100011001001101111011110011000101001000011000010000101010100001010000100111110100010100011000110 X
b10000100111110100010100011000110 d
b10010000110000100001010101000010 c
b10001100100110111101111001100010 b
b1001000001101100001111011100011 a
b11 \
b1000 e
b100 f
b10100 h
b111000001111011000010000010100 i
b10100001110000011110110000100 g
b10001101001101010110011111111010 `
b11000101000000110111100100011001110001001010110111000000100000010001110001011001110010110010000000010100001110000011110110000100 ]
b11000101000000110111100100011001110001001010110111000000100000010001110001011001110010110010000000010100001110000011110110000100 ^
b100 _
1$
#160000
0$
b110 %
b101 2"
#165000
b101 Y
b1011000110111010111001010000100110101000100011010101100111001100100010010000100101110011010010011000000011111101001000101100010 S
b1011000110111010111001010000100110101000100011010101100111001100100010010000100101110011010010011000000011111101001000101100010 X
b11000000011111101001000101100010 d
b1000100100001001011100110100100 c
b11010100010001101010110011100110 b
b1011000110111010111001010000100 a
b11 \
b10000 e
b101 f
b10000100 h
b11111010001010001100011010000100 i
b10000100111110100010100011000110 g
b10000111010110110110001100111 `
b1001000001101100001111011100011100011001001101111011110011000101001000011000010000101010100001010000100111110100010100011000110 ]
b1001000001101100001111011100011100011001001101111011110011000101001000011000010000101010100001010000100111110100010100011000110 ^
b101 _
1$
#170000
0$
b111 %
b110 2"
#175000
b110 Y
b11110010011011110000011110111010001001100010100110101011010111000110001010101101000100101111100010100010110100111000001110011010 S
b11110010011011110000011110111010001001100010100110101011010111000110001010101101000100101111100010100010110100111000001110011010 X
b10100010110100111000001110011010 d
b1100010101011010001001011111000 c
b100110001010011010101101011100 b
b11110010011011110000011110111010 a
b11 \
b100000 e
b110 f
b11000000 h
b1111110100100010110001011000000 i
b11000000011111101001000101100010 g
b10101010101100100111010100111110 `
b1011000110111010111001010000100110101000100011010101100111001100100010010000100101110011010010011000000011111101001000101100010 ]
b1011000110111010111001010000100110101000100011010101100111001100100010010000100101110011010010011000000011111101001000101100010 ^
b110 _
1$
#180000
0$
b1000 %
b111 2"
#185000
b111 Y
b1110110101010110010111111001111010100001000001010000100100100110011001000101111100101100110101110010000111111000001010111110001 S
b1110110101010110010111111001111010100001000001010000100100100110011001000101111100101100110101110010000111111000001010111110001 X
b10010000111111000001010111110001 d
b110010001011111001011001101011 c
b1010000100000101000010010010011 b
b1110110101010110010111111001111 a
b11 \
b1000000 e
b111 f
b10100010 h
b11010011100000111001101010100010 i
b10100010110100111000001110011010 g
b10000100110001000010100001110101 `
b11110010011011110000011110111010001001100010100110101011010111000110001010101101000100101111100010100010110100111000001110011010 ]
b11110010011011110000011110111010001001100010100110101011010111000110001010101101000100101111100010100010110100111000001110011010 ^
b111 _
1$
#190000
0$
b1001 %
b1000 2"
#195000
b1000 Y
b11110110111100100010111111110001101001100111000010101011011000101001010001011111001111010000100100000100101000110010100011111000 S
b11110110111100100010111111110001101001100111000010101011011000101001010001011111001111010000100100000100101000110010100011111000 X
b100101000110010100011111000 d
b10010100010111110011110100001001 c
b10100110011100001010101101100010 b
b11110110111100100010111111110001 a
b11 \
b10000000 e
b1000 f
b10010000 h
b11111100000101011111000110010000 i
b10010000111111000001010111110001 g
b10000000010110010000000000111110 `
b1110110101010110010111111001111010100001000001010000100100100110011001000101111100101100110101110010000111111000001010111110001 ]
b1110110101010110010111111001111010100001000001010000100100100110011001000101111100101100110101110010000111111000001010111110001 ^
b1000 _
1$
#200000
0$
b1010 %
b1001 2"
#205000
b1001 Y
b101001000110010010111100000011100011110110100110000100011000010001101100110110101110010110100000011111100101011001000110010000 S
b101001000110010010111100000011100011110110100110000100011000010001101100110110101110010110100000011111100101011001000110010000 X
b11111100101011001000110010000 d
b11011001101101011100101101000 c
b10001111011010011000010001100001 b
b101001000110010010111100000011 a
b11 \
b11011 e
b1001 f
b100 h
b10100011001010001111100000000100 i
b100101000110010100011111000 g
b11011111111010110000000011110010 `
b11110110111100100010111111110001101001100111000010101011011000101001010001011111001111010000100100000100101000110010100011111000 ]
b11110110111100100010111111110001101001100111000010101011011000101001010001011111001111010000100100000100101000110010100011111000 ^
b1001 _
1$
#210000
0$
b1011 %
b1010 2"
#215000
b1010 Y
b110100101010110001000111000011101110111100001010010101101000101010000011110100001011001100101010111111011000011011110101011010 S
b110100101010110001000111000011101110111100001010010101101000101010000011110100001011001100101010111111011000011011110101011010 X
b10111111011000011011110101011010 d
b10100000111101000010110011001010 c
b10111011110000101001010110100010 b
b110100101010110001000111000011 a
b11 \
b110110 e
b1010 f
b11111 h
b10010101100100011001000000011111 i
b11111100101011001000110010000 g
b11101101100100011111011000000 `
b101001000110010010111100000011100011110110100110000100011000010001101100110110101110010110100000011111100101011001000110010000 ]
b101001000110010010111100000011100011110110100110000100011000010001101100110110101110010110100000011111100101011001000110010000 ^
b1010 _
1$
#220000
0$
b1100 %
b1011 2"
#225000
b10 [
1$
#230000
0$
b1101 %
b1100 2"
#235000
b1010 +"
b0 [
1<
1$
#240000
0$
b1110 %
b1101 2"
#245000
b1000011 p
b1000011 q
b11111111000111010110010110101000 9
b11111111000111010110010110101000 o
b100011000110100100001011000010 2
b100011000110100100001011000010 s
b1000011 m
b11110110 l
b10101000 k
b11001001111011110001110111110 @
b11001001111011110001110111110 B
b110010010000111111011010101000 1
b110010010000111111011010101000 0"
b110010010000111111011010101000 1"
b110010010000111111011010101000 "
b110010010000111111011010101000 .
b110010010000111111011010101000 0
b110010010000111111011010101000 C
b110010010000111111011010101000 I
b110010010000111111011010101000 j
b110010010000111111011010101000 r
b110010010000111111011010101000 /"
b11001001111011110001110111110 A
b11001001111011110001110111110 E
b1010 >
b1010 &"
17
13
1/
b100 :
b100 ("
b1 )"
b1010 $"
b1 [
b0 Y
b101011011111100001010100010110001010001010111011010010101001101010101111110111000101011000100000001001110011110100111100111100 S
1$
#250000
0$
b1111 %
b1110 2"
#255000
b10001000 p
b10001000 q
b1011000111000010011111011101000 9
b1011000111000010011111011101000 o
b11000100101111100000010001011101 2
b11000100101111100000010001011101 s
b10100000111101001110001000101011 A
b10100000111101001110001000101011 E
b10001000 n
b1011010 m
b110000 l
b10001101 k
b10100000111101001110001000101011 @
b10100000111101001110001000101011 B
b1011010001100001000110110001000 1
b1011010001100001000110110001000 0"
b1011010001100001000110110001000 1"
b1 8
b1 F
b1 ,"
b1 4
b1 G
b1 '"
b1 ."
17
13
b10 )"
b101000101011101101001010100110 5
b101000101011101101001010100110 D
b101000101011101101001010100110 Z
b10001000010110100011000010001101 "
b10001000010110100011000010001101 .
b10001000010110100011000010001101 0
b10001000010110100011000010001101 C
b10001000010110100011000010001101 I
b10001000010110100011000010001101 j
b10001000010110100011000010001101 r
b10001000010110100011000010001101 /"
b1 ?
b1 O
b1 t
b1 #"
b11001001111011110001110111110100010000101101000110000100011010011000100110001100110001010001011100000001101110000011100110100 !
b11001001111011110001110111110100010000101101000110000100011010011000100110001100110001010001011100000001101110000011100110100 =
b11001001111011110001110111110100010000101101000110000100011010011000100110001100110001010001011100000001101110000011100110100 H
b1 Y
b1011010000000110111010100010111011100101010110110100111101100011101100101011010101100100011100111010000100101011111110100000101 S
b1011010000000110111010100010111011100101010110110100111101100011101100101011010101100100011100111010000100101011111110100000101 X
b11010000100101011111110100000101 d
b11011001010110101011001000111001 c
b1110010101011011010011110110001 b
b1011010000000110111010100010111 a
b11 \
b1 e
b1 f
b1001 h
b11001111010011110011110000001001 i
b1001110011110100111100111100 g
b1110001011111010110000000000001 `
b101011011111100001010100010110001010001010111011010010101001101010101111110111000101011000100000001001110011110100111100111100 ]
b101011011111100001010100010110001010001010111011010010101001101010101111110111000101011000100000001001110011110100111100111100 ^
b1 _
1$
#260000
0$
b10000 %
b1111 2"
b11001001111011110001110111110100010000101101000110000100011010011000100110001100110001010001011100000001101110000011100110100 3"
#265000
b110001 p
b110001 q
b1011010000101101011010100101 9
b1011010000101101011010100101 o
b11000111110001110100011000111010 2
b11000111110001110100011000111010 s
b10011010110001101000110100101010 A
b10011010110001101000110100101010 E
b110001 n
b110001 m
b10011000 l
b10100010 k
b10011000101000100011000100110001 1
b10011000101000100011000100110001 0"
b10011000101000100011000100110001 1"
b10011010110001101000110100101010 @
b10011010110001101000110100101010 B
b110001001100011001100010100010 "
b110001001100011001100010100010 .
b110001001100011001100010100010 0
b110001001100011001100010100010 C
b110001001100011001100010100010 I
b110001001100011001100010100010 j
b110001001100011001100010100010 r
b110001001100011001100010100010 /"
b10 8
b10 F
b10 ,"
17
b10 4
b10 G
b10 '"
b10 ."
13
b11 )"
b10101011111101110001010110001000 5
b10101011111101110001010110001000 D
b10101011111101110001010110001000 Z
b11001001111011110001110111110101000001111010011100010001010110011000100110001100110001010001011100000001101110000011100110100 !
b11001001111011110001110111110101000001111010011100010001010110011000100110001100110001010001011100000001101110000011100110100 =
b11001001111011110001110111110101000001111010011100010001010110011000100110001100110001010001011100000001101110000011100110100 H
b10 ?
b10 O
b10 t
b10 #"
b10 Y
b1110011000000110001111000101001000000011010111010111001100110001101100011110100000010111010000100001000011000011111011010100100 S
b1110011000000110001111000101001000000011010111010111001100110001101100011110100000010111010000100001000011000011111011010100100 X
b1000011000011111011010100100 d
b11011000111101000000101110100001 c
b1101011101011100110011000 b
b1110011000000110001111000101001 a
b11 \
b10 e
b10 f
b11010000 h
b10010101111111010000010111010000 i
b11010000100101011111110100000101 g
b101001000000000110101100111110 `
b1011010000000110111010100010111011100101010110110100111101100011101100101011010101100100011100111010000100101011111110100000101 ]
b1011010000000110111010100010111011100101010110110100111101100011101100101011010101100100011100111010000100101011111110100000101 ^
b10 _
1$
#270000
0$
b10001 %
b10000 2"
b11001001111011110001110111110101000001111010011100010001010110011000100110001100110001010001011100000001101110000011100110100 3"
