veriloged/aes_tb.vcd
$date
	Thu Sep 25 12:53:12 2025
$end
$version
	Icarus Verilog
$end
$timescale
	1ps
$end
$scope module aes_tb $end
$var wire 128 ! matrix_state [127:0] $end
$var wire 32 " dword_out [31:0] $end
$var wire 1 # done $end
$var reg 1 $ clk $end
$var reg 32 % cycles [31:0] $end
$var reg 32 & dword_in [31:0] $end
$var reg 128 ' key [127:0] $end
$var reg 128 ( plaintext [127:0] $end
$var reg 1 ) reset_n $end
$var reg 1 * start_n $end
$var reg 1 + start_read_n $end
$var integer 32 , matrix_file [31:0] $end
$scope module uut $end
$var wire 1 $ clk $end
$var wire 32 - dword_in [31:0] $end
$var wire 32 . dword_out [31:0] $end
$var wire 1 ) reset_n $end
$var wire 1 * start_n $end
$var wire 1 + start_read_n $end
$var wire 1 / write_enable $end
$var wire 32 0 state_word [31:0] $end
$var wire 32 1 shifted_row [31:0] $end
$var wire 32 2 sbox_out [31:0] $end
$var wire 1 3 row_col_sel $end
$var wire 2 4 row_col_index [1:0] $end
$var wire 32 5 round_key [31:0] $end
$var wire 4 6 round_index [3:0] $end
$var wire 1 7 output_mat_row_col $end
$var wire 2 8 output_mat_idx [1:0] $end
$var wire 32 9 mixed_col [31:0] $end
$var wire 4 : matrix_in_sel [3:0] $end
$var wire 1 ; key_start $end
$var wire 1 < key_done $end
$var wire 1 # done $end
$var wire 128 = dbg_state [127:0] $end
$var wire 6 > current_state [5:0] $end
$var wire 2 ? count_4 [1:0] $end
$var wire 32 @ ark_out [31:0] $end
$var reg 32 A dmatrix_in [31:0] $end
$scope module ark $end
$var wire 32 B state_out [31:0] $end
$var wire 32 C state_in [31:0] $end
$var wire 32 D round_key [31:0] $end
$upscope $end
$scope module datamatrix $end
$var wire 1 $ clk $end
$var wire 32 E col_in [31:0] $end
$var wire 1 ) reset_n $end
$var wire 1 / write_enable $end
$var wire 1 7 output_row_col $end
$var wire 2 F output_idx [1:0] $end
$var wire 1 3 input_row_col $end
$var wire 2 G input_idx [1:0] $end
$var wire 128 H debug_state [127:0] $end
$var reg 32 I out [31:0] $end
$var integer 32 J i [31:0] $end
$upscope $end
$scope module ke $end
$var wire 32 K cipher_key [31:0] $end
$var wire 1 $ clk $end
$var wire 1 L reset $end
$var wire 1 ; start $end
$var wire 4 M round_key_num [3:0] $end
$var wire 2 N r_index [1:0] $end
$var reg 128 O current_key [127:0] $end
$var reg 1 < done $end
$var reg 128 P key_reg [127:0] $end
$var reg 2 Q load_count [1:0] $end
$var reg 1 R loading $end
$var reg 6 S round_ctr [5:0] $end
$var reg 32 T round_key [31:0] $end
$var reg 2 U state [1:0] $end
$scope function get_word $end
$upscope $end
$scope function next_word $end
$upscope $end
$scope function rcon $end
$var reg 8 V rc [7:0] $end
$var integer 32 W i [31:0] $end
$upscope $end
$scope function rot_word $end
$var reg 32 X w [31:0] $end
$upscope $end
$scope function sbox_lookup $end
$var reg 8 Y byte_in [7:0] $end
$upscope $end
$scope function sub_word $end
$var reg 32 Z w [31:0] $end
$upscope $end
$scope begin $ivl_for_loop0 $end
$var integer 32 [ r [31:0] $end
$upscope $end
$scope begin $unm_blk_31 $end
$var reg 32 \ after_rot [31:0] $end
$var reg 32 ] after_sub_rcon [31:0] $end
$var reg 32 ^ new_word [31:0] $end
$var reg 32 _ temp [31:0] $end
$upscope $end
$upscope $end
$scope module mc $end
$var wire 32 ` col_in [31:0] $end
$var wire 8 a s3 [7:0] $end
$var wire 8 b s2 [7:0] $end
$var wire 8 c s1 [7:0] $end
$var wire 8 d s0 [7:0] $end
$var wire 32 e col_out [31:0] $end
$scope function mul_by_3 $end
$var reg 8 f byte_in [7:0] $end
$upscope $end
$scope function xtime $end
$var reg 8 g byte_in [7:0] $end
$upscope $end
$upscope $end
$scope module sb $end
$var wire 32 h row_in [31:0] $end
$var wire 32 i row_out [31:0] $end
$scope function sbox_lookup $end
$var reg 8 j byte_in [7:0] $end
$upscope $end
$upscope $end
$scope module sm $end
$var wire 1 $ clock $end
$var wire 2 k count_4_out [1:0] $end
$var wire 1 < key_expand_done $end
$var wire 1 ) reset_n $end
$var wire 1 + start_read_n $end
$var wire 1 * start_write_n $end
$var parameter 6 l ADDROUNDKEY $end
$var parameter 6 m COMPUTE_ROUNDKEYS $end
$var parameter 6 n CTEXT_READ $end
$var parameter 6 o ENCRYPTION_DONE $end
$var parameter 6 p IDLE $end
$var parameter 6 q INIT_ADDROUNDKEY $end
$var parameter 6 r KEY_WRITE $end
$var parameter 6 s MIXCOLUMNS $end
$var parameter 4 t NUM_ROUNDS $end
$var parameter 6 u PTEXT_WRITE $end
$var parameter 6 v SHIFTROWS $end
$var parameter 6 w SUBBYTES $end
$var reg 2 x count_4 [1:0] $end
$var reg 6 y current_state [5:0] $end
$var reg 4 z dbg_round [3:0] $end
$var reg 6 { dbg_state [5:0] $end
$var reg 1 # done $end
$var reg 2 | input_mat_idx [1:0] $end
$var reg 1 3 input_mat_row_col $end
$var reg 1 ; key_start $end
$var reg 4 } matrix_in_sel [3:0] $end
$var reg 1 / matrix_write_enable $end
$var reg 2 ~ next_count_4 [1:0] $end
$var reg 4 !" next_round_counter [3:0] $end
$var reg 6 "" next_state [5:0] $end
$var reg 2 #" output_mat_idx [1:0] $end
$var reg 1 7 output_mat_row_col $end
$var reg 4 $" round_counter [3:0] $end
$upscope $end
$scope module sr $end
$var wire 2 %" idx_row [1:0] $end
$var wire 32 &" row_in [31:0] $end
$var wire 32 '" row_out [31:0] $end
$var reg 32 (" row_out_reg [31:0] $end
$upscope $end
$upscope $end
$scope task printMatrix $end
$var reg 32 )" cycle [31:0] $end
$var reg 128 *" matrix_state [127:0] $end
$upscope $end
$upscope $end
$enddefinitions $end
$comment Show the parameter values. $end
$dumpall
b100 w
b101 v
b1 u
b1010 t
b110 s
b10 r
b1010 q
b0 p
b1000 o
b1001 n
b11 m
b111 l
$end
#0
$dumpvars
bx *"
bx )"
b0 ("
b0 '"
b0 &"
b0 %"
b0 $"
b0 #"
b0 ""
b0 !"
b0 ~
b0 }
b0 |
b0 {
b0 z
b0 y
b0 x
b0 k
b0 j
b1100011011000110110001101100011 i
b0 h
b0 g
b0 f
b0 e
b0 d
b0 c
b0 b
b0 a
b0 `
bx _
bx ^
bx ]
bx \
b0 [
bx Z
bx Y
bx X
bx W
bx V
b0 U
bx T
b0 S
0R
b0 Q
b0 P
bx O
b0 N
b0 M
1L
b0 K
b10000 J
b0 I
b0 H
b0 G
b0 F
b0 E
bx D
b0 C
bx B
b0 A
bx @
b0 ?
b0 >
b0 =
0<
0;
b0 :
b0 9
b0 8
07
b0 6
bx 5
b0 4
03
b1100011011000110110001101100011 2
b0 1
b0 0
0/
b0 .
b0 -
b10000000000000000000000000000011 ,
1+
1*
0)
b110010010000111111011010101000100010000101101000110000100011010011000100110001100110001010001011100000001101110000011100110100 (
b101011011111100001010100010110001010001010111011010010101001101010101111110111000101011000100000001001110011110100111100111100 '
b0 &
b0 %
0$
0#
b0 "
b0 !
$end
#5000
b10000 J
1$
#10000
0$
#15000
b10000 J
1$
#20000
b110010010000111111011010101000 A
b110010010000111111011010101000 E
b1 ""
0$
b110010010000111111011010101000 &
b110010010000111111011010101000 -
b110010010000111111011010101000 K
0*
0L
1)
#25000
b1 >
b1 {
13
1/
b1 ~
b1 y
1$
#30000
b1 ~
0$
1*
#35000
b1100100001100100011001001010110 9
b1100100001100100011001001010110 e
b110010 g
b110010 f
b100011011000110110001101100011 2
b100011011000110110001101100011 i
b110010 j
b110010 d
b110010 1
b110010 '"
b110010 ("
b1 4
b1 G
b1 |
b1 %"
13
b10 ~
b110010000000000000000000000000 "
b110010000000000000000000000000 .
b110010000000000000000000000000 0
b110010000000000000000000000000 C
b110010000000000000000000000000 I
b110010000000000000000000000000 `
b110010000000000000000000000000 h
b110010000000000000000000000000 &"
b1 ?
b1 N
b1 k
b1 x
b110010010000111111011010101000000000000000000000000000000000000000000000000000000000000000000000000000000000000000000000000000 !
b110010010000111111011010101000000000000000000000000000000000000000000000000000000000000000000000000000000000000000000000000000 =
b110010010000111111011010101000000000000000000000000000000000000000000000000000000000000000000000000000000000000000000000000000 H
1$
#40000
b10001000010110100011000010001101 A
b10001000010110100011000010001101 E
0$
b10001000010110100011000010001101 &
b10001000010110100011000010001101 -
b10001000010110100011000010001101 K
#45000
b11100111001110011011101011011110 9
b11100111001110011011101011011110 e
b10001000 f
b10001000 g
b100011110001000110001101100011 2
b100011110001000110001101100011 i
b10001000 j
b10001000 c
b11001010001000 1
b11001010001000 '"
b11001010001000 ("
b110010100010000000000000000000 "
b110010100010000000000000000000 .
b110010100010000000000000000000 0
b110010100010000000000000000000 C
b110010100010000000000000000000 I
b110010100010000000000000000000 `
b110010100010000000000000000000 h
b110010100010000000000000000000 &"
b10 4
b10 G
b10 |
b10 %"
13
b11 ~
b110010010000111111011010101000100010000101101000110000100011010000000000000000000000000000000000000000000000000000000000000000 !
b110010010000111111011010101000100010000101101000110000100011010000000000000000000000000000000000000000000000000000000000000000 =
b110010010000111111011010101000100010000101101000110000100011010000000000000000000000000000000000000000000000000000000000000000 H
b10 ?
b10 N
b10 k
b10 x
1$
#50000
b110001001100011001100010100010 A
b110001001100011001100010100010 E
0$
b110001001100011001100010100010 &
b110001001100011001100010100010 -
b110001001100011001100010100010 K
#55000
b11010110011010101101100011101111 9
b11010110011010101101100011101111 e
b110001 f
b110001 g
b100011110001001100011101100011 2
b100011110001001100011101100011 i
b110001 j
b110001 b
b1100101000100000110001 1
b1100101000100000110001 '"
b1100101000100000110001 ("
1;
b11 4
b11 G
b11 |
b11 %"
13
b0 ~
b10 ""
b110010100010000011000100000000 "
b110010100010000011000100000000 .
b110010100010000011000100000000 0
b110010100010000011000100000000 C
b110010100010000011000100000000 I
b110010100010000011000100000000 `
b110010100010000011000100000000 h
b110010100010000011000100000000 &"
b11 ?
b11 N
b11 k
b11 x
b110010010000111111011010101000100010000101101000110000100011010011000100110001100110001010001000000000000000000000000000000000 !
b110010010000111111011010101000100010000101101000110000100011010011000100110001100110001010001000000000000000000000000000000000 =
b110010010000111111011010101000100010000101101000110000100011010011000100110001100110001010001000000000000000000000000000000000 H
1$
#60000
b11100000001101110000011100110100 A
b11100000001101110000011100110100 E
0$
b11100000001101110000011100110100 &
b11100000001101110000011100110100 -
b11100000001101110000011100110100 K
#65000
b11100000 f
b11100000 g
b110110100010101110001100110100 9
b110110100010101110001100110100 e
b100011110001001100011111100001 2
b100011110001001100011111100001 i
b11100000 j
b11100000 a
bx A
bx E
b110010100010000011000111100000 1
b110010100010000011000111100000 '"
b110010100010000011000111100000 ("
b110010100010000011000111100000 "
b110010100010000011000111100000 .
b110010100010000011000111100000 0
b110010100010000011000111100000 C
b110010100010000011000111100000 I
b110010100010000011000111100000 `
b110010100010000011000111100000 h
b110010100010000011000111100000 &"
0;
b10 >
b10 {
0/
bx :
bx }
b0 4
b0 G
b0 |
b0 %"
03
b1 ~
b110010010000111111011010101000100010000101101000110000100011010011000100110001100110001010001011100000001101110000011100110100 !
b110010010000111111011010101000100010000101101000110000100011010011000100110001100110001010001011100000001101110000011100110100 =
b110010010000111111011010101000100010000101101000110000100011010011000100110001100110001010001011100000001101110000011100110100 H
b0 ?
b0 N
b0 k
b0 x
b10 y
b1 U
1R
1$
#70000
0$
b101011011111100001010100010110 &
b101011011111100001010100010110 -
b101011011111100001010100010110 K
#75000
b10001000001100011110000000110010 1
b10001000001100011110000000110010 '"
b10001000001100011110000000110010 ("
b1 4
b1 G
b1 |
b1 %"
b10 ~
b1 ?
b1 N
b1 k
b1 x
b1 Q
b101011011111100001010100010110000000000000000000000000000000000000000000000000000000000000000000000000000000000000000000000000 P
1$
#80000
0$
b101000101011101101001010100110 &
b101000101011101101001010100110 -
b101000101011101101001010100110 K
#85000
b110001111000000011001010001000 1
b110001111000000011001010001000 '"
b110001111000000011001010001000 ("
b10 4
b10 G
b10 |
b10 %"
b11 ~
b10 ?
b10 N
b10 k
b10 x
b10 Q
b101011011111100001010100010110001010001010111011010010101001100000000000000000000000000000000000000000000000000000000000000000 P
1$
#90000
0$
b10101011111101110001010110001000 &
b10101011111101110001010110001000 -
b10101011111101110001010110001000 K
#95000
b11100000001100101000100000110001 1
b11100000001100101000100000110001 '"
b11100000001100101000100000110001 ("
b11 4
b11 G
b11 |
b11 %"
b0 ~
b11 ""
b11 ?
b11 N
b11 k
b11 x
b11 Q
b101011011111100001010100010110001010001010111011010010101001101010101111110111000101011000100000000000000000000000000000000000 P
1$
#100000
0$
b1001110011110100111100111100 &
b1001110011110100111100111100 -
b1001110011110100111100111100 K
#105000
b110010100010000011000111100000 1
b110010100010000011000111100000 '"
b110010100010000011000111100000 ("
b11 >
b11 {
b0 4
b0 G
b0 |
b0 %"
b0 ?
b0 N
b0 k
b0 x
b11 y
b0 Q
0R
b101011011111100001010100010110001010001010111011010010101001101010101111110111000101011000100000001001110011110100111100111100 P
1$
#110000
0$
b1 %
b0 )"
b110010010000111111011010101000100010000101101000110000100011010011000100110001100110001010001011100000001101110000011100110100 *"
#115000
b11001111101100010010011110110 @
b11001111101100010010011110110 B
b101011011111100001010100010110 5
b101011011111100001010100010110 D
b101011011111100001010100010110 T
b10 U
b100 S
b101011011111100001010100010110001010001010111011010010101001101010101111110111000101011000100000001001110011110100111100111100 O
1$
#120000
0$
b10 %
b1 )"
#125000
b101 S
b10100000111110101111111000010111 ^
b10001011100001001110101100000001 ]
b1 V
b1 W
b1001 Y
b11001111010011110011110000001001 Z
b11001111010011110011110000001001 \
b1001110011110100111100111100 X
b1001110011110100111100111100 _
1$
#130000
0$
b11 %
b10 )"
#135000
b110 S
b10001000010101000010110010110001 ^
b10100000111110101111111000010111 ]
b10100000111110101111111000010111 \
b10100000111110101111111000010111 _
1$
#140000
0$
b100 %
b11 )"
#145000
b111 S
b100011101000110011100100111001 ^
b10001000010101000010110010110001 ]
b10001000010101000010110010110001 \
b10001000010101000010110010110001 _
1$
#150000
0$
b101 %
b100 )"
#155000
b1000 S
b101010011011000111011000000101 ^
b100011101000110011100100111001 ]
b100011101000110011100100111001 \
b100011101000110011100100111001 _
1$
#160000
0$
b110 %
b101 )"
#165000
b1001 S
b11110010110000101001010111110010 ^
b1010010001110000110101111100101 ]
b10 V
b10 W
b101010 Y
b1101100011101100000010100101010 Z
b1101100011101100000010100101010 \
b101010011011000111011000000101 X
b101010011011000111011000000101 _
1$
#170000
0$
b111 %
b110 )"
#175000
b1010 S
b1111010100101101011100101000011 ^
b11110010110000101001010111110010 ]
b11110010110000101001010111110010 \
b11110010110000101001010111110010 _
1$
#180000
0$
b1000 %
b111 )"
#185000
b1011 S
b1011001001101011000000001111010 ^
b1111010100101101011100101000011 ]
b1111010100101101011100101000011 \
b1111010100101101011100101000011 _
1$
#190000
0$
b1001 %
b1000 )"
#195000
b1100 S
b1110011010110011111011001111111 ^
b1011001001101011000000001111010 ]
b1011001001101011000000001111010 \
b1011001001101011000000001111010 _
1$
#200000
0$
b1010 %
b1001 )"
#205000
b1101 S
b111101100000000100011101111101 ^
b11001111010000101101001010001111 ]
b100 V
b11 W
b1110011 Y
b1011001111101100111111101110011 Z
b1011001111101100111111101110011 \
b1110011010110011111011001111111 X
b1110011010110011111011001111111 _
1$
#210000
0$
b1011 %
b1010 )"
#215000
b1110 S
b1000111000101101111111000111110 ^
b111101100000000100011101111101 ]
b111101100000000100011101111101 \
b111101100000000100011101111101 _
1$
#220000
0$
b1100 %
b1011 )"
#225000
b1111 S
b11110001000110111111001000100 ^
b1000111000101101111111000111110 ]
b1000111000101101111111000111110 \
b1000111000101101111111000111110 _
1$
#230000
0$
b1101 %
b1100 )"
#235000
b10000 S
b1101101011110101000100000111011 ^
b11110001000110111111001000100 ]
b11110001000110111111001000100 \
b11110001000110111111001000100 _
1$
#240000
0$
b1110 %
b1101 )"
#245000
b10001 S
b11101111010001001010010101000001 ^
b11010010110001001110001000111100 ]
b1000 V
b100 W
b1101101 Y
b1111010100010000011101101101101 Z
b1111010100010000011101101101101 \
b1101101011110101000100000111011 X
b1101101011110101000100000111011 _
1$
#250000
0$
b1111 %
b1110 )"
#255000
b10010 S
b10101000010100100101101101111111 ^
b11101111010001001010010101000001 ]
b11101111010001001010010101000001 \
b11101111010001001010010101000001 _
1$
#260000
0$
b10000 %
b1111 )"
#265000
b10011 S
b10110110011100010010010100111011 ^
b10101000010100100101101101111111 ]
b10101000010100100101101101111111 \
b10101000010100100101101101111111 _
1$
#270000
0$
b10001 %
b10000 )"
#275000
b10100 S
b11011011000010111010110100000000 ^
b10110110011100010010010100111011 ]
b10110110011100010010010100111011 \
b10110110011100010010010100111011 _
1$
#280000
0$
b10010 %
b10001 )"
#285000
b10101 S
b11010100110100011100011011111000 ^
b111011100101010110001110111001 ]
b10000 V
b101 W
b11011011 Y
b1011101011010000000011011011 Z
b1011101011010000000011011011 \
b11011011000010111010110100000000 X
b11011011000010111010110100000000 _
1$
#290000
0$
b10011 %
b10010 )"
#295000
b10110 S
b1111100100000111001110110000111 ^
b11010100110100011100011011111000 ]
b11010100110100011100011011111000 \
b11010100110100011100011011111000 _
1$
#300000
0$
b10100 %
b10011 )"
#305000
b10111 S
b11001010111100101011100010111100 ^
b1111100100000111001110110000111 ]
b1111100100000111001110110000111 \
b1111100100000111001110110000111 _
1$
#310000
0$
b10101 %
b10100 )"
#315000
b11000 S
b10001111110010001010110111100 ^
b11001010111100101011100010111100 ]
b11001010111100101011100010111100 \
b11001010111100101011100010111100 _
1$
#320000
0$
b10110 %
b10101 )"
#325000
b11001 S
b1101101100010001010001101111010 ^
b10111001010110010110010110000010 ]
b100000 V
b110 W
b10001 Y
b11111001000101011011110000010001 Z
b11111001000101011011110000010001 \
b10001111110010001010110111100 X
b10001111110010001010110111100 _
1$
#330000
0$
b10111 %
b10110 )"
#335000
b11010 S
b10001000010110011111011111101 ^
b1101101100010001010001101111010 ]
b1101101100010001010001101111010 \
b1101101100010001010001101111010 _
1$
#340000
0$
b11000 %
b10111 )"
#345000
b11011 S
b11011011111110011000011001000001 ^
b10001000010110011111011111101 ]
b10001000010110011111011111101 \
b10001000010110011111011111101 _
1$
#350000
0$
b11001 %
b11000 )"
#355000
b11100 S
b11001010000000001001001111111101 ^
b11011011111110011000011001000001 ]
b11011011111110011000011001000001 \
b11011011111110011000011001000001 _
1$
#360000
0$
b11010 %
b11001 )"
#365000
b11101 S
b1001110010101001111011100001110 ^
b100011110111000101010001110100 ]
b1000000 V
b111 W
b11001010 Y
b100100111111110111001010 Z
b100100111111110111001010 \
b11001010000000001001001111111101 X
b11001010000000001001001111111101 _
1$
#370000
0$
b11011 %
b11010 )"
#375000
b11110 S
b1011111010111111100100111110011 ^
b1001110010101001111011100001110 ]
b1001110010101001111011100001110 \
b1001110010101001111011100001110 _
1$
#380000
0$
b11100 %
b11011 )"
#385000
b11111 S
b10000100101001100100111110110010 ^
b1011111010111111100100111110011 ]
b1011111010111111100100111110011 \
b1011111010111111100100111110011 _
1$
#390000
0$
b11101 %
b11100 )"
#395000
b100000 S
b1001110101001101101110001001111 ^
b10000100101001100100111110110010 ]
b10000100101001100100111110110010 \
b10000100101001100100111110110010 _
1$
#400000
0$
b11110 %
b11101 )"
#405000
b100001 S
b11101010110100100111001100100001 ^
b10100100100001101000010000101111 ]
b10000000 V
b1000 W
b1001110 Y
b10100110110111000100111101001110 Z
b10100110110111000100111101001110 \
b1001110101001101101110001001111 X
b1001110101001101101110001001111 _
1$
#410000
0$
b11111 %
b11110 )"
#415000
b100010 S
b10110101100011011011101011010010 ^
b11101010110100100111001100100001 ]
b11101010110100100111001100100001 \
b11101010110100100111001100100001 _
1$
#420000
0$
b100000 %
b11111 )"
#425000
b100011 S
b110001001010111111010101100000 ^
b10110101100011011011101011010010 ]
b10110101100011011011101011010010 \
b10110101100011011011101011010010 _
1$
#430000
0$
b100001 %
b100000 )"
#435000
b100100 S
b1111111100011010010100100101111 ^
b110001001010111111010101100000 ]
b110001001010111111010101100000 \
b110001001010111111010101100000 _
1$
#440000
0$
b100010 %
b100001 )"
#445000
b100101 S
b10101100011101110110011011110011 ^
b1000110101001010001010111010010 ]
b11011 V
b1001 W
b1111111 Y
b10001101001010010010111101111111 Z
b10001101001010010010111101111111 \
b1111111100011010010100100101111 X
b1111111100011010010100100101111 _
1$
#450000
0$
b100011 %
b100010 )"
#455000
b100110 S
b11001111110101101110000100001 ^
b10101100011101110110011011110011 ]
b10101100011101110110011011110011 \
b10101100011101110110011011110011 _
1$
#460000
0$
b100100 %
b100011 )"
#465000
b100111 S
b101000110100010010100101000001 ^
b11001111110101101110000100001 ]
b11001111110101101110000100001 \
b11001111110101101110000100001 _
1$
#470000
0$
b100101 %
b100100 )"
#475000
b101000 S
b1010111010111000000000001101110 ^
b101000110100010010100101000001 ]
b101000110100010010100101000001 \
b101000110100010010100101000001 _
1$
#480000
0$
b100110 %
b100101 )"
#485000
b101001 S
b11010000000101001111100110101000 ^
b1111100011000111001111101011011 ]
b110110 V
b1010 W
b1010111 Y
b1011100000000000110111001010111 Z
b1011100000000000110111001010111 \
b1010111010111000000000001101110 X
b1010111010111000000000001101110 _
1$
#490000
0$
b100111 %
b100110 )"
#495000
b101010 S
b11001001111011100010010110001001 ^
b11010000000101001111100110101000 ]
b11010000000101001111100110101000 \
b11010000000101001111100110101000 _
1$
#500000
0$
b101000 %
b100111 )"
#505000
b101011 S
b11100001001111110000110011001000 ^
b11001001111011100010010110001001 ]
b11001001111011100010010110001001 \
b11001001111011100010010110001001 _
1$
#510000
0$
b101001 %
b101000 )"
#515000
b101100 S
b10110110011000110000110010100110 ^
b11100001001111110000110011001000 ]
b11100001001111110000110011001000 \
b11100001001111110000110011001000 _
1$
#520000
0$
b101010 %
b101001 )"
#525000
b11 U
b1011 [
1$
#530000
0$
b101011 %
b101010 )"
#535000
b1010 ""
b0 U
1<
1$
#540000
0$
b101100 %
b101011 )"
#545000
b1000011 f
b1000011 g
b11111111000111010110010110101000 9
b11111111000111010110010110101000 e
b100011000110100100001011000010 2
b100011000110100100001011000010 i
b1000011 j
b1000011 c
b11110110 b
b10101000 a
b11001001111011110001110111110 @
b11001001111011110001110111110 B
b110010010000111111011010101000 1
b110010010000111111011010101000 '"
b110010010000111111011010101000 ("
b110010010000111111011010101000 "
b110010010000111111011010101000 .
b110010010000111111011010101000 0
b110010010000111111011010101000 C
b110010010000111111011010101000 I
b110010010000111111011010101000 `
b110010010000111111011010101000 h
b110010010000111111011010101000 &"
b11001001111011110001110111110 A
b11001001111011110001110111110 E
b1010 >
b1010 {
17
13
1/
b100 :
b100 }
b1 ~
b1010 y
1$
#550000
0$
b101101 %
b101100 )"
#555000
b10001000 f
b10001000 g
b1011000111000010011111011101000 9
b1011000111000010011111011101000 e
b11000100101111100000010001011101 2
b11000100101111100000010001011101 i
b10001000 j
b10100000111101001110001000101011 A
b10100000111101001110001000101011 E
b10001000 d
b1011010 c
b110000 b
b10001101 a
b10100000111101001110001000101011 @
b10100000111101001110001000101011 B
b1011010001100001000110110001000 1
b1011010001100001000110110001000 '"
b1011010001100001000110110001000 ("
b1 8
b1 F
b1 #"
b1 4
b1 G
b1 |
b1 %"
17
13
b10 ~
b101000101011101101001010100110 5
b101000101011101101001010100110 D
b101000101011101101001010100110 T
b10001000010110100011000010001101 "
b10001000010110100011000010001101 .
b10001000010110100011000010001101 0
b10001000010110100011000010001101 C
b10001000010110100011000010001101 I
b10001000010110100011000010001101 `
b10001000010110100011000010001101 h
b10001000010110100011000010001101 &"
b1 ?
b1 N
b1 k
b1 x
b11001001111011110001110111110100010000101101000110000100011010011000100110001100110001010001011100000001101110000011100110100 !
b11001001111011110001110111110100010000101101000110000100011010011000100110001100110001010001011100000001101110000011100110100 =
b11001001111011110001110111110100010000101101000110000100011010011000100110001100110001010001011100000001101110000011100110100 H
1$
#560000
0$
b101110 %
b101101 )"
b11001001111011110001110111110100010000101101000110000100011010011000100110001100110001010001011100000001101110000011100110100 *"
#565000
b110001 f
b110001 g
b1011010000101101011010100101 9
b1011010000101101011010100101 e
b11000111110001110100011000111010 2
b11000111110001110100011000111010 i
b110001 j
b10011010110001101000110100101010 A
b10011010110001101000110100101010 E
b110001 d
b110001 c
b10011000 b
b10100010 a
b10011000101000100011000100110001 1
b10011000101000100011000100110001 '"
b10011000101000100011000100110001 ("
b10011010110001101000110100101010 @
b10011010110001101000110100101010 B
b110001001100011001100010100010 "
b110001001100011001100010100010 .
b110001001100011001100010100010 0
b110001001100011001100010100010 C
b110001001100011001100010100010 I
b110001001100011001100010100010 `
b110001001100011001100010100010 h
b110001001100011001100010100010 &"
b10 8
b10 F
b10 #"
17
b10 4
b10 G
b10 |
b10 %"
13
b11 ~
b10101011111101110001010110001000 5
b10101011111101110001010110001000 D
b10101011111101110001010110001000 T
b11001001111011110001110111110101000001111010011100010001010110011000100110001100110001010001011100000001101110000011100110100 !
b11001001111011110001110111110101000001111010011100010001010110011000100110001100110001010001011100000001101110000011100110100 =
b11001001111011110001110111110101000001111010011100010001010110011000100110001100110001010001011100000001101110000011100110100 H
b10 ?
b10 N
b10 k
b10 x
1$
#570000
0$
b101111 %
b101110 )"
b11001001111011110001110111110101000001111010011100010001010110011000100110001100110001010001011100000001101110000011100110100 *"
#575000
b11100000 f
b11100000 g
b10110001101100111000010101100011 9
b10110001101100111000010101100011 e
b11100001100110101100010100011000 2
b11100001100110101100010100011000 i
b11100000 j
b11101001111110000100100000001000 A
b11101001111110000100100000001000 E
b11100000 d
b110111 c
b111 b
b110100 a
b11101001111110000100100000001000 @
b11101001111110000100100000001000 B
b110100111000000011011100000111 1
b110100111000000011011100000111 '"
b110100111000000011011100000111 ("
b11 8
b11 F
b11 #"
17
b11 4
b11 G
b11 |
b11 %"
13
b1 !"
b0 ~
b100 ""
b1001110011110100111100111100 5
b1001110011110100111100111100 D
b1001110011110100111100111100 T
b11100000001101110000011100110100 "
b11100000001101110000011100110100 .
b11100000001101110000011100110100 0
b11100000001101110000011100110100 C
b11100000001101110000011100110100 I
b11100000001101110000011100110100 `
b11100000001101110000011100110100 h
b11100000001101110000011100110100 &"
b11 ?
b11 N
b11 k
b11 x
b11001001111011110001110111110101000001111010011100010001010111001101011000110100011010010101011100000001101110000011100110100 !
b11001001111011110001110111110101000001111010011100010001010111001101011000110100011010010101011100000001101110000011100110100 =
b11001001111011110001110111110101000001111010011100010001010111001101011000110100011010010101011100000001101110000011100110100 H
1$
#580000
0$
b110000 %
b101111 )"
b11001001111011110001110111110101000001111010011100010001010111001101011000110100011010010101011100000001101110000011100110100 *"
#585000
b11001 f
b11001 g
b101000111000110010000010010010 9
b101000111000110010000010010010 e
b11010100001001110001000110101110 2
b11010100001001110001000110101110 i
b11001 j
b11001 d
b111101 c
b11100011 b
b10111110 a
b10111001110001110001110110101001 @
b10111001110001110001110110101001 B
b11010100001001110001000110101110 A
b11010100001001110001000110101110 E
b11001001111011110001110111110 1
b11001001111011110001110111110 '"
b11001001111011110001110111110 ("
b11001001111011110001110111110 "
b11001001111011110001110111110 .
b11001001111011110001110111110 0
b11001001111011110001110111110 C
b11001001111011110001110111110 I
b11001001111011110001110111110 `
b11001001111011110001110111110 h
b11001001111011110001110111110 &"
b10100000111110101111111000010111 5
b10100000111110101111111000010111 D
b10100000111110101111111000010111 T
b1 6
b1 M
b1 z
b100 >
b100 {
b1 :
b1 }
b0 8
b0 F
b0 #"
17
b0 4
b0 G
b0 |
b0 %"
13
b1 ~
b11001001111011110001110111110101000001111010011100010001010111001101011000110100011010010101011101001111110000100100000001000 !
b11001001111011110001110111110101000001111010011100010001010111001101011000110100011010010101011101001111110000100100000001000 =
b11001001111011110001110111110101000001111010011100010001010111001101011000110100011010010101011101001111110000100100000001000 H
b0 ?
b0 N
b0 k
b0 x
b1 $"
b100 y
1$
#590000
0$
b110001 %
b110000 )"
b11001001111011110001110111110101000001111010011100010001010111001101011000110100011010010101011101001111110000100100000001000 *"
#595000
b11100000101111111001100011110001 A
b11100000101111111001100011110001 E
b10100000 f
b10100000 g
b10010101010001011111011010111011 9
b10010101010001011111011010111011 e
b11100000101111111001100011110001 2
b11100000101111111001100011110001 i
b10100000 j
b10100000 d
b11110100 c
b11100010 b
b101011 a
b101000101000001100111010011010 @
b101000101000001100111010011010 B
b11110100111000100010101110100000 1
b11110100111000100010101110100000 '"
b11110100111000100010101110100000 ("
b1 8
b1 F
b1 #"
b1 4
b1 G
b1 |
b1 %"
17
13
b10 ~
b10001000010101000010110010110001 5
b10001000010101000010110010110001 D
b10001000010101000010110010110001 T
b10100000111101001110001000101011 "
b10100000111101001110001000101011 .
b10100000111101001110001000101011 0
b10100000111101001110001000101011 C
b10100000111101001110001000101011 I
b10100000111101001110001000101011 `
b10100000111101001110001000101011 h
b10100000111101001110001000101011 &"
b1 ?
b1 N
b1 k
b1 x
b11010100001001110001000110101110101000001111010011100010001010111001101011000110100011010010101011101001111110000100100000001000 !
b11010100001001110001000110101110101000001111010011100010001010111001101011000110100011010010101011101001111110000100100000001000 =
b11010100001001110001000110101110101000001111010011100010001010111001101011000110100011010010101011101001111110000100100000001000 H
1$
#600000
0$
b110010 %
b110001 )"
b11010100001001110001000110101110101000001111010011100010001010111001101011000110100011010010101011101001111110000100100000001000 *"
