veriloged/aes_tb.vcd
$date
	Wed Sep 24 11:25:11 2025
$end
$version
	Icarus Verilog
$end
$timescale
	1ps
$end
$scope module aes_tb $end
$var wire 128 ! matrix_state [127:0] $end
$var wire 32 " dword_out [31:0] $end
$var wire 1 # done $end
$var reg 1 $ clk $end
$var reg 32 % cycles [31:0] $end
$var reg 32 & dword_in [31:0] $end
$var reg 128 ' key [127:0] $end
$var reg 128 ( plaintext [127:0] $end
$var reg 1 ) reset_n $end
$var reg 1 * start_n $end
$var reg 1 + start_read_n $end
$var integer 32 , matrix_file [31:0] $end
$scope module uut $end
$var wire 1 $ clk $end
$var wire 32 - dword_in [31:0] $end
$var wire 32 . dword_out [31:0] $end
$var wire 1 ) reset_n $end
$var wire 1 * start_n $end
$var wire 1 + start_read_n $end
$var wire 1 / write_enable $end
$var wire 32 0 state_word [31:0] $end
$var wire 32 1 shifted_row [31:0] $end
$var wire 32 2 sbox_out [31:0] $end
$var wire 1 3 row_col_sel $end
$var wire 2 4 row_col_index [1:0] $end
$var wire 32 5 round_key [31:0] $end
$var wire 4 6 round_index [3:0] $end
$var wire 1 7 output_mat_row_col $end
$var wire 2 8 output_mat_idx [1:0] $end
$var wire 32 9 mixed_col [31:0] $end
$var wire 4 : matrix_in_sel [3:0] $end
$var wire 1 ; key_start $end
$var wire 1 < key_done $end
$var wire 1 # done $end
$var wire 128 = dbg_state [127:0] $end
$var wire 6 > current_state [5:0] $end
$var wire 2 ? count_4 [1:0] $end
$var wire 32 @ ark_out [31:0] $end
$var reg 32 A dmatrix_in [31:0] $end
$scope module ark $end
$var wire 32 B state_out [31:0] $end
$var wire 32 C state_in [31:0] $end
$var wire 32 D round_key [31:0] $end
$upscope $end
$scope module datamatrix $end
$var wire 1 $ clk $end
$var wire 32 E col_in [31:0] $end
$var wire 1 ) reset_n $end
$var wire 1 / write_enable $end
$var wire 1 7 output_row_col $end
$var wire 2 F output_idx [1:0] $end
$var wire 1 3 input_row_col $end
$var wire 2 G input_idx [1:0] $end
$var wire 128 H debug_state [127:0] $end
$var reg 32 I out [31:0] $end
$var integer 32 J i [31:0] $end
$upscope $end
$scope module ke $end
$var wire 32 K cipher_key [31:0] $end
$var wire 1 $ clk $end
$var wire 128 L dbg_curr_round_key [127:0] $end
$var wire 1 M reset $end
$var wire 1 ; start $end
$var wire 4 N round_key_num [3:0] $end
$var wire 2 O r_index [1:0] $end
$var parameter 2 P DONE_S $end
$var parameter 2 Q EXPAND $end
$var parameter 2 R IDLE $end
$var parameter 65 S LOOP_BREAK_CONDITION $end
$var parameter 32 T Nb $end
$var parameter 32 U Nk $end
$var parameter 32 V Nr $end
$var reg 128 W current_key [127:0] $end
$var reg 1 < done $end
$var reg 1 X expanded $end
$var reg 32 Y i [31:0] $end
$var reg 128 Z key_reg [127:0] $end
$var reg 2 [ load_count [1:0] $end
$var reg 1 \ loading $end
$var reg 32 ] next_temp [31:0] $end
$var reg 4 ^ round_ctr [3:0] $end
$var reg 32 _ round_key [31:0] $end
$var reg 2 ` state [1:0] $end
$scope function rcon $end
$var reg 8 a rc [7:0] $end
$var integer 32 b i [31:0] $end
$upscope $end
$scope function rot_word $end
$var reg 32 c w [31:0] $end
$upscope $end
$scope function sbox_lookup $end
$var reg 8 d byte_in [7:0] $end
$upscope $end
$scope function sub_word $end
$var reg 32 e w [31:0] $end
$upscope $end
$upscope $end
$scope module mc $end
$var wire 32 f col_in [31:0] $end
$var wire 8 g s3 [7:0] $end
$var wire 8 h s2 [7:0] $end
$var wire 8 i s1 [7:0] $end
$var wire 8 j s0 [7:0] $end
$var wire 32 k col_out [31:0] $end
$scope function mul_by_3 $end
$var reg 8 l byte_in [7:0] $end
$upscope $end
$scope function xtime $end
$var reg 8 m byte_in [7:0] $end
$upscope $end
$upscope $end
$scope module sb $end
$var wire 32 n row_in [31:0] $end
$var wire 32 o row_out [31:0] $end
$scope function sbox_lookup $end
$upscope $end
$upscope $end
$scope module sm $end
$var wire 1 $ clock $end
$var wire 2 p count_4_out [1:0] $end
$var wire 1 < key_expand_done $end
$var wire 1 ) reset_n $end
$var wire 1 + start_read_n $end
$var wire 1 * start_write_n $end
$var parameter 6 q ADDROUNDKEY $end
$var parameter 6 r COMPUTE_ROUNDKEYS $end
$var parameter 6 s CTEXT_READ $end
$var parameter 6 t ENCRYPTION_DONE $end
$var parameter 6 u IDLE $end
$var parameter 6 v INIT_ADDROUNDKEY $end
$var parameter 6 w KEY_WRITE $end
$var parameter 6 x MIXCOLUMNS $end
$var parameter 4 y NUM_ROUNDS $end
$var parameter 6 z PTEXT_WRITE $end
$var parameter 6 { SHIFTROWS $end
$var parameter 6 | SUBBYTES $end
$var reg 2 } count_4 [1:0] $end
$var reg 6 ~ current_state [5:0] $end
$var reg 4 !" dbg_round [3:0] $end
$var reg 6 "" dbg_state [5:0] $end
$var reg 1 # done $end
$var reg 2 #" input_mat_idx [1:0] $end
$var reg 1 3 input_mat_row_col $end
$var reg 1 ; key_start $end
$var reg 4 $" matrix_in_sel [3:0] $end
$var reg 1 / matrix_write_enable $end
$var reg 2 %" next_count_4 [1:0] $end
$var reg 4 &" next_round_counter [3:0] $end
$var reg 6 '" next_state [5:0] $end
$var reg 2 (" output_mat_idx [1:0] $end
$var reg 1 7 output_mat_row_col $end
$var reg 4 )" round_counter [3:0] $end
$upscope $end
$scope module sr $end
$var wire 2 *" idx_row [1:0] $end
$var wire 32 +" row_in [31:0] $end
$var wire 32 ," row_out [31:0] $end
$var reg 32 -" row_out_reg [31:0] $end
$upscope $end
$upscope $end
$scope task printMatrix $end
$var reg 32 ." cycle [31:0] $end
$var reg 128 /" matrix_state [127:0] $end
$upscope $end
$upscope $end
$enddefinitions $end
$comment Show the parameter values. $end
$dumpall
b100 |
b101 {
b1 z
b1001 y
b110 x
b10 w
b1010 v
b0 u
b1000 t
b1001 s
b11 r
b111 q
b1010 V
b100 U
b100 T
b101011 S
b0 R
b1 Q
b10 P
$end
#0
$dumpvars
bx /"
bx ."
b0 -"
b0 ,"
b0 +"
b0 *"
b0 )"
b0 ("
b0 '"
b0 &"
b0 %"
b0 $"
b0 #"
b0 ""
b0 !"
b0 ~
b0 }
b0 p
b1100011011000110110001101100011 o
b0 n
b0 m
b0 l
b0 k
b0 j
b0 i
b0 h
b0 g
b0 f
bx e
bx d
bx c
bx b
bx a
b0 `
bx _
b0 ^
bx ]
0\
b0 [
bx Z
bx Y
0X
bx W
b0 O
b0 N
1M
bx L
b0 K
b10000 J
b0 I
b0 H
b0 G
b0 F
b0 E
bx D
b0 C
bx B
b0 A
bx @
b0 ?
b0 >
b0 =
0<
0;
b0 :
b0 9
b0 8
07
b0 6
bx 5
b0 4
03
b1100011011000110110001101100011 2
b0 1
b0 0
0/
b0 .
b0 -
b10000000000000000000000000000011 ,
1+
1*
0)
b110010010000111111011010101000100010000101101000110000100011010011000100110001100110001010001011100000001101110000011100110100 (
b101011011111100001010100010110001010001010111011010010101001101010101111110111000101011000100000001001110011110100111100111100 '
b0 &
b0 %
0$
0#
b0 "
b0 !
$end
#5000
bx L
bx Z
b10000 J
1$
#10000
0$
#15000
bx L
bx Z
b10000 J
1$
#20000
b110010010000111111011010101000 A
b110010010000111111011010101000 E
b1 '"
0$
b110010010000111111011010101000 &
b110010010000111111011010101000 -
b110010010000111111011010101000 K
0*
0M
1)
#25000
b1 >
b1 ""
13
1/
b1 %"
b1000000000000000000000000 ]
b1 a
b1 b
b1 ~
b100 Y
b1 `
1$
#30000
b1 %"
0$
1*
#35000
b1100100001100100011001001010110 9
b1100100001100100011001001010110 k
b110010 m
b110010 l
b100011011000110110001101100011 2
b100011011000110110001101100011 o
b110010 j
b110010 1
b110010 ,"
b110010 -"
b1 4
b1 G
b1 #"
b1 *"
13
b10 %"
b110010000000000000000000000000 "
b110010000000000000000000000000 .
b110010000000000000000000000000 0
b110010000000000000000000000000 C
b110010000000000000000000000000 I
b110010000000000000000000000000 f
b110010000000000000000000000000 n
b110010000000000000000000000000 +"
bx ]
b1 ?
b1 O
b1 p
b1 }
b110010010000111111011010101000000000000000000000000000000000000000000000000000000000000000000000000000000000000000000000000000 !
b110010010000111111011010101000000000000000000000000000000000000000000000000000000000000000000000000000000000000000000000000000 =
b110010010000111111011010101000000000000000000000000000000000000000000000000000000000000000000000000000000000000000000000000000 H
b101 Y
1$
#40000
b10001000010110100011000010001101 A
b10001000010110100011000010001101 E
0$
b10001000010110100011000010001101 &
b10001000010110100011000010001101 -
b10001000010110100011000010001101 K
#45000
b11100111001110011011101011011110 9
b11100111001110011011101011011110 k
b10001000 l
b10001000 m
b100011110001000110001101100011 2
b100011110001000110001101100011 o
b10001000 i
b11001010001000 1
b11001010001000 ,"
b11001010001000 -"
b110010100010000000000000000000 "
b110010100010000000000000000000 .
b110010100010000000000000000000 0
b110010100010000000000000000000 C
b110010100010000000000000000000 I
b110010100010000000000000000000 f
b110010100010000000000000000000 n
b110010100010000000000000000000 +"
b10 4
b10 G
b10 #"
b10 *"
13
b11 %"
b110010010000111111011010101000100010000101101000110000100011010000000000000000000000000000000000000000000000000000000000000000 !
b110010010000111111011010101000100010000101101000110000100011010000000000000000000000000000000000000000000000000000000000000000 =
b110010010000111111011010101000100010000101101000110000100011010000000000000000000000000000000000000000000000000000000000000000 H
b10 ?
b10 O
b10 p
b10 }
b110 Y
1$
#50000
b110001001100011001100010100010 A
b110001001100011001100010100010 E
0$
b110001001100011001100010100010 &
b110001001100011001100010100010 -
b110001001100011001100010100010 K
#55000
b11010110011010101101100011101111 9
b11010110011010101101100011101111 k
b110001 l
b110001 m
b100011110001001100011101100011 2
b100011110001001100011101100011 o
b110001 h
b1100101000100000110001 1
b1100101000100000110001 ,"
b1100101000100000110001 -"
1;
b11 4
b11 G
b11 #"
b11 *"
13
b0 %"
b10 '"
b110010100010000011000100000000 "
b110010100010000011000100000000 .
b110010100010000011000100000000 0
b110010100010000011000100000000 C
b110010100010000011000100000000 I
b110010100010000011000100000000 f
b110010100010000011000100000000 n
b110010100010000011000100000000 +"
b11 ?
b11 O
b11 p
b11 }
b110010010000111111011010101000100010000101101000110000100011010011000100110001100110001010001000000000000000000000000000000000 !
b110010010000111111011010101000100010000101101000110000100011010011000100110001100110001010001000000000000000000000000000000000 =
b110010010000111111011010101000100010000101101000110000100011010011000100110001100110001010001000000000000000000000000000000000 H
b111 Y
1$
#60000
b11100000001101110000011100110100 A
b11100000001101110000011100110100 E
0$
b11100000001101110000011100110100 &
b11100000001101110000011100110100 -
b11100000001101110000011100110100 K
#65000
b11100000 l
b11100000 m
b110110100010101110001100110100 9
b110110100010101110001100110100 k
b100011110001001100011111100001 2
b100011110001001100011111100001 o
b11100000 g
bx A
bx E
b110010100010000011000111100000 1
b110010100010000011000111100000 ,"
b110010100010000011000111100000 -"
b110010100010000011000111100000 "
b110010100010000011000111100000 .
b110010100010000011000111100000 0
b110010100010000011000111100000 C
b110010100010000011000111100000 I
b110010100010000011000111100000 f
b110010100010000011000111100000 n
b110010100010000011000111100000 +"
0;
b10 >
b10 ""
0/
bx :
bx $"
b0 4
b0 G
b0 #"
b0 *"
03
b1 %"
b10000000000000000000000000 ]
b10 a
b10 b
b110010010000111111011010101000100010000101101000110000100011010011000100110001100110001010001011100000001101110000011100110100 !
b110010010000111111011010101000100010000101101000110000100011010011000100110001100110001010001011100000001101110000011100110100 =
b110010010000111111011010101000100010000101101000110000100011010011000100110001100110001010001011100000001101110000011100110100 H
b0 ?
b0 O
b0 p
b0 }
b10 ~
b1000 Y
1\
1$
#70000
0$
b101011011111100001010100010110 &
b101011011111100001010100010110 -
b101011011111100001010100010110 K
#75000
b10001000001100011110000000110010 1
b10001000001100011110000000110010 ,"
b10001000001100011110000000110010 -"
b1 4
b1 G
b1 #"
b1 *"
b10 %"
b101011011111100001010100010110xxxxxxxxxxxxxxxxxxxxxxxxxxxxxxxxxxxxxxxxxxxxxxxxxxxxxxxxxxxxxxxxxxxxxxxxxxxxxxxxxxxxxxxxxxxxxxxx L
b101011011111100001010100010110xxxxxxxxxxxxxxxxxxxxxxxxxxxxxxxxxxxxxxxxxxxxxxxxxxxxxxxxxxxxxxxxxxxxxxxxxxxxxxxxxxxxxxxxxxxxxxxx Z
bx ]
b1 ?
b1 O
b1 p
b1 }
b1 [
b0 `
b1001 Y
1$
#80000
0$
b101000101011101101001010100110 &
b101000101011101101001010100110 -
b101000101011101101001010100110 K
#85000
b110001111000000011001010001000 1
b110001111000000011001010001000 ,"
b110001111000000011001010001000 -"
b11010001001101110001101000110 @
b11010001001101110001101000110 B
b10 4
b10 G
b10 #"
b10 *"
b11 %"
b101000101011101101001010100110 5
b101000101011101101001010100110 D
b101000101011101101001010100110 _
b10101101111110000101010001011000101000101011101101001010100110xxxxxxxxxxxxxxxxxxxxxxxxxxxxxxxxxxxxxxxxxxxxxxxxxxxxxxxxxxxxxxxx L
b10101101111110000101010001011000101000101011101101001010100110xxxxxxxxxxxxxxxxxxxxxxxxxxxxxxxxxxxxxxxxxxxxxxxxxxxxxxxxxxxxxxxx Z
b10 ?
b10 O
b10 p
b10 }
b10 [
1$
#90000
0$
b10101011111101110001010110001000 &
b10101011111101110001010110001000 -
b10101011111101110001010110001000 K
#95000
b11100000001100101000100000110001 1
b11100000001100101000100000110001 ,"
b11100000001100101000100000110001 -"
b11001111101100010010011110110 @
b11001111101100010010011110110 B
b11 4
b11 G
b11 #"
b11 *"
b0 %"
b11 '"
b101011011111100001010100010110 5
b101011011111100001010100010110 D
b101011011111100001010100010110 _
b1010110111111000010101000101100010100010101110110100101010011010101011111101110001010110001000xxxxxxxxxxxxxxxxxxxxxxxxxxxxxxxx L
b1010110111111000010101000101100010100010101110110100101010011010101011111101110001010110001000xxxxxxxxxxxxxxxxxxxxxxxxxxxxxxxx Z
b11 ?
b11 O
b11 p
b11 }
b11 [
1$
#100000
0$
b1001110011110100111100111100 &
b1001110011110100111100111100 -
b1001110011110100111100111100 K
#105000
b110010100010000011000111100000 1
b110010100010000011000111100000 ,"
b110010100010000011000111100000 -"
b111011010001110111111011011100 @
b111011010001110111111011011100 B
b11 >
b11 ""
b0 4
b0 G
b0 #"
b0 *"
b1001110011110100111100111100 5
b1001110011110100111100111100 D
b1001110011110100111100111100 _
b101011011111100001010100010110001010001010111011010010101001101010101111110111000101011000100000001001110011110100111100111100 L
b101011011111100001010100010110001010001010111011010010101001101010101111110111000101011000100000001001110011110100111100111100 Z
b0 ?
b0 O
b0 p
b0 }
b11 ~
b0 [
0\
1$
#110000
0$
b1 %
b0 ."
b110010010000111111011010101000100010000101101000110000100011010011000100110001100110001010001011100000001101110000011100110100 /"
#115000
b1 a
b1 b
b1001 d
b11001111010011110011110000001001 e
b1001110011110100111100111100 c
b1110001011111010110000000000001 ]
b100 Y
b1 `
b101011011111100001010100010110001010001010111011010010101001101010101111110111000101011000100000001001110011110100111100111100 W
1$
#120000
0$
b10 %
b1 ."
#125000
b1011010000000110111010100010111 ]
b101 Y
1$
#130000
0$
b11 %
b10 ."
#135000
b1110010101011011010011110110001 ]
b110 Y
1$
#140000
0$
b100 %
b11 ."
#145000
b11011001010110101011001000111001 ]
b111 Y
1$
#150000
0$
b101 %
b100 ."
#155000
b10 a
b10 b
b11010000 d
b10010101111111010000010111010000 e
b11010000100101011111110100000101 c
b101001000000000110101100111110 ]
b1000 Y
1$
#160000
0$
b110 %
b101 ."
#165000
b1110011000000110001111000101001 ]
b1001 Y
1$
#170000
0$
b111 %
b110 ."
#175000
b1101011101011100110011000 ]
b1010 Y
1$
#180000
0$
b1000 %
b111 ."
#185000
b11011000111101000000101110100001 ]
b1011 Y
1$
#190000
0$
b1001 %
b1000 ."
#195000
b100 a
b11 b
b1000 d
b1100001111101101010010000001000 e
b1000011000011111011010100100 c
b10110110000000000110011100110000 ]
b1100 Y
1$
#200000
0$
b1010 %
b1001 ."
#205000
b11000101000000110111100100011001 ]
b1101 Y
1$
#210000
0$
b1011 %
b1010 ."
#215000
b11000100101011011100000010000001 ]
b1110 Y
1$
#220000
0$
b1100 %
b1011 ."
#225000
b11100010110011100101100100000 ]
b1111 Y
1$
#230000
0$
b1101 %
b1100 ."
#235000
b1000 a
b100 b
b10100 d
b111000001111011000010000010100 e
b10100001110000011110110000100 c
b10001101001101010110011111111010 ]
b10000 Y
1$
#240000
0$
b1110 %
b1101 ."
#245000
b1001000001101100001111011100011 ]
b10001 Y
1$
#250000
0$
b1111 %
b1110 ."
#255000
b10001100100110111101111001100010 ]
b10010 Y
1$
#260000
0$
b10000 %
b1111 ."
#265000
b10010000110000100001010101000010 ]
b10011 Y
1$
#270000
0$
b10001 %
b10000 ."
#275000
b10000 a
b101 b
b10000100 d
b11111010001010001100011010000100 e
b10000100111110100010100011000110 c
b10000111010110110110001100111 ]
b10100 Y
1$
#280000
0$
b10010 %
b10001 ."
#285000
b1011000110111010111001010000100 ]
b10101 Y
1$
#290000
0$
b10011 %
b10010 ."
#295000
b11010100010001101010110011100110 ]
b10110 Y
1$
#300000
0$
b10100 %
b10011 ."
#305000
b1000100100001001011100110100100 ]
b10111 Y
1$
#310000
0$
b10101 %
b10100 ."
#315000
b100000 a
b110 b
b11000000 d
b1111110100100010110001011000000 e
b11000000011111101001000101100010 c
b10101010101100100111010100111110 ]
b11000 Y
1$
#320000
0$
b10110 %
b10101 ."
#325000
b11110010011011110000011110111010 ]
b11001 Y
1$
#330000
0$
b10111 %
b10110 ."
#335000
b100110001010011010101101011100 ]
b11010 Y
1$
#340000
0$
b11000 %
b10111 ."
#345000
b1100010101011010001001011111000 ]
b11011 Y
1$
#350000
0$
b11001 %
b11000 ."
#355000
b1000000 a
b111 b
b10100010 d
b11010011100000111001101010100010 e
b10100010110100111000001110011010 c
b10000100110001000010100001110101 ]
b11100 Y
1$
#360000
0$
b11010 %
b11001 ."
#365000
b1110110101010110010111111001111 ]
b11101 Y
1$
#370000
0$
b11011 %
b11010 ."
#375000
b1010000100000101000010010010011 ]
b11110 Y
1$
#380000
0$
b11100 %
b11011 ."
#385000
b110010001011111001011001101011 ]
b11111 Y
1$
#390000
0$
b11101 %
b11100 ."
#395000
b10000000 a
b1000 b
b10010000 d
b11111100000101011111000110010000 e
b10010000111111000001010111110001 c
b10000000010110010000000000111110 ]
b100000 Y
1$
#400000
0$
b11110 %
b11101 ."
#405000
b11110110111100100010111111110001 ]
b100001 Y
1$
#410000
0$
b11111 %
b11110 ."
#415000
b10100110011100001010101101100010 ]
b100010 Y
1$
#420000
0$
b100000 %
b11111 ."
#425000
b10010100010111110011110100001001 ]
b100011 Y
1$
#430000
0$
b100001 %
b100000 ."
#435000
b11011 a
b1001 b
b100 d
b10100011001010001111100000000100 e
b100101000110010100011111000 c
b11011111111010110000000011110010 ]
b100100 Y
1$
#440000
0$
b100010 %
b100001 ."
#445000
b101001000110010010111100000011 ]
b100101 Y
1$
#450000
0$
b100011 %
b100010 ."
#455000
b10001111011010011000010001100001 ]
b100110 Y
1$
#460000
0$
b100100 %
b100011 ."
#465000
b11011001101101011100101101000 ]
b100111 Y
1$
#470000
0$
b100101 %
b100100 ."
#475000
b110110 a
b1010 b
b11111 d
b10010101100100011001000000011111 e
b11111100101011001000110010000 c
b11101101100100011111011000000 ]
b101000 Y
1$
#480000
0$
b100110 %
b100101 ."
#485000
b110100101010110001000111000011 ]
b101001 Y
1$
#490000
0$
b100111 %
b100110 ."
#495000
b10111011110000101001010110100010 ]
b101010 Y
1$
#500000
0$
b101000 %
b100111 ."
#505000
b10100000111101000010110011001010 ]
b101011 Y
1$
#510000
0$
b101001 %
b101000 ."
#515000
b0 a
b1011 b
b10111111 d
b1100001101111010101101010111111 e
b10111111011000011011110101011010 c
b10110010000010111110000001110000 ]
b101100 Y
1$
#520000
0$
b101010 %
b101001 ."
#525000
b10 `
1$
#530000
0$
b101011 %
b101010 ."
#535000
b1010 '"
b0 `
1<
1$
#540000
0$
b101100 %
b101011 ."
#545000
b1000011 l
b1000011 m
b11111111000111010110010110101000 9
b11111111000111010110010110101000 k
b100011000110100100001011000010 2
b100011000110100100001011000010 o
b1000011 i
b11110110 h
b10101000 g
b111011100011001011100110010100 @
b111011100011001011100110010100 B
b110010010000111111011010101000 1
b110010010000111111011010101000 ,"
b110010010000111111011010101000 -"
b110010010000111111011010101000 "
b110010010000111111011010101000 .
b110010010000111111011010101000 0
b110010010000111111011010101000 C
b110010010000111111011010101000 I
b110010010000111111011010101000 f
b110010010000111111011010101000 n
b110010010000111111011010101000 +"
b111011100011001011100110010100 A
b111011100011001011100110010100 E
b1010 >
b1010 ""
17
13
1/
b100 :
b100 $"
b1 %"
b1 a
b1 b
b1001 d
b11001111010011110011110000001001 e
b1001110011110100111100111100 c
b1110001011111010110000000000001 ]
b1010 ~
b100 Y
b1 `
1$
#550000
0$
b101101 %
b101100 ."
#555000
b10001000 l
b10001000 m
b1011000111000010011111011101000 9
b1011000111000010011111011101000 k
b11000100101111100000010001011101 2
b11000100101111100000010001011101 o
b100011101011010010010100000101 A
b100011101011010010010100000101 E
b10001000 j
b1011010 i
b110000 h
b10001101 g
b100011101011010010010100000101 @
b100011101011010010010100000101 B
b1011010001100001000110110001000 1
b1011010001100001000110110001000 ,"
b1011010001100001000110110001000 -"
b1 8
b1 F
b1 ("
b1 4
b1 G
b1 #"
b1 *"
17
13
b10 %"
b10101011111101110001010110001000 5
b10101011111101110001010110001000 D
b10101011111101110001010110001000 _
b10001000010110100011000010001101 "
b10001000010110100011000010001101 .
b10001000010110100011000010001101 0
b10001000010110100011000010001101 C
b10001000010110100011000010001101 I
b10001000010110100011000010001101 f
b10001000010110100011000010001101 n
b10001000010110100011000010001101 +"
b1011010000000110111010100010111 ]
b1 ?
b1 O
b1 p
b1 }
b111011100011001011100110010100100010000101101000110000100011010011000100110001100110001010001011100000001101110000011100110100 !
b111011100011001011100110010100100010000101101000110000100011010011000100110001100110001010001011100000001101110000011100110100 =
b111011100011001011100110010100100010000101101000110000100011010011000100110001100110001010001011100000001101110000011100110100 H
b101 Y
1$
#560000
0$
b101110 %
b101101 ."
b111011100011001011100110010100100010000101101000110000100011010011000100110001100110001010001011100000001101110000011100110100 /"
#565000
b110001 l
b110001 m
b1011010000101101011010100101 9
b1011010000101101011010100101 k
b11000111110001110100011000111010 2
b11000111110001110100011000111010 o
b11001100111110100101000000100 A
b11001100111110100101000000100 E
b110001 j
b110001 i
b10011000 h
b10100010 g
b10011000101000100011000100110001 1
b10011000101000100011000100110001 ,"
b10011000101000100011000100110001 -"
b11001100111110100101000000100 @
b11001100111110100101000000100 B
b110001001100011001100010100010 "
b110001001100011001100010100010 .
b110001001100011001100010100010 0
b110001001100011001100010100010 C
b110001001100011001100010100010 I
b110001001100011001100010100010 f
b110001001100011001100010100010 n
b110001001100011001100010100010 +"
b10 8
b10 F
b10 ("
17
b10 4
b10 G
b10 #"
b10 *"
13
b11 %"
b101000101011101101001010100110 5
b101000101011101101001010100110 D
b101000101011101101001010100110 _
b1110010101011011010011110110001 ]
b111011100011001011100110010100001000111010110100100101000001010011000100110001100110001010001011100000001101110000011100110100 !
b111011100011001011100110010100001000111010110100100101000001010011000100110001100110001010001011100000001101110000011100110100 =
b111011100011001011100110010100001000111010110100100101000001010011000100110001100110001010001011100000001101110000011100110100 H
b10 ?
b10 O
b10 p
b10 }
b110 Y
1$
#570000
0$
b101111 %
b101110 ."
b111011100011001011100110010100001000111010110100100101000001010011000100110001100110001010001011100000001101110000011100110100 /"
#575000
b11100000 l
b11100000 m
b10110001101100111000010101100011 9
b10110001101100111000010101100011 k
b11100001100110101100010100011000 2
b11100001100110101100010100011000 o
b11001011010010010001001000100010 A
b11001011010010010001001000100010 E
b11100000 j
b110111 i
b111 h
b110100 g
b11001011010010010001001000100010 @
b11001011010010010001001000100010 B
b110100111000000011011100000111 1
b110100111000000011011100000111 ,"
b110100111000000011011100000111 -"
b11 8
b11 F
b11 ("
17
b11 4
b11 G
b11 #"
b11 *"
13
b0 %"
b100 '"
b101011011111100001010100010110 5
b101011011111100001010100010110 D
b101011011111100001010100010110 _
b11100000001101110000011100110100 "
b11100000001101110000011100110100 .
b11100000001101110000011100110100 0
b11100000001101110000011100110100 C
b11100000001101110000011100110100 I
b11100000001101110000011100110100 f
b11100000001101110000011100110100 n
b11100000001101110000011100110100 +"
b11011001010110101011001000111001 ]
b11 ?
b11 O
b11 p
b11 }
b111011100011001011100110010100001000111010110100100101000001010001100110011111010010100000010011100000001101110000011100110100 !
b111011100011001011100110010100001000111010110100100101000001010001100110011111010010100000010011100000001101110000011100110100 =
b111011100011001011100110010100001000111010110100100101000001010001100110011111010010100000010011100000001101110000011100110100 H
b111 Y
1$
#580000
0$
b110000 %
b101111 ."
b111011100011001011100110010100001000111010110100100101000001010001100110011111010010100000010011100000001101110000011100110100 /"
#585000
b111011 l
b111011 m
b11010100011111000111100101001011 9
b11010100011111000111100101001011 k
b11100010011001000101011000100010 2
b11100010011001000101011000100010 o
b111011 j
b10001100 i
b10111001 h
b10010100 g
b110010010000111111011010101000 @
b110010010000111111011010101000 B
b11100010011001000101011000100010 A
b11100010011001000101011000100010 E
b111011100011001011100110010100 1
b111011100011001011100110010100 ,"
b111011100011001011100110010100 -"
b111011100011001011100110010100 "
b111011100011001011100110010100 .
b111011100011001011100110010100 0
b111011100011001011100110010100 C
b111011100011001011100110010100 I
b111011100011001011100110010100 f
b111011100011001011100110010100 n
b111011100011001011100110010100 +"
b1001110011110100111100111100 5
b1001110011110100111100111100 D
b1001110011110100111100111100 _
b100 >
b100 ""
b1 :
b1 $"
b0 8
b0 F
b0 ("
17
b0 4
b0 G
b0 #"
b0 *"
13
b1 %"
b10 a
b10 b
b11010000 d
b10010101111111010000010111010000 e
b11010000100101011111110100000101 c
b101001000000000110101100111110 ]
b111011100011001011100110010100001000111010110100100101000001010001100110011111010010100000010011001011010010010001001000100010 !
b111011100011001011100110010100001000111010110100100101000001010001100110011111010010100000010011001011010010010001001000100010 =
b111011100011001011100110010100001000111010110100100101000001010001100110011111010010100000010011001011010010010001001000100010 H
b0 ?
b0 O
b0 p
b0 }
b100 ~
b1000 Y
1$
#590000
0$
b110001 %
b110000 ."
b111011100011001011100110010100001000111010110100100101000001010001100110011111010010100000010011001011010010010001001000100010 /"
#595000
b100110100101010011111101101011 A
b100110100101010011111101101011 E
b100011 l
b100011 m
b10001010000010001100101111100111 9
b10001010000010001100101111100111 k
b100110100101010011111101101011 2
b100110100101010011111101101011 o
b100011 j
b10101101 i
b100101 h
b101 g
b10001000010110100011000010001101 @
b10001000010110100011000010001101 B
b10101101001001010000010100100011 1
b10101101001001010000010100100011 ,"
b10101101001001010000010100100011 -"
b1 8
b1 F
b1 ("
b1 4
b1 G
b1 #"
b1 *"
17
13
b10 %"
b10101011111101110001010110001000 5
b10101011111101110001010110001000 D
b10101011111101110001010110001000 _
b100011101011010010010100000101 "
b100011101011010010010100000101 .
b100011101011010010010100000101 0
b100011101011010010010100000101 C
b100011101011010010010100000101 I
b100011101011010010010100000101 f
b100011101011010010010100000101 n
b100011101011010010010100000101 +"
b1110011000000110001111000101001 ]
b1 ?
b1 O
b1 p
b1 }
b11100010011001000101011000100010001000111010110100100101000001010001100110011111010010100000010011001011010010010001001000100010 !
b11100010011001000101011000100010001000111010110100100101000001010001100110011111010010100000010011001011010010010001001000100010 =
b11100010011001000101011000100010001000111010110100100101000001010001100110011111010010100000010011001011010010010001001000100010 H
b1001 Y
1$
#600000
0$
b110010 %
b110001 ."
b11100010011001000101011000100010001000111010110100100101000001010001100110011111010010100000010011001011010010010001001000100010 /"
#605000
b11010100110110111101011011110010 A
b11010100110110111101011011110010 E
b11001 l
b11001 m
b11000110111001100001111011110110 9
b11000110111001100001111011110110 k
b11010100110110111101011011110010 2
b11010100110110111101011011110010 o
b11001 j
b10011111 i
b1001010 h
b100 g
b1001010000001000001100110011111 1
b1001010000001000001100110011111 ,"
b1001010000001000001100110011111 -"
b110001001100011001100010100010 @
b110001001100011001100010100010 B
b11001100111110100101000000100 "
b11001100111110100101000000100 .
b11001100111110100101000000100 0
b11001100111110100101000000100 C
b11001100111110100101000000100 I
b11001100111110100101000000100 f
b11001100111110100101000000100 n
b11001100111110100101000000100 +"
b10 8
b10 F
b10 ("
17
b10 4
b10 G
b10 #"
b10 *"
13
b11 %"
b101000101011101101001010100110 5
b101000101011101101001010100110 D
b101000101011101101001010100110 _
b1101011101011100110011000 ]
b11100010011001000101011000100010001001101001010100111111011010110001100110011111010010100000010011001011010010010001001000100010 !
b11100010011001000101011000100010001001101001010100111111011010110001100110011111010010100000010011001011010010010001001000100010 =
b11100010011001000101011000100010001001101001010100111111011010110001100110011111010010100000010011001011010010010001001000100010 H
b10 ?
b10 O
b10 p
b10 }
b1010 Y
1$
#610000
0$
b110011 %
b110010 ."
b11100010011001000101011000100010001001101001010100111111011010110001100110011111010010100000010011001011010010010001001000100010 /"
